<?xml version="1.0" encoding="UTF-8" standalone="no"?>
<svg
   xmlns:dc="http://purl.org/dc/elements/1.1/"
   xmlns:cc="http://creativecommons.org/ns#"
   xmlns:rdf="http://www.w3.org/1999/02/22-rdf-syntax-ns#"
   xmlns:svg="http://www.w3.org/2000/svg"
   xmlns="http://www.w3.org/2000/svg"
   xmlns:xlink="http://www.w3.org/1999/xlink"
   xmlns:sodipodi="http://sodipodi.sourceforge.net/DTD/sodipodi-0.dtd"
   xmlns:inkscape="http://www.inkscape.org/namespaces/inkscape"
   width="992"
   height="1955"
   inkscape:version="1.0 (4035a4fb49, 2020-05-01)"
   sodipodi:docname="PCMINI_E30.svg"
   id="svg2"
   version="1.1">
  <metadata
     id="metadata8">
    <rdf:RDF>
      <cc:Work
         rdf:about="">
        <dc:format>image/svg+xml</dc:format>
        <dc:type
           rdf:resource="http://purl.org/dc/dcmitype/StillImage" />
        <dc:title />
      </cc:Work>
    </rdf:RDF>
  </metadata>
  <defs
     id="defs6">
    <filter
       inkscape:label="deevad outline effect"
       id="filter4375-4-1-1-1-9-5"
       style="color-interpolation-filters:sRGB">
      <feFlood
         result="flood"
         flood-color="rgb(0,0,0)"
         flood-opacity="1"
         id="feFlood4377-7-9-0-8-1-7" />
      <feComposite
         result="composite1"
         operator="in"
         in="flood"
         in2="SourceGraphic"
         id="feComposite4379-3-8-8-2-77-4" />
      <feMorphology
         result="result3"
         radius="1.3999999999999999"
         operator="dilate"
         id="feMorphology4393-1-0-49-8-9-3" />
      <feComposite
         result="composite2"
         operator="over"
         in="SourceGraphic"
         in2="result3"
         id="feComposite4385-9-5-7-0-8-8" />
    </filter>
    <filter
       inkscape:label="deevad outline effect"
       id="filter4375-4-1-1-1-9-5-2"
       style="color-interpolation-filters:sRGB">
      <feFlood
         result="flood"
         flood-color="rgb(0,0,0)"
         flood-opacity="1"
         id="feFlood4377-7-9-0-8-1-7-3" />
      <feComposite
         result="composite1"
         operator="in"
         in="flood"
         in2="SourceGraphic"
         id="feComposite4379-3-8-8-2-77-4-6" />
      <feMorphology
         result="result3"
         radius="1.3999999999999999"
         operator="dilate"
         id="feMorphology4393-1-0-49-8-9-3-6" />
      <feComposite
         result="composite2"
         operator="over"
         in="SourceGraphic"
         in2="result3"
         id="feComposite4385-9-5-7-0-8-8-7" />
    </filter>
    <filter
       height="1.0029159"
       y="-0.0014578935"
       width="1.0020597"
       x="-0.0010298714"
       id="filter4213-8-5"
       style="color-interpolation-filters:sRGB"
       inkscape:collect="always">
      <feGaussianBlur
         id="feGaussianBlur4215-7-6"
         stdDeviation="0.24308766"
         inkscape:collect="always" />
    </filter>
    <filter
       inkscape:label="deevad outline effect"
       id="filter4375-4-1-1-1-9"
       style="color-interpolation-filters:sRGB">
      <feFlood
         result="flood"
         flood-color="rgb(0,0,0)"
         flood-opacity="1"
         id="feFlood4377-7-9-0-8-1" />
      <feComposite
         result="composite1"
         operator="in"
         in="flood"
         in2="SourceGraphic"
         id="feComposite4379-3-8-8-2-77" />
      <feMorphology
         result="result3"
         radius="4"
         operator="dilate"
         id="feMorphology4393-1-0-49-8-9" />
      <feComposite
         result="composite2"
         operator="over"
         in="SourceGraphic"
         in2="result3"
         id="feComposite4385-9-5-7-0-8" />
    </filter>
    <filter
       height="1.5"
       width="1.3"
       id="filter8274"
       inkscape:label="narrator-drop-shadow"
       style="color-interpolation-filters:sRGB">
      <feFlood
         id="feFlood8264"
         result="flood"
         flood-color="rgb(0,21,64)"
         flood-opacity="0.603922" />
      <feComposite
         id="feComposite8266"
         result="composite1"
         operator="in"
         in2="SourceGraphic"
         in="flood" />
      <feGaussianBlur
         id="feGaussianBlur8268"
         result="blur"
         stdDeviation="2.0230825044646368"
         in="composite1" />
      <feOffset
         id="feOffset8270"
         result="offset"
         dy="4.8380533854166714"
         dx="-7.4077921838061513" />
      <feComposite
         id="feComposite8272"
         result="fbSourceGraphic"
         operator="over"
         in2="offset"
         in="SourceGraphic" />
      <feColorMatrix
         id="feColorMatrix8420"
         values="0 0 0 -1 0 0 0 0 -1 0 0 0 0 -1 0 0 0 0 1 0"
         in="fbSourceGraphic"
         result="fbSourceGraphicAlpha" />
      <feFlood
         in="fbSourceGraphic"
         result="flood"
         flood-color="rgb(0,12,37)"
         flood-opacity="0.061934527228860295"
         id="feFlood8422" />
      <feComposite
         result="composite1"
         operator="in"
         in="flood"
         id="feComposite8424"
         in2="fbSourceGraphic" />
      <feGaussianBlur
         result="blur"
         stdDeviation="1"
         in="composite1"
         id="feGaussianBlur8426" />
      <feOffset
         result="offset"
         dy="-2.8318869588504754"
         dx="-3.3194756113327486"
         id="feOffset8428" />
      <feComposite
         result="composite2"
         operator="over"
         in="fbSourceGraphic"
         id="feComposite8430"
         in2="offset" />
    </filter>
    <filter
       x="-0.015227396"
       width="1.0304559"
       y="-0.024240738"
       height="1.0484816"
       inkscape:menu-tooltip="Something like a water noise"
       inkscape:menu="Distort"
       inkscape:label="Lapping"
       id="filter3018-7-5"
       style="color-interpolation-filters:sRGB">
      <feTurbulence
         result="result1"
         baseFrequency="0.1"
         type="fractalNoise"
         seed="0"
         numOctaves="5"
         id="feTurbulence3020-0-6" />
      <feGaussianBlur
         result="result2"
         stdDeviation="2"
         id="feGaussianBlur3022-9-9" />
      <feDisplacementMap
         in="SourceGraphic"
         xChannelSelector="R"
         yChannelSelector="B"
         scale="50"
         in2="result2"
         id="feDisplacementMap3024-3-3" />
    </filter>
    <filter
       style="color-interpolation-filters:sRGB"
       id="filter3018-7-5-0"
       inkscape:label="Lapping"
       inkscape:menu="Distort"
       inkscape:menu-tooltip="Something like a water noise"
       height="1.0484816"
       y="-0.024240738"
       width="1.0304559"
       x="-0.015227396">
      <feTurbulence
         id="feTurbulence3020-0-6-3"
         numOctaves="5"
         seed="0"
         type="fractalNoise"
         baseFrequency="0.1"
         result="result1" />
      <feGaussianBlur
         id="feGaussianBlur3022-9-9-9"
         stdDeviation="2"
         result="result2" />
      <feDisplacementMap
         id="feDisplacementMap3024-3-3-8"
         in2="result2"
         scale="50"
         yChannelSelector="B"
         xChannelSelector="R"
         in="SourceGraphic" />
    </filter>
    <filter
       x="-0.015227396"
       width="1.0304559"
       y="-0.024240738"
       height="1.0484816"
       inkscape:menu-tooltip="Something like a water noise"
       inkscape:menu="Distort"
       inkscape:label="Lapping"
       id="filter3018-7-5-0-2"
       style="color-interpolation-filters:sRGB">
      <feTurbulence
         result="result1"
         baseFrequency="0.1"
         type="fractalNoise"
         seed="0"
         numOctaves="5"
         id="feTurbulence3020-0-6-3-6" />
      <feGaussianBlur
         result="result2"
         stdDeviation="2"
         id="feGaussianBlur3022-9-9-9-6" />
      <feDisplacementMap
         in="SourceGraphic"
         xChannelSelector="R"
         yChannelSelector="B"
         scale="50"
         in2="result2"
         id="feDisplacementMap3024-3-3-8-0" />
    </filter>
    <filter
       style="color-interpolation-filters:sRGB"
       id="filter3018-7-5-0-2-0"
       inkscape:label="Lapping"
       inkscape:menu="Distort"
       inkscape:menu-tooltip="Something like a water noise"
       height="1.0484816"
       y="-0.024240738"
       width="1.0304559"
       x="-0.015227396">
      <feTurbulence
         id="feTurbulence3020-0-6-3-6-8"
         numOctaves="5"
         seed="0"
         type="fractalNoise"
         baseFrequency="0.1"
         result="result1" />
      <feGaussianBlur
         id="feGaussianBlur3022-9-9-9-6-6"
         stdDeviation="2"
         result="result2" />
      <feDisplacementMap
         id="feDisplacementMap3024-3-3-8-0-6"
         in2="result2"
         scale="50"
         yChannelSelector="B"
         xChannelSelector="R"
         in="SourceGraphic" />
    </filter>
    <filter
       style="color-interpolation-filters:sRGB"
       id="filter4375-4-1-1-1-9-5-8-8-3-3-3-6-1"
       inkscape:label="magic-Fx-red"
       height="1.2649201"
       width="1.0488954"
       x="-0.025336076"
       y="-0.090616062">
      <feFlood
         id="feFlood4377-7-9-0-8-1-7-3-1-6-61-6-2-0"
         flood-opacity="1"
         flood-color="rgb(216,88,33)"
         result="flood"
         radius="5.0999999999999996" />
      <feComposite
         id="feComposite4379-3-8-8-2-77-4-1-0-7-2-7-6-6"
         in2="SourceGraphic"
         in="flood"
         operator="in"
         result="composite1"
         baseFrequency="0.053999999999999999 0.053999999999999999" />
      <feMorphology
         id="feMorphology4393-1-0-49-8-9-3-0-1-5-9-5-1-3"
         operator="dilate"
         radius="0.96959439099754563"
         result="result3" />
      <feComposite
         id="feComposite4385-9-5-7-0-8-8-7-5-3-3-3-8-2"
         in2="result3"
         in="SourceGraphic"
         operator="over"
         result="fbSourceGraphic"
         numOctaves="4" />
      <feColorMatrix
         result="fbSourceGraphicAlpha"
         in="fbSourceGraphic"
         values="0 0 0 -1 0 0 0 0 -1 0 0 0 0 -1 0 0 0 0 1 0"
         id="feColorMatrix4544-9-5-1-5-7-0" />
      <feTurbulence
         id="feTurbulence4546-3-6-9-6-9-6"
         type="fractalNoise"
         numOctaves="4.4123222748815163"
         seed="172"
         baseFrequency="0.062 0.054054054054054057"
         result="turbulence" />
      <feDisplacementMap
         id="feDisplacementMap4548-8-2-4-2-2-1"
         in2="turbulence"
         in="fbSourceGraphic"
         scale="11.642079"
         yChannelSelector="G"
         xChannelSelector="R"
         result="fbSourceGraphic" />
      <feColorMatrix
         result="fbSourceGraphicAlpha"
         in="fbSourceGraphic"
         values="0 0 0 -1 0 0 0 0 -1 0 0 0 0 -1 0 0 0 0 1 0"
         id="feColorMatrix4670-7-9-7-9-0-5"
         scale="10.800000000000001" />
      <feComposite
         id="feComposite4674-8-2-4-1-2-5"
         in2="fbSourceGraphic"
         in="flood"
         operator="in"
         result="composite1" />
      <feGaussianBlur
         id="feGaussianBlur4676-3-7-50-2-3-4"
         in="composite1"
         stdDeviation="1.5865199271065846"
         result="blur" />
      <feOffset
         id="feOffset4678-6-0-3-7-7-7"
         dx="-0.42771311737301687"
         dy="5.2374444725016502"
         result="offset" />
      <feComposite
         id="feComposite4680-4-9-6-0-5-6"
         in2="offset"
         in="fbSourceGraphic"
         operator="over"
         result="composite2" />
      <feGaussianBlur
         id="feGaussianBlur58-9-9-5"
         stdDeviation="0.60935760846819198" />
      <feOffset
         id="feOffset60-3-2-6"
         dy="0"
         dx="0" />
    </filter>
    <filter
       style="color-interpolation-filters:sRGB"
       id="filter4375-4-1-1-1-9-5-8-8-1-0-7-9-4"
       inkscape:label="Drop Shadow"
       x="-0.090000004"
       y="-0.079999998"
       width="1.16"
       height="1.16"
       inkscape:auto-region="false">
      <feFlood
         id="feFlood4377-7-9-0-8-1-7-3-1-0-6-4-2-7"
         flood-opacity="1"
         flood-color="rgb(9,15,22)"
         result="flood"
         radius="5.0999999999999996" />
      <feComposite
         id="feComposite4379-3-8-8-2-77-4-1-0-6-1-4-6-6"
         in2="SourceGraphic"
         in="flood"
         operator="in"
         result="composite1"
         baseFrequency="0.053999999999999999 0.053999999999999999" />
      <feMorphology
         id="feMorphology4393-1-0-49-8-9-3-0-1-3-5-3-6-3"
         operator="dilate"
         radius="5.1272503082614058"
         result="result3" />
      <feComposite
         id="feComposite4385-9-5-7-0-8-8-7-5-2-5-0-4-1"
         in2="result3"
         in="SourceGraphic"
         operator="over"
         result="fbSourceGraphic"
         numOctaves="4" />
      <feColorMatrix
         result="fbSourceGraphicAlpha"
         in="fbSourceGraphic"
         values="0 0 0 -1 0 0 0 0 -1 0 0 0 0 -1 0 0 0 0 1 0"
         id="feColorMatrix4544-9-0-4-7-9-7" />
      <feTurbulence
         id="feTurbulence4546-3-61-7-8-5-5"
         type="fractalNoise"
         numOctaves="4.4123222748815163"
         seed="172"
         baseFrequency="0.062 0.054054054054054057"
         result="turbulence" />
      <feDisplacementMap
         id="feDisplacementMap4548-8-5-6-6-0-9"
         in2="turbulence"
         in="fbSourceGraphic"
         scale="10.781991"
         yChannelSelector="G"
         xChannelSelector="R"
         result="fbSourceGraphic" />
      <feColorMatrix
         result="fbSourceGraphicAlpha"
         in="fbSourceGraphic"
         values="0 0 0 -1 0 0 0 0 -1 0 0 0 0 -1 0 0 0 0 1 0"
         id="feColorMatrix4670-7-5-5-8-4-6"
         scale="10.800000000000001" />
      <feFlood
         id="feFlood4672-4-4-6-8-8-2"
         flood-opacity="1"
         flood-color="rgb(45,8,0)"
         result="flood"
         in="fbSourceGraphic"
         dx="-2.3999999999999999" />
      <feComposite
         id="feComposite4674-8-7-9-4-7-1"
         in2="fbSourceGraphic"
         in="flood"
         operator="in"
         result="composite1" />
      <feGaussianBlur
         id="feGaussianBlur4676-3-6-3-3-1-7"
         in="composite1"
         stdDeviation="0"
         result="blur" />
      <feOffset
         id="feOffset4678-6-56-7-1-7-8"
         dx="-2.3696682464454994"
         dy="3.1000000000000001"
         result="offset" />
      <feComposite
         id="feComposite4680-4-93-4-4-2-5"
         in2="offset"
         in="fbSourceGraphic"
         operator="over"
         result="composite2" />
    </filter>
    <filter
       x="-0.079999998"
       width="1.17"
       y="-0.079999998"
       height="1.17"
       inkscape:menu-tooltip="Something like a water noise"
       inkscape:menu="Distort"
       inkscape:label="dark-magic-speech"
       id="filter3018-9-9-3-2-3-8"
       style="color-interpolation-filters:sRGB"
       inkscape:auto-region="false">
      <feTurbulence
         result="result1"
         baseFrequency="0.0500663412014304"
         type="fractalNoise"
         seed="0"
         numOctaves="5"
         id="feTurbulence3020-3-0-6-9-6-7" />
      <feGaussianBlur
         result="result2"
         stdDeviation="2"
         id="feGaussianBlur3022-77-9-7-1-0-9" />
      <feDisplacementMap
         in="SourceGraphic"
         xChannelSelector="R"
         yChannelSelector="B"
         scale="50"
         in2="result2"
         id="feDisplacementMap3024-6-9-5-2-6-2" />
    </filter>
  </defs>
  <sodipodi:namedview
     inkscape:document-rotation="0"
     inkscape:snap-text-baseline="true"
     inkscape:current-layer="svg2"
     inkscape:window-maximized="1"
     inkscape:window-y="-8"
     inkscape:window-x="1912"
     inkscape:cy="874.2527"
     inkscape:cx="489.16534"
     inkscape:zoom="1.28"
     showgrid="false"
     id="namedview4"
     inkscape:window-height="1057"
     inkscape:window-width="1920"
     inkscape:pageshadow="2"
     inkscape:pageopacity="0"
     guidetolerance="10"
     gridtolerance="10"
     objecttolerance="10"
     borderopacity="1"
     bordercolor="#666666"
     pagecolor="#ffffff">
    <inkscape:grid
       id="grid5917"
       type="xygrid" />
  </sodipodi:namedview>
  <image
     sodipodi:absref="../../img/30/gfx_Pepper-and-Carrot-MINI_by_Nicolas_Artance_E30.png"
     xlink:href="../../img/30/gfx_Pepper-and-Carrot-MINI_by_Nicolas_Artance_E30.png"
     style="fill:#ffffff;fill-opacity:1"
     width="992"
     height="1955"
     preserveAspectRatio="none"
     id="image10"
     x="0"
     y="0" />
  <path
     inkscape:connector-curvature="0"
     id="path4376"
     d="m 285.79094,133.87575 c -0.80153,-0.656 -1.72219,-1.6703 -2.04606,-2.2541 l -0.58888,-1.0612 v -1.5513 -1.5516 l 0.99753,-0.9296 0.9975,-0.9297 h 0.72966 c 0.40131,0 1.08228,-0.2625 1.51322,-0.5647 l 0.78356,-0.5525 0.30437,-1.9925 0.30438,-1.9925 0.0281,-8.6431 0.0281,-8.6429 -0.42072,-0.7328 -0.42066,-0.7328 h -0.72475 c -0.39859,0 -1.69418,-0.2687 -2.87912,-0.5962 l -2.15431,-0.5966 -0.96732,-0.901596 -0.96731,-0.9015 v -0.5856 -0.5854 h 2.33672 2.33681 l 1.82875,-0.8368 1.82878,-0.8366 0.11594,-13.2587 0.11594,-13.2588 -0.48228,-1.6387 -0.48241,-1.6388 -0.85297,-0.5156 -0.8529,-0.5156 -3.55594,-0.2657 -3.55584,-0.2656 v -0.4537 -0.4538 l 1.79731,-1.6994 1.7974,-1.6993 5.14357,-2.1672 5.1435,-2.1672 0.78275,0.2312 c 0.43043,0.1282 1.33034,0.6613 1.99968,1.1863 l 1.21691,0.9544 v 0.5075 c 0,0.2781 0.2875,0.7753 0.63872,1.1028 l 0.63859,0.5953 h 4.1926 4.19262 l 3.52319,0.9515 c 1.93772,0.5235 4.40506,1.3685 5.48315,1.8775 1.07794,0.5094 3.41257,1.9463 5.188,3.1935 l 3.22797,2.2672 1.11566,1.5006 1.11559,1.5006 0.58166,1.8016 0.58172,1.8019 v 2.5578 2.5578 l -0.76057,2.2778 -0.76059,2.2781 -1.50334,2.5056 -1.50335,2.506 -2.44418,2.4356 -2.44419,2.4356 -2.70853,1.8607 c -1.48972,1.0231 -3.62294,2.2825 -4.7405,2.7981 -1.11756,0.515596 -4.13503,1.586496 -6.70547,2.379696 -2.57041,0.7934 -5.085,1.5815 -5.58791,1.7515 l -0.91437,0.3094 v 8.17 8.17 l 0.98094,0.9144 0.98103,0.9144 1.15262,0.2281 c 0.63385,0.125 1.45978,0.3819 1.83538,0.5703 l 0.68278,0.3428 1.77206,-0.034 c 0.97466,-0.031 2.70572,0.088 3.84678,0.2344 l 2.07472,0.2656 1.29113,-0.6225 1.29115,-0.6222 1.19672,0.2438 c 0.65812,0.1344 2.01641,0.2437 3.01828,0.2437 1.00184,0 1.82156,0.081 1.82156,0.1782 0,0.097 -0.66043,0.434 -1.46756,0.7484 -1.48072,0.5769 -4.66516,2.44 -6.80481,3.9813 l -1.16056,0.8359 -2.64425,0.6837 -2.64416,0.6835 -1.88475,1.1169 -1.88478,1.1171 -3.04794,0.8025 c -1.67631,0.4413 -3.97837,1.0522 -5.11556,1.3575 l -2.06769,0.555 h -1.67747 -1.67728 l -1.45728,-1.1931 z m 17.94815,-40.646896 3.59725,-1.685 3.27594,-2.4513 3.27587,-2.4515 1.96247,-2.2088 1.96235,-2.209 1.16209,-2.2728 1.16194,-2.2729 3.7e-4,-1.629 3.2e-4,-1.6288 -0.595,-1.0725 c -0.32725,-0.5897 -1.16232,-1.5175 -1.85582,-2.0612 l -1.26078,-0.9891 -2.30969,-0.6465 -2.30977,-0.6466 h -3.45425 -3.45441 l -2.24538,0.4731 -2.24546,0.4731 -1.31054,0.7429 -1.31043,0.7428 v 11.3515 11.3513 l 0.71112,0.3859 c 0.39116,0.2125 0.92125,0.3916 1.17791,0.3978 0.25687,0 2.08544,-0.7465 4.0639,-1.6734 z m 29.80953,41.241196 c -0.55872,-0.3365 -1.51525,-1.2153 -2.12544,-1.9521 l -1.1095,-1.3404 -0.24968,-1.2421 -0.25,-1.2422 0.54672,-1.0741 0.54675,-1.0741 1.79568,-0.8031 1.79572,-0.8034 0.541,-0.6897 0.54103,-0.6897 v -10.4875 -10.4878 l -2.13353,-0.2219 c -1.17344,-0.1219 -2.85006,-0.3569 -3.72572,-0.5215 l -1.59222,-0.3 -0.12843,-0.3775 c -0.0703,-0.2063 0.0156,-0.5869 0.18812,-0.8425 l 0.31653,-0.464996 3.1415,-0.5604 c 1.72775,-0.3093 3.31969,-0.6631 3.53747,-0.7884 l 0.3961,-0.2281 v -15.3388 -15.3387 l -0.59297,-1.0688 -0.59303,-1.069 -3.36925,-0.446 c -1.85322,-0.2468 -3.96372,-0.5306 -4.69013,-0.634 l -1.32081,-0.1875 v -0.2969 c 0,-0.1625 0.4115,-0.645 0.9144,-1.0719 0.99516,-0.8447 6.1236,-3.9015 6.54563,-3.9015 0.14344,0 1.88937,-0.6838 3.88031,-1.5194 l 3.62,-1.5197 1.15494,0.4094 c 0.63519,0.225 1.47528,0.6797 1.86684,1.01 l 0.71194,0.6006 v 1.0334 1.0335 l 0.91441,0.2281 c 0.50287,0.125 2.74681,0.2312 4.98647,0.2344 h 4.07206 l 2.91578,0.7534 c 1.60372,0.4141 3.95594,1.1819 5.22719,1.7059 l 2.3114,0.9529 2.68928,1.8653 c 1.47916,1.0259 3.36607,2.5168 4.19322,3.3134 l 1.50394,1.4478 0.90181,1.8941 0.90172,1.894 0.18188,2.8613 0.18218,2.8609 -1.18943,3.2169 -1.1895,3.2169 -1.5646,2.1972 c -0.8605,1.2084 -2.48125,3.1318 -3.60168,4.2747 l -2.0371,2.0778 -1.296,-0.225 -1.296,-0.2282 -0.42372,0.481 c -0.23281,0.2656 -0.487,0.9053 -0.56434,1.4244 l -0.14063,0.9434 -1.99968,1.2178 -1.99972,1.2181 -5.04344,1.721596 -5.04356,1.7212 h -0.88147 c -0.48478,0 -1.15569,0.1688 -1.49103,0.365 l -0.6096,0.3591 v 8.1275 8.1278 l 0.96885,0.9616 0.96869,0.9615 2.11043,0.4085 2.11038,0.4084 h 4.03275 c 2.21794,0 5.09494,-0.031 6.39325,-0.053 l 2.36056,-0.044 0.2775,0.2594 0.27781,0.2594 -0.80937,0.4425 c -0.44516,0.2437 -1.973,0.9134 -3.39506,1.4891 l -2.58575,1.0465 -1.2046,0.9447 c -0.66256,0.5197 -1.43919,0.945 -1.72581,0.945 h -0.52116 l -1.78443,1.4613 c -0.98144,0.8037 -2.56757,1.8328 -3.52475,2.2868 l -1.74035,0.8257 -3.94919,1.0006 -3.94909,1.0006 -2.03194,0.1281 -2.03203,0.1282 -1.01597,-0.6122 z m 16.57247,-40.867496 2.93541,-1.3115 2.94584,-2.0385 2.94584,-2.0384 2.84472,-2.8109 2.84475,-2.8113 1.13882,-2.1897 1.13887,-2.1897 0.20563,-1.7828 0.20593,-1.7828 -0.73503,-1.3162 -0.73515,-1.3163 -1.6255,-1.0537 -1.6256,-1.0541 -3.048,-0.6009 -3.04794,-0.6013 -2.64146,0.2188 c -1.45288,0.1218 -3.73882,0.4806 -5.07994,0.7997 l -2.43835,0.58 -0.93203,0.9806 -0.93203,0.9806 0.11906,10.6988 0.11907,10.6984 0.55778,0.6259 0.55772,0.6257 h 0.67293 c 0.37,0 1.99375,-0.59 3.60825,-1.3113 z m 140.09162,29.370996 c -1.11753,-0.3713 -2.96278,-1.115 -4.10046,-1.6528 l -2.06857,-0.9775 -1.28168,-1.3607 c -0.70503,-0.7484 -1.68828,-2.0806 -2.18522,-2.9603 l -0.90353,-1.5993 -0.0125,-2.8413 -0.0125,-2.8409 1.283,-2.5244 1.283,-2.5244 3.15353,-3.0769 3.1535,-3.076496 -1.14166,-2.2266 -1.14156,-2.2265 0.24375,-1.1363 0.24375,-1.1362 -0.58159,-0.45 -0.5816,-0.45 0.63078,-1.1369 0.63075,-1.1372 -0.9019,-0.895 -0.90197,-0.8947 0.25781,-1.7525 0.2575,-1.7525 0.80947,-1.7059 0.80941,-1.7057 1.72824,-1.924 1.72835,-1.9244 1.784,-1.0547 1.78403,-1.0547 2.201,-0.459 2.20091,-0.4591 2.11581,0.6231 2.11581,0.6232 2.32003,1.3543 2.32,1.3544 1.48038,2.2716 1.4805,2.2718 0.20781,1.445 0.20781,1.4454 -0.89719,2.6496 -0.89712,2.6497 -1.56141,1.8535 c -0.85875,1.019 -2.23275,2.7906 -3.05325,3.9365 -0.82053,1.146 -2.03943,2.5366 -2.70868,3.0903 l -1.21669,1.0069 0.34603,0.55 c 0.19,0.3031 2.01116,2.198096 4.04634,4.212196 l 3.70038,3.6619 0.48531,-0.545 0.48541,-0.5453 0.0819,-1.0747 0.0819,-1.075 -1.52197,-0.1188 -1.52185,-0.1187 -1.018,-1.2441 -1.01812,-1.2444 v -0.7893 -0.789696 l 0.58216,-0.5425 0.58218,-0.5428 3.38016,-0.9794 c 1.85912,-0.5388 4.29456,-1.1731 5.41212,-1.41 l 2.032,-0.4303 4.87666,-0.15 c 2.68225,-0.081 5.83681,-0.25 7.01028,-0.3747 l 2.13356,-0.225 -2.1e-4,0.5009 -1.9e-4,0.5007 -2.89019,2.4625 c -1.5895,1.354 -3.46394,2.994296 -4.16528,3.644996 l -1.27519,1.1828 -1.98228,0.2687 c -1.09031,0.1469 -2.23331,0.3581 -2.53994,0.4678 l -0.55765,0.2 v 1.8394 1.8394 l -0.86707,2.1603 -0.86709,2.1603 1.16772,0.7897 c 0.64219,0.4344 1.901,1.3159 2.79747,1.9591 l 1.62972,1.169 -0.075,0.5356 c -0.0416,0.2938 -0.32835,1.1735 -0.63744,1.9532 l -0.56188,1.4175 -0.95743,0.95 -0.95738,0.95 h -1.24994 -1.24993 l -1.33063,-0.7563 c -0.7319,-0.4159 -1.57587,-0.7562 -1.87559,-0.7562 -0.29969,0 -1.00991,-0.341 -1.57822,-0.7575 -0.56838,-0.4166 -1.27878,-0.7535 -1.57878,-0.7479 -0.3,0 -1.55138,0.6082 -2.78066,1.3397 l -2.23519,1.33 -3.84456,1.1225 -3.84453,1.1225 -2.04816,-0.031 -2.04812,-0.031 -2.03191,-0.675 z m 9.86104,-9.1675 1.78662,-0.8063 0.19906,-0.4831 0.19907,-0.4834 -4.194,-3.8222 -4.1941,-3.8222 h -0.49062 -0.49072 l -1.13488,1.3947 c -0.62428,0.7669 -1.72925,1.9062 -2.45572,2.5319 l -1.32071,1.1375 v 0.5125 0.5122 l 1.72706,1.6428 c 0.95003,0.9034 2.09297,1.8293 2.54,2.0581 l 0.81281,0.4156 h 2.61484 2.61479 l 1.78662,-0.8062 z m -2.17397,-23.281896 3.13753,-2.4953 0.78365,-1.1981 0.78372,-1.1982 v -1.2018 -1.2022 l -1.00772,-1.1166 -1.00778,-1.1162 -1.22056,-0.4713 -1.22072,-0.4712 -1.40465,0.2468 -1.4046,0.2469 -1.10215,1.2181 c -0.60607,0.67 -1.34857,1.7669 -1.65,2.4372 l -0.54829,1.2191 v 1.4672 1.4675 l 0.57557,1.7825 c 0.57159,1.7703 1.28606,2.8837 1.85059,2.8837 0.16188,0 1.70653,-1.1231 3.43216,-2.4956 z m 72.0799,22.195596 c -1.27825,-0.1531 -3.62012,-0.6662 -5.20418,-1.1409 l -2.87994,-0.8634 -2.41313,-1.3663 c -1.32718,-0.7512 -3.34828,-2.0481 -4.49134,-2.8816 l -2.07816,-1.515 -2.34987,-2.5778 -2.34994,-2.577796 -1.22937,-2.1575 c -0.67616,-1.1865 -1.60322,-3.2656 -2.06007,-4.6197 -0.45684,-1.3543 -1.21872,-4.419 -1.69306,-6.8106 l -0.86237,-4.3484 0.18031,-1.7128 c 0.26094,-2.4744 1.4095,-7.97 2.54137,-12.16 1.12691,-4.1713 3.53713,-10.7904 4.74341,-13.0263 1.79691,-3.3306 6.31791,-10.02 9.09275,-13.4537 1.60981,-1.9919 4.18106,-4.8175 5.71391,-6.2788 1.53287,-1.4616 4.0665,-3.5587 5.63034,-4.6609 l 2.84328,-2.0038 3.36981,-1.5565 3.36982,-1.5563 4.35306,-0.031 4.35303,-0.031 3.86078,1.4522 c 2.12338,0.7987 4.22647,1.4803 4.6735,1.5153 l 0.81278,0.062 0.20313,-2.1006 0.20312,-2.1006 0.754,-1.0722 0.75385,-1.0719 2.23593,0.2437 2.23588,0.2438 2.1964,0.9687 2.19641,0.9685 1.41763,1.2462 1.41765,1.2463 v 1.8969 c 0,1.0431 -0.11437,2.4296 -0.25375,3.0812 l -0.25406,1.1844 -1.60297,1.6975 -1.60306,1.6975 0.25562,0.3853 0.25563,0.3853 h 0.74375 0.74378 l 0.93866,0.7088 0.93865,0.7084 -0.48265,5.2578 c -0.55541,6.0516 -0.97225,8.9425 -1.8405,12.765 -0.33997,1.4966 -0.79525,3.5734 -1.01172,4.615 -0.21657,1.0419 -0.69472,3.1475 -1.0626,4.6791 l -0.66893,2.7847 -1.00888,1.8556 -1.00878,1.8559 h -0.35213 -0.35212 l -0.245,-0.8525 c -0.13469,-0.4687 -0.2475,-1.7528 -0.25031,-2.8531 l -0.009,-2.0009 -0.54906,-1.2254 -0.54913,-1.225 -0.29968,-4.9034 -0.29969,-4.9034 -1.74134,-4.7503 -1.74144,-4.7504 -1.74994,-3.1809 -1.75012,-3.1809 -1.46016,-1.431 -1.46013,-1.4306 -1.12593,-0.2625 -1.12594,-0.2625 -1.77994,0.6338 c -0.97894,0.3484 -2.93694,1.3453 -4.351,2.2153 l -2.57122,1.5818 -3.7875,3.5788 -3.78768,3.5787 -2.99385,4.195 -2.99397,4.195 -2.84072,5.4929 c -3.05062,5.899 -5.09406,10.7756 -6.75853,16.1296 l -1.04353,3.3569 -0.25156,2.8525 -0.25156,2.8525 -0.95128,1.0669 -0.95125,1.0669 0.59806,1.0778 c 0.3289,0.5931 1.11903,1.4765 1.75581,1.9637 l 1.15775,0.8857 1.08866,1.7771 1.08853,1.7772 1.92722,1.8397 1.92715,1.8394 1.9691,0.885596 1.969,0.8856 4.53328,-0.1968 4.53325,-0.2 3.93537,-1.188496 c 2.16447,-0.6534 4.98682,-1.6218 6.27203,-2.1515 l 2.33675,-0.9635 0.72204,0.175 0.72215,0.175 1.16713,-1.0397 1.16715,-1.0396 2.86563,-1.021 2.86578,-1.0206 0.75737,-0.78 c 0.41657,-0.4291 1.23491,-1.0103 1.81869,-1.2919 l 1.06125,-0.5115 0.4821,-1.0594 0.48209,-1.0597 2.30022,-1.3025 c 1.26515,-0.7166 2.98725,-1.8813 3.827,-2.5884 l 1.52672,-1.2857 1.6129,-2.3806 1.61297,-2.3806 0.60781,-0.2188 0.60782,-0.2187 0.49737,0.5587 0.49728,0.5588 -0.45322,0.8394 c -0.24937,0.4615 -0.90237,2.5759 -1.45137,4.6984 l -0.99813,3.8594 -1.96146,3.3381 -1.96147,3.3384 -2.71622,2.5338 -2.71622,2.534 -1.166,0.561896 -1.16588,0.5619 -0.7835,-0.066 -0.78346,-0.066 -1.13063,2.0835 -1.13056,2.0837 -4.36469,2.5347 -4.36469,2.535 -3.65759,1.1322 -3.6575,1.1322 -3.17894,0.4053 c -3.48137,0.4438 -5.37153,0.4497 -8.89869,0.031 z m -383.28598,-6.5893 -1.56973,-0.5497 -1.21059,-1.0719 -1.21058,-1.0716 -0.79801,-1.4465 -0.79801,-1.4466 -0.22828,-1.795596 -0.22829,-1.7956 0.96943,-1.0507 0.96934,-1.0506 2.54652,-0.2812 2.54652,-0.2813 0.69177,-0.6447 0.69176,-0.645 0.20862,-3.4931 0.20834,-3.4928 1.21914,-0.1938 1.21926,-0.1937 0.126,-1.0163 0.12628,-1.0162 -1.14216,-0.6778 c -0.62815,-0.3728 -1.27649,-0.8525 -1.44064,-1.0657 l -0.29859,-0.3875 -0.009,-10.9028 -0.009,-10.9031 0.50802,-0.1469 c 0.27925,-0.081 0.99076,-0.2437 1.58078,-0.3637 l 1.07272,-0.2188 0.25812,-0.6268 0.25816,-0.6269 -0.51806,-0.6466 c -0.28481,-0.3556 -1.13367,-1.3959 -1.88611,-2.3122 l -1.36768,-1.6656 0.32853,-6.0609 c 0.1805,-3.3338 0.33909,-7.71 0.35198,-9.725 l 0.0238,-3.6635 -0.98124,-0.9731 -0.98136,-0.9731 -2.26985,-0.7888 -2.26982,-0.789 -0.88149,-0.7675 -0.88155,-0.7675 -0.86547,-1.8753 -0.86537,-1.8754 -0.0671,-2.2387 -0.0671,-2.2391 0.95179,-0.9443 0.95178,-0.9444 3.50329,-1.1938 3.50335,-1.1937 6.29902,-1.0956 6.29911,-1.0957 h 7.31502 7.31506 l 3.90784,0.3547 3.90786,0.3544 3.33952,1.1359 c 1.8368,0.625 4.47026,1.7257 5.85226,2.446 1.382,0.7206 3.34083,1.9893 4.35298,2.82 l 1.84029,1.51 2.57811,3.3509 2.57804,3.3509 1.94759,3.7882 1.94768,3.7881 0.68253,2.4622 0.68256,2.4625 0.0366,2.8409 0.0369,2.8413 -0.52632,2.0834 -0.5264,2.0838 -1.58878,3.0303 -1.58874,3.0306 -2.33502,2.5291 c -1.28422,1.3909 -3.24939,3.2859 -4.36694,4.2109 -1.11764,0.925 -3.46432,2.6394 -5.21502,3.81 l -3.18308,2.1281 -4.9448,2.23 c -6.23386,2.8116 -13.50837,5.5263 -16.93334,6.3194 -1.45285,0.3366 -3.31912,0.7737 -4.14726,0.9722 l -1.50562,0.36 -0.62792,0.5853 -0.62782,0.5853 v 4.9147 4.915 l 0.9321,0.8687 0.93218,0.8691 1.65662,0.2469 1.65662,0.2469 0.50894,0.5715 0.50892,0.5716 h 2.08381 2.08373 l 1.75419,0.5697 1.75414,0.5693 0.37647,-0.2156 c 0.35444,-0.2031 8.90925,-0.6281 11.55815,-0.5728 0.67054,0 1.85924,0.031 2.64148,0.031 0.78234,0 1.67157,0.087 1.97619,0.1906 l 0.55375,0.1844 -0.50192,0.5637 -0.50197,0.5638 h -0.63468 c -0.3491,0 -1.4697,0.3621 -2.49017,0.805 -1.02053,0.4425 -2.95279,1.28 -4.29386,1.8609 -1.34106,0.5812 -3.53561,1.345296 -4.8767,1.698096 -1.34106,0.3528 -3.03885,0.8791 -3.77293,1.1694 l -1.33453,0.5278 h -1.52138 -1.52133 l -0.88882,0.58 c -1.32867,0.8675 -3.9267,1.6516 -8.23266,2.4847 l -3.86072,0.7469 -4.87667,0.1906 -4.8767,0.1906 -1.56983,-0.55 z m 30.36866,-42.162196 3.60259,-1.3272 1.75868,0.2469 1.7588,0.2468 0.6515,-0.9268 0.65153,-0.9269 -0.24466,-0.9091 -0.24465,-0.909 0.80193,-0.6766 0.802,-0.6766 0.87258,0.4353 0.87259,0.4354 0.61868,-0.4785 0.6186,-0.4787 -0.22619,-1.0538 -0.22591,-1.054 2.02999,-2.1622 c 2.53588,-2.7013 4.58107,-5.5569 5.99589,-8.3716 l 1.09314,-2.1747 2.3e-4,-3.4094 2.7e-4,-3.4093 -1.08123,-2.15 -1.08112,-2.1497 -1.66301,-1.6819 -1.66306,-1.6819 -2.36957,-0.9912 -2.36962,-0.9913 -3.11847,-0.4322 -3.11849,-0.4325 -3.95953,0.4482 c -2.17772,0.2468 -4.26455,0.5297 -4.63733,0.6303 l -0.6779,0.1812 -1.4077,-1.1518 -1.40773,-1.1522 h -0.84645 -0.84644 l -0.42072,0.7325 c -0.23147,0.4031 -0.42066,1.1415 -0.42066,1.6412 v 0.9085 l -1.49215,0.9159 c -0.82063,0.5037 -1.85042,1.37 -2.28837,1.925 l -0.79631,1.0091 -0.33439,5.999 -0.33451,5.9991 -0.0175,10.8187 -0.0175,10.8185 0.50803,0.5972 c 0.27925,0.3284 0.78225,0.6737 1.11755,0.7675 l 0.60963,0.1718 4.67344,-0.9197 4.67352,-0.92 3.60256,-1.3271 z m 38.2558,41.288096 c -0.67053,-0.081 -2.19322,-0.4069 -3.38382,-0.7197 l -2.16465,-0.5694 -1.71369,-1.5972 -1.71364,-1.5975 -1.78514,-4.349996 -1.7851,-4.35 -0.16966,-5.099 -0.16966,-5.0994 0.48264,-2.7891 0.48272,-2.789 0.97866,-2.6822 c 0.53822,-1.475 1.63464,-3.7947 2.43649,-5.1544 1.74597,-2.9609 4.52647,-6.4053 7.17432,-8.8875 l 1.93753,-1.8162 3.36837,-1.5066 3.36828,-1.5066 2.07203,-0.2281 2.07207,-0.2281 2.10831,1.0697 2.10828,1.0694 2.15797,1.9328 2.15797,1.9328 1.01334,1.8753 1.01347,1.875 0.45697,2.0075 0.45691,2.0075 v 4.8112 4.8113 l -0.42425,1.4241 -0.42432,1.424 -0.89422,0.541 -0.89418,0.5409 -2.84475,0.4334 c -2.85219,0.435 -16.86335,3.6788 -19.91322,4.6103 l -1.6256,0.4966 -0.70837,1.35 -0.70834,1.3497 0.68909,1.6806 c 0.379,0.9247 1.11575,2.3263 1.63719,3.1153 l 0.948,1.4341 1.30637,0.7681 1.30638,0.7681 2.47481,-0.1656 2.47484,-0.1656 2.60507,-1.0709 c 1.43284,-0.5891 4.79859,-2.2944 7.47953,-3.7894 l 4.8744,-2.7185 0.55369,0.1969 0.55369,0.1969 -0.21719,1.2481 c -0.11969,0.6863 -0.58606,2.025 -1.03656,2.9744 l -0.81935,1.7266 h -1.00978 -1.00975 l -0.66587,0.6206 -0.66591,0.6206 0.0644,1.5575 c 0.0356,0.8566 0.0481,1.742496 0.025,1.968096 l -0.0375,0.411 -3.56738,1.5803 -3.56747,1.5803 -2.83322,0.5594 c -2.80606,0.554 -3.72156,0.6003 -6.08434,0.3093 z m 3.8845,-27.953096 6.68168,-1.4007 1.69247,-0.6868 1.69241,-0.6869 0.44112,-0.7684 0.44116,-0.7685 v -3.9947 -3.995 l -0.65519,-1.5262 -0.65515,-1.5266 -0.95982,-0.225 -0.95981,-0.225 -1.83447,0.8278 -1.8345,0.8278 -3.03647,2.6432 c -1.67003,1.4537 -3.66,3.4428 -4.42215,4.4197 -0.76219,0.9768 -2.16075,3.169 -3.10797,4.8718 l -1.72219,3.0953 0.28813,0.4344 0.28812,0.4344 0.49063,-0.175 c 0.27,-0.097 3.4974,-0.8059 7.17234,-1.5763 z M 387.9574,104.61885 c -0.80865,-0.2688 -2.13609,-0.8734 -2.94997,-1.3422 l -1.47971,-0.8525 -1.01688,-1.6175 c -0.55928,-0.889396 -1.70062,-3.389096 -2.53637,-5.554396 l -1.5195,-3.9372 0.0375,-6.0612 0.0378,-6.0613 0.88056,-3.0303 0.88053,-3.0306 1.64769,-3.22 1.64775,-3.22 2.20122,-2.6847 c 1.21065,-1.4765 3.21369,-3.5772 4.45112,-4.6681 l 2.24991,-1.9834 3.06078,-1.3185 3.06066,-1.3181 1.97828,-0.2188 1.97834,-0.2187 1.76085,0.8016 1.76093,0.8015 2.52313,2.1047 2.52303,2.105 1.33772,2.5309 1.33765,2.5307 0.13157,6.6393 0.13187,6.6394 -0.4184,1.0219 -0.41835,1.0222 -0.93253,0.5637 -0.93247,0.5641 -3.67,0.5894 c -2.01856,0.3243 -7.13909,1.4506 -11.37897,2.5028 l -7.709,1.9134 -1.82872,0.836 -1.82878,0.8359 0.0687,2.3375 0.0688,2.3375 0.82932,1.7475 0.82928,1.7475 1.42609,0.5556 1.42609,0.5553 h 2.95938 2.95941 l 3.4274,-1.2956 3.42741,-1.2956 0.7719,0.3853 0.77197,0.385 0.74247,-0.6263 c 0.40831,-0.3443 0.84378,-0.9971 0.9676,-1.4509 l 0.22531,-0.8244 2.55672,-1.61 2.55672,-1.61 h 0.74781 0.74778 l 1.16247,-0.7715 c 0.63928,-0.4244 2.00862,-1.1203 3.04278,-1.5469 l 1.88047,-0.7753 0.2125,0.1969 0.2125,0.1968 -0.68116,1.6625 -0.68115,1.6625 -1.5846,1.9516 c -0.87156,1.0734 -1.94956,2.6184 -2.39565,3.4337 l -0.81119,1.4819 -2.05644,1.6769 -2.05641,1.676896 -3.74884,1.7587 -3.74875,1.7588 -1.93397,0.4728 -1.934,0.4731 -0.62897,-0.8372 -0.62903,-0.8372 h -1.09447 -1.09456 l -1.62559,0.9331 c -0.8941,0.5134 -1.89988,0.9312 -2.23519,0.9287 -0.33522,0 -1.27116,-0.225 -2.07981,-0.4947 z m 6.55007,-27.153796 c 3.01746,-0.6231 6.63115,-1.4837 8.03037,-1.9128 l 2.54413,-0.7803 0.44865,-0.7815 0.44875,-0.7816 0.0547,-4.395 0.055,-4.395 -0.84575,-1.3259 -0.84566,-1.326 -1.42318,0.037 -1.42313,0.038 -2.49828,1.5816 -2.49831,1.5812 -0.96553,-0.225 -0.96547,-0.225 -0.66841,0.6232 -0.66834,0.6231 0.24875,0.9244 0.24906,0.9246 -1.61144,1.9838 c -0.88622,1.0912 -2.36975,3.2834 -3.2965,4.8719 l -1.68506,2.8878 v 0.8497 0.85 l 0.91441,-0.2469 c 0.50287,-0.1344 3.38315,-0.7566 6.40059,-1.3797 z m 252.47896,27.410396 -0.90622,-0.1625 -0.82093,-0.9729 -0.82085,-0.9728 v -0.66 -0.6603 l -0.57384,-0.444 -0.57397,-0.4438 -2.46291,0.9663 c -1.35453,0.5312 -3.88512,1.4037 -5.6235,1.9387 l -3.16071,0.9728 -3.6901,0.2156 -3.69015,0.2157 -2.15625,-0.6675 -2.15629,-0.6678 -1.56793,-1.3204 -1.56785,-1.3203 -0.61206,-1.920896 -0.61184,-1.9206 v -1.8082 -1.8081 l 0.98465,-2.5284 0.98453,-2.5285 1.52113,-2.0587 1.52087,-2.0584 2.2695,-1.5275 2.26954,-1.5272 4.87668,-2.2147 4.87678,-2.2144 3.57988,-0.8322 3.58012,-0.8319 0.85332,-0.6443 0.85337,-0.6441 -0.44865,-3.6816 -0.44869,-3.6818 -0.73347,-1.3991 -0.73363,-1.3987 -3.25115,-0.1063 -3.2511,-0.1062 -3.25112,1.4731 -3.25119,1.4731 -3.04787,2.1081 c -1.67641,1.1594 -3.2815,2.3344 -3.56694,2.6113 -0.28563,0.275 -0.95847,1.0144 -1.49575,1.6394 l -0.97669,1.1365 -0.48884,-0.4481 -0.48869,-0.4481 1.09666,-2.5825 c 0.60309,-1.4203 1.679,-3.495 2.39081,-4.6107 l 1.29419,-2.0281 2.38718,-1.8662 c 1.31285,-1.0266 3.14763,-2.2816 4.07725,-2.7894 0.92954,-0.5078 2.50704,-1.1944 3.5055,-1.5256 l 1.8155,-0.6022 2.92469,-0.031 2.9246,-0.031 2.17381,0.9275 2.17378,0.9278 1.48897,1.2187 1.48903,1.2185 0.98581,1.9631 0.98584,1.9631 0.4621,2.0469 0.46209,2.0472 0.39122,5.34 c 0.215,2.9369 0.39391,6.8312 0.39731,8.6544 l 0.009,3.3147 h 0.38247 c 0.21062,0 0.49534,-0.1688 0.6335,-0.3788 l 0.25093,-0.3787 h 0.83957 0.83965 l -0.26375,1.2309 c -0.145,0.6772 -0.80797,2.3159 -1.47322,3.6416 l -1.20934,2.41 v 0.715 0.7153 h 0.42884 c 0.23563,0 1.47019,-0.4978 2.74313,-1.1066 3.41109,-1.6306 5.96128,-2.6816 6.5065,-2.6816 h 0.48122 v 0.3519 c 0,0.1938 -0.74416,1.3963 -1.65363,2.6728 l -1.65359,2.3207 -0.31334,1.8468 -0.31332,1.8469 -0.65847,0.936896 -0.65837,0.9365 -2.14988,1.1379 -2.14987,1.1375 -2.20725,0.6034 c -1.214,0.3322 -2.31134,0.5806 -2.43837,0.5522 -0.12719,-0.031 -0.63885,-0.125 -1.13735,-0.2156 z m -14.53403,-8.624396 3.12206,-0.5569 2.29844,-0.9772 c 1.26406,-0.5372 2.98506,-1.4184 3.82419,-1.9581 l 1.52575,-0.9809 0.81103,-1.2232 0.81097,-1.2234 v -1.5825 -1.5825 l -0.99753,-0.9297 -0.99753,-0.9297 h -0.78166 -0.78169 l -0.61081,-0.8525 -0.61084,-0.8522 -0.77766,0.651 -0.77769,0.6512 -2.75062,0.7922 -2.75066,0.7919 -1.49834,1.2344 c -0.82403,0.679 -2.3601,1.8012 -3.41369,2.494 l -1.91541,1.2594 -0.99034,1.3662 c -0.54456,0.7516 -1.11519,1.7585 -1.26778,2.2375 l -0.2775,0.8707 0.65262,0.9287 0.65275,0.9285 h 2.1901 2.18997 z m -205.9745,6.845896 -1.49109,-1.3897 -1.01603,-1.868996 -1.01597,-1.8688 v -0.9372 -0.9375 l 0.50609,-0.2906 0.50594,-0.2906 h 3.45634 3.45635 l 0.24469,-7.5766 0.24468,-7.5762 0.499,-1.9835 0.49888,-1.9831 -0.13375,-4.9009 -0.13375,-4.9007 -0.9,-0.8918 -0.9001,-0.8919 0.235,-0.8375 0.235,-0.8378 -0.68315,-0.2438 -0.6831,-0.2437 -0.887,0.435 -0.88687,0.435 -2.03203,-0.7244 -2.03197,-0.7244 -0.13844,-0.6412 -0.13844,-0.6413 0.90222,-0.895 0.90216,-0.8953 3.50334,-1.1997 3.50328,-1.2 2.26063,-0.044 2.26056,-0.044 1.12613,0.6878 1.12603,0.6879 0.57562,1.2843 0.57572,1.2841 v 1.9062 1.9063 l 0.508,-3e-4 h 0.508 l 2.32413,-2.4228 2.32409,-2.4225 1.76653,-0.7972 1.76644,-0.7972 h 1.87044 c 1.02868,0 2.17368,0.1094 2.54437,0.2406 l 0.67397,0.2406 0.36519,0.8957 0.36522,0.8953 h 1.15318 1.15322 l 1.04169,1.0415 1.04172,1.0419 1.67587,3.2331 1.67582,3.2335 -0.0219,0.7444 c -0.0125,0.4093 -0.34937,1.91 -0.74794,3.335 l -0.72453,2.5906 -1.792,0.7462 -1.7919,0.7463 -1.07978,0.9619 -1.07975,0.9618 -2.426,-1.015 -2.42597,-1.0147 -0.44128,-0.9028 -0.44122,-0.9028 0.33668,-0.1937 0.33675,-0.1938 0.72691,0.7488 0.72688,0.7484 h 1.07853 1.07853 l 0.66556,-0.4734 0.66563,-0.4735 0.62528,-1.7047 c 0.344,-0.9375 0.62803,-2.0109 0.63131,-2.385 l 0.009,-0.68 -1.01603,-0.9471 c -0.55868,-0.5207 -1.01593,-1.08 -1.01593,-1.2425 0,-0.1625 -0.42329,-0.6663 -0.94054,-1.1194 l -0.94281,-0.8235 h -2.22022 -2.22006 l -0.91219,0.5957 -0.91212,0.5953 -1.15366,2.1509 c -0.63453,1.1831 -1.44853,3.0035 -1.80894,4.045 -0.36046,1.0419 -1.12259,4.4475 -1.69384,7.5681 l -1.03853,5.6744 -0.0406,2.9356 -0.0409,2.936 0.69628,0.9906 0.69634,0.9906 1.74647,0.7203 1.7465,0.72 0.22094,0.7882 0.22094,0.7881 0.8335,-0.4159 0.83359,-0.416 0.79703,0.4641 0.79713,0.464 1.00965,-0.5037 1.00978,-0.5038 1.14891,0.2657 c 0.63184,0.1468 1.42316,0.4868 1.7585,0.7553 0.33531,0.2687 1.11622,0.6 1.7355,0.7372 l 1.12587,0.25 0.8481,-0.4228 0.84806,-0.4232 0.38888,0.3625 0.3889,0.3625 -0.69628,0.6491 -0.69634,0.6491 -0.82372,-0.2 -0.82391,-0.2 -1.04594,0.524996 c -1.58937,0.7971 -4.90987,1.7121 -6.21443,1.7121 h -1.16297 l -1.71103,0.8254 -1.71094,0.8256 -4.47028,0.2812 c -2.45866,0.1532 -6.22247,0.4025 -8.36394,0.5516 l -3.89359,0.2719 -1.49122,-1.39 z m 235.80247,0.2875 c -0.58038,-0.5956 -1.35759,-1.5047 -1.72709,-2.0197 l -0.67194,-0.9368 v -1.051896 -1.0522 l 0.79672,-0.7428 0.79681,-0.7428 2.25062,-0.6097 2.25063,-0.61 0.23187,-0.8606 0.23188,-0.8604 -0.12969,-13.6025 -0.12937,-13.6028 -0.83475,-1.3243 -0.83469,-1.3247 -1.40044,-0.8797 -1.40047,-0.8797 v -0.4475 -0.4475 l 3.86078,-1.2216 c 2.12332,-0.6718 4.22641,-1.2256 4.67354,-1.2309 h 0.81275 l 1.05306,1.2309 1.05309,1.2313 0.51994,1.5153 c 0.28594,0.8334 0.67478,1.6716 0.86381,1.8625 l 0.34391,0.3475 2.95984,-2.8659 2.95981,-2.8657 1.72716,-0.4318 1.72709,-0.4322 1.53294,0.3847 1.53278,0.3846 1.72444,1.1822 1.72431,1.1822 0.97007,1.5728 c 0.53353,0.8653 1.09046,2.1122 1.23746,2.771 l 0.2675,1.1975 -0.45815,2.4012 c -0.25188,1.3206 -0.91963,3.8241 -1.48356,5.5635 l -1.02538,3.1625 -2.40369,2.2968 -2.40359,2.2969 -0.24969,-0.2312 -0.24969,-0.2344 0.69529,-2.6447 0.69518,-2.6447 -0.23125,-3.8803 -0.23125,-3.8806 -0.41022,-0.3822 -0.41021,-0.3825 -2.25675,0.6631 -2.25666,0.6631 -1.25153,1.586 c -0.68831,0.8722 -1.50406,2.1347 -1.81278,2.8053 l -0.56135,1.2194 -1.01568,6.2384 -1.01585,6.2384 v 2.3157 2.3153 l 0.5946,1.0718 c 0.32696,0.5894 0.82996,1.1538 1.11756,1.2538 0.28781,0.1 2.71753,0.059 5.39975,-0.088 l 4.87669,-0.2719 0.36731,0.3063 0.36734,0.3062 -1.11412,1.3616 c -0.61294,0.749 -1.70678,1.7237 -2.431,2.1662 l -1.31669,0.8047 -0.87859,1.249096 -0.87844,1.2494 -1.06294,0.649 -1.06284,0.6494 -3.91966,0.275 c -2.15578,0.15 -5.657,0.3937 -7.78041,0.54 l -3.86071,0.2656 -1.05525,-1.0828 z m 34.71266,0.3828 c -0.48729,-0.3893 -1.35597,-1.3712 -1.93035,-2.1818 l -1.0445,-1.4735 v -0.733696 -0.7341 l 1.13869,-1.0612 1.13853,-1.0613 1.68275,-0.2656 1.68284,-0.2656 0.39232,-0.4441 0.39228,-0.4438 0.0869,-13.2587 0.0869,-13.2588 -0.40575,-1.8128 -0.40581,-1.8131 -0.71557,-0.7372 -0.71565,-0.7369 -2.07722,-0.7215 -2.07728,-0.7213 -0.11094,-0.5165 -0.11094,-0.5169 5.15266,-0.8572 5.15262,-0.8572 1.05403,0.625 c 0.57972,0.3438 1.45897,1.0703 1.95388,1.6147 l 0.89987,0.99 0.26313,1.2313 0.26281,1.2309 h 0.46272 0.46278 l 1.90966,-2.2325 1.90969,-2.2325 2.23415,-1.0187 2.2341,-1.0191 1.3425,0.2687 c 0.7384,0.1469 1.89115,0.5241 2.56171,0.8354 1.56457,0.7262 3.37829,2.2981 4.06544,3.5234 l 0.53866,0.9603 -0.5801,4.9113 -0.58,4.9112 -1.20359,1.7047 c -0.66194,0.9375 -1.51644,2.2587 -1.89891,2.9359 l -0.69528,1.2313 h -0.65797 -0.6579 l -0.0394,-3.1253 -0.0394,-3.1253 -0.69094,-1.6029 -0.69106,-1.6025 -1.32769,-0.765 -1.32775,-0.765 h -1.01953 -1.01956 l -0.81291,1.7994 c -0.44712,0.9897 -1.09912,2.6519 -1.44897,3.6935 -0.69006,2.0546 -2.10584,10.1056 -2.54006,14.4443 l -0.27031,2.7007 0.47481,1.3412 c 0.26094,0.7378 0.69422,1.5081 0.96206,1.7122 l 0.48716,0.3712 2.23522,-0.3728 c 1.22937,-0.2062 3.33237,-0.4187 4.67353,-0.475 1.34106,-0.056 2.73981,-0.225 3.1084,-0.3725 l 0.67016,-0.2718 0.28781,0.434 0.28782,0.4338 -2.67154,2.3943 -2.6715,2.3941 -0.63484,1.479096 -0.635,1.479 -1.30072,0.7163 -1.3009,0.7162 -3.86879,0.2688 c -2.12781,0.1469 -5.51465,0.3906 -7.52634,0.5409 l -3.65747,0.2719 -0.88594,-0.7084 z m 46.19865,0.031 -2.23512,-0.5722 -2.15963,-1.3781 -2.15947,-1.3782 -1.59328,-1.736496 -1.59315,-1.7366 -1.18432,-2.2728 -1.18418,-2.2731 -0.44766,-2.0075 -0.44769,-2.0072 0.009,-3.4856 0.009,-3.4853 0.39516,-2.5469 0.39519,-2.5472 0.87262,-2.3775 c 1.14866,-3.1297 3.01166,-6.5797 4.51038,-8.3525 l 1.20787,-1.4288 2.54878,-1.6953 c 1.40191,-0.9325 3.54816,-2.1218 4.76972,-2.6431 l 2.22075,-0.9478 3.01234,-0.2281 3.01219,-0.2282 2.83572,0.6219 2.83563,0.6222 1.69787,0.9272 1.69781,0.9275 1.25647,1.4791 1.25647,1.4787 1.41066,2.7878 c 0.7759,1.5335 1.70187,3.8106 2.05778,5.061 l 0.64709,2.2728 0.22719,3.5987 0.22719,3.5988 -0.65747,3.22 c -0.36172,1.7709 -0.84506,3.8447 -1.07419,4.6084 l -0.41672,1.3884 -1.41281,0.7769 -1.41278,0.7772 v 0.5859 c 0,0.3225 0.22562,0.9232 0.50128,1.3344 l 0.50125,0.7485 -0.80603,1.4006 c -0.44335,0.7703 -1.65841,2.2709 -2.70013,3.334996 l -1.89406,1.9344 -2.16981,1.1165 -2.16997,1.1169 -5.07988,0.091 -5.07987,0.091 -2.23513,-0.5721 z m 9.73572,-7.843496 2.24131,-0.4734 1.555,-1.4441 1.55503,-1.444 0.78985,-1.7178 0.79003,-1.7178 0.44781,-2.691 0.44785,-2.6906 -0.27032,-5.3225 c -0.14843,-2.9275 -0.26281,-6.1144 -0.25343,-7.0822 l 0.0187,-1.76 -1.09766,-0.6703 c -0.60384,-0.3688 -2.071,-1.4094 -3.26059,-2.3125 l -2.16272,-1.6422 h -1.33282 -1.33284 l -2.08641,0.5775 -2.08643,0.5778 -1.30903,1.0266 -1.3091,1.0269 -1.54569,2.229 -1.54568,2.2294 -0.24782,1.375 c -0.13656,0.7566 -0.33318,1.6662 -0.43731,2.0216 -0.10437,0.3553 -0.91125,1.4603 -1.79334,2.4553 l -1.60391,1.8093 v 0.5857 0.5856 l 0.75003,0.5987 0.75007,0.5985 0.27906,2.2144 0.27906,2.2143 1.75681,3.4569 1.75688,3.4572 1.19106,0.7906 c 1.40584,0.9331 3.45569,1.53 5.41663,1.5775 0.77578,0.031 2.41906,-0.1781 3.65178,-0.4394 z m 36.27588,7.452196 -2.10216,-0.9762 -1.04497,-1.1578 c -0.57472,-0.6366 -1.38531,-1.779396 -1.80134,-2.539396 l -0.75635,-1.3822 -0.44343,-2.2356 -0.44325,-2.236 -0.0281,-10.0637 -0.0281,-10.0638 -0.31782,-0.7578 -0.31778,-0.7575 h -2.93287 -2.93285 l -1.5975,-1.5953 -1.5974,-1.5953 v -0.9669 -0.9668 l -0.47057,-0.7022 -0.47043,-0.7025 0.22156,-0.5382 0.22156,-0.5381 2.39747,-1.1715 2.39741,-1.1713 2.345,-0.4894 2.34487,-0.489 0.48488,-0.7872 0.48484,-0.7872 -0.10437,-7.7006 -0.10438,-7.7007 -0.43194,-0.7525 -0.43187,-0.7521 0.48434,-0.5441 0.48428,-0.5441 h 0.8115 0.81153 l 2.37804,1.3466 2.37812,1.3466 0.85541,1.12 0.85547,1.1196 0.23625,5.7382 0.23625,5.7378 0.75481,0.7037 0.75478,0.7035 1.11137,-0.25 c 0.61125,-0.1375 1.75144,-0.5444 2.53379,-0.9053 l 1.42237,-0.656 3.1925,-0.2719 3.19253,-0.275 1.48097,-0.5881 1.48094,-0.5881 2.12928,-0.038 2.12912,-0.037 0.19907,0.4841 0.19937,0.4837 -0.70275,0.5341 c -0.3865,0.2937 -1.56053,1.184 -2.6089,1.9784 -1.04838,0.7944 -3.45738,2.7359 -5.35329,4.3147 l -3.44709,2.8703 -3.58737,1.2644 c -1.973,0.6956 -3.86163,1.4981 -4.19694,1.7831 l -0.60953,0.5188 -0.13094,10.499 -0.13094,10.4994 0.26344,2.0012 0.26344,2.0013 0.94312,1.0219 0.94297,1.0218 1.24909,-0.5606 1.24916,-0.5609 4.62572,-4.2185 c 2.54416,-2.3203 5.02216,-4.4162 5.50678,-4.6581 l 0.88113,-0.4394 0.3469,0.2 0.34688,0.2 -0.32853,1.6169 c -0.18063,0.8894 -0.62054,2.2635 -0.97744,3.0535 l -0.64888,1.4362 -1.26128,1.0506 -1.26122,1.0507 0.47028,0.819 0.47032,0.8191 -0.63813,1.4294 -0.63815,1.429 -1.70788,1.657196 c -0.93944,0.9116 -2.521,2.1472 -3.51469,2.7466 l -1.80681,1.0893 h -2.27887 -2.279 l -2.10229,-0.9765 z"
     style="display:inline;fill:#301b0b;fill-opacity:1;stroke:none;stroke-width:0.39177489" />
  <text
     id="text5915"
     y="174.42786"
     x="347.73135"
     style="font-style:normal;font-variant:normal;font-weight:normal;font-stretch:normal;font-size:33.3333px;line-height:1.25;font-family:Lavi;-inkscape-font-specification:'Lavi, Normal';font-variant-ligatures:normal;font-variant-caps:normal;font-variant-numeric:normal;font-feature-settings:normal;text-align:center;letter-spacing:0px;word-spacing:0px;writing-mode:lr-tb;text-anchor:middle;fill:#000000;fill-opacity:1;stroke:none;stroke-width:3.125"
     xml:space="preserve" />
  <text
     id="text5921"
     y="213.38965"
     x="492.72986"
     style="font-style:normal;font-variant:normal;font-weight:normal;font-stretch:normal;font-size:41.6667px;line-height:1.25;font-family:Lavi;-inkscape-font-specification:'Lavi, Normal';font-variant-ligatures:normal;font-variant-caps:normal;font-variant-numeric:normal;font-feature-settings:normal;text-align:center;letter-spacing:0px;word-spacing:0px;writing-mode:lr-tb;text-anchor:middle;fill:#301b0b;fill-opacity:1;stroke:none;stroke-width:3.125"
     xml:space="preserve"><tspan
       style="font-size:33.3333px;stroke-width:3.125"
       y="213.38965"
       x="492.72986"
       id="tspan5919"
       sodipodi:role="line">#30 - True nature</tspan></text>
  <text
     transform="rotate(19.953943)"
     id="text5925"
     y="-126.10855"
     x="833.76288"
     style="font-style:normal;font-variant:normal;font-weight:normal;font-stretch:normal;font-size:41.6667px;line-height:1.25;font-family:Lavi;-inkscape-font-specification:Lavi;font-variant-ligatures:normal;font-variant-caps:normal;font-variant-numeric:normal;font-feature-settings:normal;text-align:center;letter-spacing:0px;word-spacing:0px;writing-mode:lr-tb;text-anchor:middle;fill:#ffa800;fill-opacity:1;stroke:#d95923;stroke-width:3.125;stroke-opacity:1"
     xml:space="preserve"><tspan
       style="font-style:normal;font-variant:normal;font-weight:bold;font-stretch:normal;font-size:58.3333px;font-family:Lavi;-inkscape-font-specification:'Lavi Bold';fill:#ffa800;fill-opacity:1;stroke:#d95923;stroke-width:3.125;stroke-opacity:1"
       y="-126.10855"
       x="833.76288"
       id="tspan5923"
       sodipodi:role="line">MINI</tspan></text>
  <text
     id="text7113-0"
     y="1718.1655"
     x="493.67981"
     style="font-style:normal;font-variant:normal;font-weight:normal;font-stretch:normal;font-size:41.6667px;line-height:0.6;font-family:Lavi;-inkscape-font-specification:'Lavi, Normal';font-variant-ligatures:normal;font-variant-caps:normal;font-variant-numeric:normal;font-feature-settings:normal;text-align:center;letter-spacing:0px;word-spacing:0px;writing-mode:lr-tb;text-anchor:middle;fill:#000000;fill-opacity:1;stroke:none;stroke-width:3.125"
     xml:space="preserve"><tspan
       id="tspan7142"
       style="font-size:20.8333px;line-height:0.6;stroke:none;stroke-width:3.125"
       y="1718.1655"
       x="493.67981"
       sodipodi:role="line">By Nicolas Artance</tspan><tspan
       style="font-size:20.8333px;line-height:0.6;stroke:none;stroke-width:3.125"
       y="1743.1655"
       x="493.67981"
       sodipodi:role="line"
       id="tspan174" /><tspan
       style="font-size:20.8333px;line-height:0.6;stroke:none;stroke-width:3.125"
       y="1768.1655"
       x="493.67981"
       sodipodi:role="line"
       id="tspan176">Based on the CC-BY webcomic </tspan><tspan
       style="font-size:20.8333px;line-height:0.6;stroke:none;stroke-width:3.125"
       y="1793.1655"
       x="493.67981"
       sodipodi:role="line"
       id="tspan178">Pepper&amp;Carrot by David Revoy</tspan></text>
  <g
     transform="matrix(1.3342933,0,0,1.1594588,441.17249,1825.7533)"
     id="surface1">
    <path
       inkscape:connector-curvature="0"
       style="fill:#a8b0ab;fill-opacity:1;fill-rule:nonzero;stroke:none"
       d="m 2.300781,0.375 83.128907,0.148438 c 1.160156,0 2.199218,-0.171875 2.199218,2.332031 L 87.527344,30.410156 H 0.203125 V 2.753906 C 0.203125,1.519531 0.324219,0.375 2.300781,0.375 Z"
       id="path7229" />
    <path
       inkscape:connector-curvature="0"
       style="fill:#000000;fill-opacity:1;fill-rule:nonzero;stroke:none"
       d="M 86.351563,0 H 1.648438 C 0.738281,0 0,0.742188 0,1.65625 V 30.625 C 0,30.832031 0.167969,31 0.371094,31 H 87.628906 C 87.832031,31 88,30.832031 88,30.625 V 1.65625 C 88,0.742188 87.261719,0 86.351563,0 Z M 1.648438,0.75 h 84.703125 c 0.5,0 0.902343,0.40625 0.902343,0.90625 0,0 0,11.699219 0,20.132813 H 26.515625 c -2.21875,4.039062 -6.492187,6.78125 -11.398437,6.78125 -4.910157,0 -9.183594,-2.738282 -11.402344,-6.78125 h -2.96875 c 0,-8.433594 0,-20.132813 0,-20.132813 0,-0.5 0.402344,-0.90625 0.902344,-0.90625 z"
       id="path7231" />
    <path
       inkscape:connector-curvature="0"
       style="fill:#ffffff;fill-opacity:1;fill-rule:nonzero;stroke:none"
       d="m 54.125,24.171875 c 0.234375,0 0.445313,0.01953 0.636719,0.05859 0.191406,0.04297 0.351562,0.109375 0.488281,0.203125 0.136719,0.09375 0.242188,0.21875 0.316406,0.375 0.07422,0.152344 0.113282,0.34375 0.113282,0.574219 0,0.246093 -0.05469,0.449218 -0.167969,0.613281 -0.109375,0.164062 -0.273438,0.300781 -0.492188,0.40625 0.300782,0.08594 0.523438,0.238281 0.671875,0.453125 0.148438,0.21875 0.222657,0.480469 0.222657,0.785156 0,0.246094 -0.04687,0.460938 -0.144532,0.640625 -0.09375,0.179688 -0.222656,0.328125 -0.382812,0.441406 -0.164063,0.113282 -0.347656,0.199219 -0.554688,0.253907 -0.207031,0.05469 -0.417968,0.08203 -0.636718,0.08203 H 51.835938 V 24.17187 Z m -0.136719,1.976563 c 0.191407,0 0.347657,-0.04687 0.472657,-0.136719 0.121093,-0.09375 0.183593,-0.238281 0.183593,-0.445313 0,-0.113281 -0.01953,-0.207031 -0.0625,-0.277343 -0.03906,-0.07422 -0.09375,-0.132813 -0.164062,-0.171875 -0.06641,-0.04297 -0.144531,-0.07031 -0.234375,-0.08594 -0.08594,-0.01563 -0.179688,-0.02344 -0.273438,-0.02344 H 52.90625 v 1.140625 z m 0.0625,2.074218 c 0.105469,0 0.207032,-0.01172 0.300782,-0.03125 0.09766,-0.01953 0.179687,-0.05469 0.253906,-0.101562 0.07031,-0.05078 0.128906,-0.113281 0.171875,-0.195313 0.04297,-0.08203 0.06641,-0.1875 0.06641,-0.316406 0,-0.25 -0.07031,-0.429687 -0.210937,-0.535156 -0.140625,-0.109375 -0.328125,-0.160156 -0.558594,-0.160156 H 52.90625 v 1.339843 z"
       id="path7233" />
    <path
       inkscape:connector-curvature="0"
       style="fill:#ffffff;fill-opacity:1;fill-rule:nonzero;stroke:none"
       d="m 56.101563,24.171875 h 1.199218 l 1.136719,1.929688 1.128906,-1.929688 h 1.191407 l -1.800782,3.011719 v 1.875 H 57.886719 V 27.15625 Z"
       id="path7235" />
    <path
       inkscape:connector-curvature="0"
       style="fill:#ffffff;fill-opacity:1;fill-rule:nonzero;stroke:none"
       d="m 25.121094,14.472656 c 0.0039,5.554688 -4.472656,10.0625 -9.996094,10.066407 -5.519531,0.0039 -10,-4.5 -10.003906,-10.054688 0,-0.0039 0,-0.0078 0,-0.01172 C 5.117188,8.914063 9.59375,4.40625 15.113281,4.402344 c 5.523438,-0.00391 10.003907,4.5 10.007813,10.058594 0,0 0,0.0078 0,0.01172 z"
       id="path7237" />
    <path
       inkscape:connector-curvature="0"
       style="fill:#000000;fill-opacity:1;fill-rule:nonzero;stroke:none"
       d="m 23.25,6.273438 c 2.214844,2.234375 3.324219,4.964843 3.324219,8.199218 0,3.230469 -1.089844,5.933594 -3.269531,8.109375 -2.3125,2.289063 -5.042969,3.433594 -8.199219,3.433594 -3.113281,0 -5.800781,-1.136719 -8.054688,-3.40625 C 4.792969,20.339844 3.667969,17.625 3.667969,14.472656 c 0,-3.15625 1.125,-5.890625 3.382812,-8.199218 2.195313,-2.230469 4.882813,-3.347657 8.054688,-3.347657 3.210937,0 5.925781,1.117188 8.144531,3.347657 z M 8.542969,7.777344 c -1.875,1.902344 -2.8125,4.136719 -2.8125,6.695312 0,2.5625 0.929687,4.773438 2.78125,6.640625 1.855469,1.867188 4.066406,2.800782 6.628906,2.800782 2.5625,0 4.789063,-0.941407 6.683594,-2.828125 1.796875,-1.753907 2.695312,-3.957032 2.695312,-6.613282 0,-2.636718 -0.914062,-4.871093 -2.738281,-6.710937 -1.828125,-1.839844 -4.039062,-2.757813 -6.640625,-2.757813 -2.601562,0 -4.800781,0.925782 -6.597656,2.773438 z m 4.933594,5.570312 C 13.1875,12.71875 12.761719,12.40625 12.1875,12.40625 c -1.011719,0 -1.515625,0.683594 -1.515625,2.054688 0,1.367187 0.503906,2.050781 1.515625,2.050781 0.667969,0 1.144531,-0.332031 1.429688,-1 l 1.402343,0.75 c -0.667968,1.195312 -1.667968,1.792969 -3.003906,1.792969 -1.03125,0 -1.859375,-0.316407 -2.476562,-0.953125 -0.621094,-0.636719 -0.933594,-1.511719 -0.933594,-2.628907 0,-1.101562 0.320312,-1.972656 0.960937,-2.617187 0.640625,-0.644531 1.4375,-0.96875 2.390625,-0.96875 1.414063,0 2.421875,0.5625 3.035157,1.679687 z m 6.589843,0 C 19.78125,12.71875 19.359375,12.40625 18.808594,12.40625 c -1.03125,0 -1.550781,0.683594 -1.550781,2.054688 0,1.367187 0.519531,2.050781 1.550781,2.050781 0.667969,0 1.136719,-0.332031 1.402344,-1 l 1.433593,0.75 c -0.667968,1.195312 -1.667968,1.792969 -3.003906,1.792969 -1.027344,0 -1.851562,-0.316407 -2.46875,-0.953125 -0.621094,-0.636719 -0.929687,-1.511719 -0.929687,-2.628907 0,-1.101562 0.3125,-1.972656 0.941406,-2.617187 0.628906,-0.644531 1.429687,-0.96875 2.402344,-0.96875 1.410156,0 2.417968,0.5625 3.027343,1.679687 z"
       id="path7239" />
    <path
       inkscape:connector-curvature="0"
       style="fill:#ffffff;fill-opacity:1;fill-rule:nonzero;stroke:none"
       d="m 63.804688,11.230469 c 0,4.378906 -3.527344,7.925781 -7.875,7.925781 -4.351563,0 -7.875,-3.546875 -7.875,-7.925781 0,-4.375 3.523437,-7.925781 7.875,-7.925781 4.347656,0 7.875,3.550781 7.875,7.925781 z"
       id="path7241" />
    <path
       inkscape:connector-curvature="0"
       style="fill:#000000;fill-opacity:1;fill-rule:nonzero;stroke:none"
       d="m 58.207031,8.9375 c 0,-0.304687 -0.246093,-0.550781 -0.546875,-0.550781 h -3.480468 c -0.300782,0 -0.546875,0.246094 -0.546875,0.550781 v 3.5 h 0.96875 v 4.148438 h 2.636718 V 12.4375 h 0.96875 z"
       id="path7243" />
    <path
       inkscape:connector-curvature="0"
       style="fill:#000000;fill-opacity:1;fill-rule:nonzero;stroke:none"
       d="m 57.109375,6.726563 c 0,0.660156 -0.53125,1.199218 -1.1875,1.199218 -0.660156,0 -1.191406,-0.539062 -1.191406,-1.199218 0,-0.660157 0.53125,-1.195313 1.191406,-1.195313 0.65625,0 1.1875,0.535156 1.1875,1.195313 z"
       id="path7245" />
    <path
       inkscape:connector-curvature="0"
       style="fill:#000000;fill-opacity:1;fill-rule:evenodd;stroke:none"
       d="m 55.910156,2.5 c -2.355468,0 -4.351562,0.828125 -5.984375,2.480469 -1.671875,1.710937 -2.507812,3.738281 -2.507812,6.078125 0,2.335937 0.835937,4.347656 2.507812,6.03125 1.675782,1.683594 3.671875,2.523437 5.984375,2.523437 2.339844,0 4.371094,-0.847656 6.085938,-2.542968 1.617187,-1.613282 2.429687,-3.617188 2.429687,-6.011719 0,-2.398438 -0.824218,-4.421875 -2.46875,-6.078125 C 60.308594,3.328125 58.292969,2.5 55.910156,2.5 Z m 0.01953,1.539063 c 1.929687,0 3.570312,0.683593 4.917968,2.054687 1.363282,1.355469 2.042969,3.007813 2.042969,4.964844 0,1.964844 -0.667969,3.601562 -2,4.898437 -1.40625,1.398438 -3.058594,2.097657 -4.960937,2.097657 -1.902344,0 -3.539063,-0.691407 -4.917969,-2.078125 -1.375,-1.382813 -2.0625,-3.023438 -2.0625,-4.917969 0,-1.898438 0.695312,-3.554688 2.085937,-4.964844 C 52.367188,4.722656 54,4.039063 55.929688,4.039063 Z"
       id="path7247" />
  </g>
  <text
     id="text3229"
     y="985.66992"
     x="1115.3351"
     style="font-style:normal;font-variant:normal;font-weight:normal;font-stretch:normal;font-size:18.6667px;line-height:1.25;font-family:Lavi;-inkscape-font-specification:'Lavi, Normal';font-variant-ligatures:normal;font-variant-caps:normal;font-variant-numeric:normal;font-feature-settings:normal;text-align:center;letter-spacing:0px;word-spacing:0px;writing-mode:lr-tb;text-anchor:middle;fill:#000000;fill-opacity:1;stroke:none"
     xml:space="preserve" />
  <text
     transform="matrix(0.55026081,0.01267562,-0.01425468,0.53501165,1402.2179,-390.24206)"
     id="text4246-85-9-1"
     y="2872.5061"
     x="-447.29675"
     style="font-style:normal;font-variant:normal;font-weight:normal;font-stretch:normal;line-height:0%;font-family:Lavi;-inkscape-font-specification:Lavi;text-align:center;letter-spacing:0px;word-spacing:0px;text-anchor:middle;display:inline;opacity:0.6;fill:#000000;fill-opacity:1;stroke:none;stroke-width:1.52893;filter:url(#filter4213-8-5)"
     xml:space="preserve" />
  <rect
     y="235.02544"
     x="1000.9322"
     height="965.46606"
     width="57.533875"
     id="rect3540"
     style="opacity:1;fill:#ffffff;fill-opacity:1;fill-rule:nonzero;stroke:#ffffff;stroke-width:0.1;stroke-linecap:round;stroke-linejoin:round;stroke-miterlimit:4;stroke-dasharray:none;stroke-dashoffset:0;stroke-opacity:1;paint-order:markers stroke fill" />
  <text
     xml:space="preserve"
     style="font-style:normal;font-variant:normal;font-weight:normal;font-stretch:normal;font-size:61.6299px;line-height:1.25;font-family:Lavi;-inkscape-font-specification:'Lavi, Normal';font-variant-ligatures:normal;font-variant-caps:normal;font-variant-numeric:normal;font-feature-settings:normal;text-align:center;letter-spacing:0px;word-spacing:0px;writing-mode:lr-tb;text-anchor:middle;fill:#000000;fill-opacity:1;stroke:none;stroke-width:4.62223"
     x="768.29401"
     y="788.6413"
     id="text7073-7"
     transform="scale(0.89611467,1.1159286)"><tspan
       sodipodi:role="line"
       id="tspan7071-6"
       x="768.29401"
       y="788.6413"
       style="stroke-width:4.62223">?!</tspan></text>
  <text
     xml:space="preserve"
     style="font-size:18px;line-height:1.25;font-family:Lavi;-inkscape-font-specification:Lavi;text-align:center;letter-spacing:0px;word-spacing:0px;writing-mode:lr-tb;text-anchor:middle"
     x="326.72287"
     y="1680.1805"
     id="text1087"><tspan
       sodipodi:role="line"
       id="tspan1085"
       x="326.72287"
       y="1680.1805"
       style="font-size:18px">* See episode 36 of Pepper and Carrot</tspan></text>
  <path
     style="fill:#ffffff;fill-opacity:1;stroke:none;stroke-width:0.385254"
     d="m 415.51623,310.50685 c -12.03358,3.31877 -16.66183,6.40047 -14.50192,8.29695 -4.93686,0.94822 -6.78822,25.60205 -2.15991,30.10611 0.30857,0.4742 2.46842,1.89649 1.54277,2.13352 -0.92566,0.23705 -6.4796,-0.47407 -7.40527,0.47409 -0.92563,0.94828 8.33092,14.46047 7.09675,14.93459 -1.23425,0.4741 -29.62107,-8.53404 -33.6322,-6.4005 -4.01117,2.13348 -1.85135,7.58575 -3.08555,7.82288 -1.23415,0.23704 -12.65065,-1.1853 -14.19345,-0.94828 -1.5427,0.23708 -4.31961,7.34873 -5.8624,7.58577 -1.54276,0.23708 -8.6395,-3.08169 -9.87371,-2.84465 -1.23422,0.23708 -0.61706,6.16349 -2.15984,6.40048 -1.54276,0.23708 -8.33091,-4.9781 -9.2566,-4.74109 -0.92562,0.23708 -4.31974,12.08992 -5.86247,12.80102 -1.54279,0.7112 -11.41643,-13.03803 -12.34212,-13.27511 -0.92563,-0.23708 -6.78809,16.11983 -8.02235,16.35687 -1.23422,0.23708 -7.40523,-11.14169 -8.33092,-10.90461 -0.92566,0.23704 -6.78814,6.87471 -8.0223,7.34875 -1.23422,0.4741 -9.2566,-14.69746 -10.49078,-14.69746 -1.23428,0 -11.725,6.40051 -12.65069,7.58575 -0.92566,1.18529 -1.85128,-6.16342 -3.08548,-6.16342 -1.23422,0 -15.42761,4.26702 -15.7362,4.02996 -0.30854,-0.23708 2.1599,-4.74114 1.23425,-4.74114 -0.92566,0 -15.42759,5.92644 -16.04476,4.74114 -0.61707,-1.18528 -31.47232,5.9264 -33.63217,4.97818 -2.15987,-0.94828 13.88486,-19.43861 12.34215,-20.86092 -1.54278,-1.42237 -7.0968,0.23704 -7.40534,-0.47412 -0.3085,-0.71117 3.3941,-3.79291 2.4685,-4.74116 -0.92571,-0.94819 -11.41649,-4.74109 -12.3421,-5.92634 -0.92571,-1.18528 4.62825,-4.2671 3.39408,-4.97826 -1.23425,-0.71116 -19.43888,-5.21522 -19.74741,-6.40051 -0.30854,-1.18529 9.25656,-6.87456 8.02237,-8.53397 -1.23419,-1.6594 -4.6283,-2.37057 -4.31973,-3.55585 0.30856,-1.18528 6.17108,-2.60766 5.86251,-3.79295 -0.30859,-1.18526 -3.39408,-7.11167 -4.31973,-8.05987 -0.92564,-0.94824 6.4796,-0.47412 6.4796,-1.42237 0,-0.94819 -27.15264,-26.31324 -26.53548,-33.42492 9.56511,4.50406 42.27165,12.56398 52.45383,10.66756 10.18229,-1.89652 6.17105,-13.74927 7.71378,-14.46047 1.54279,-0.71114 12.95925,4.02999 14.50203,2.37059 1.54275,-1.65939 2.15983,-4.74111 3.39408,-4.74111 1.23414,0 8.3309,6.63752 9.87362,6.40051 1.54277,-0.23708 16.04474,-10.66748 18.20463,-10.90462 2.15984,-0.23698 10.49075,4.02999 12.34209,4.26703 1.8513,0.23708 3.39404,-5.68931 4.93682,-5.21518 1.54279,0.47403 11.41644,4.74111 12.95914,4.26699 1.54279,-0.47414 2.777,-2.37053 4.01126,-1.89643 1.23413,0.47405 6.78811,2.37055 6.78811,2.37055 0,0 4.01118,-1.42238 5.86248,-1.42238 1.85131,0 14.50192,7.82287 16.0447,8.29696 1.5428,0.47409 14.81051,-18.01624 13.88487,-19.43861 -0.92568,-1.42232 13.88486,19.67569 16.04473,20.38686 2.15984,0.71114 8.63947,-1.42234 9.25651,-0.71117 0.61715,0.71117 2.46846,4.50403 4.31979,4.74111 1.85129,0.23704 6.17105,1.18525 6.17105,1.18525 l -0.6171,1.42237 c 0,0 12.95916,-3.79291 14.50196,-5.21522 1.54273,-1.42234 -0.92569,6.16341 -1.85134,8.05989 5.5539,-1.89648 21.9072,-5.92642 23.14134,-7.1117 1.23426,-1.18529 -2.1598,4.26703 -4.0111,5.92642 2.4684,-0.7112 4.6283,-0.94823 4.6283,-0.94823 l -7.09674,5.68934 2.15991,0.47416 c 0,0 -4.6283,2.60761 -4.6283,3.7929 0,1.18524 12.03348,2.60761 12.03348,2.60761 0,0 -4.93683,2.13345 -3.7026,3.31874 1.23425,1.1853 4.31979,1.89645 4.31979,1.89645 l 0.61703,3.08178 z"
     id="path5888"
     inkscape:connector-curvature="0" />
  <path
     style="color:#000000;display:inline;overflow:visible;visibility:visible;fill:#ffffff;fill-opacity:1;fill-rule:nonzero;stroke:none;stroke-width:0.366556px;marker:none;enable-background:accumulate"
     d="m 366.99201,338.72875 c 1.15451,11.7646 5.6321,35.29212 8.56382,40.00483 10.33314,-2.71804 29.63022,-3.1516 30.17848,-1.45551 0.54821,1.6961 -6.26608,29.59482 -3.73286,31.1572 2.53324,1.56233 12.70949,4.19838 16.8268,3.77658 -12.16606,0.0976 -21.42701,-0.57828 -24.32491,-3.70471 -2.09132,-2.02537 3.4987,-23.77603 3.97924,-25.25258 -9.5194,-0.0808 -29.00244,1.52071 -32.49194,0.3116 -2.45598,-3.58941 -11.87655,-17.39667 -15.69964,-37.06893 -3.82306,-19.67229 16.70101,-7.76848 16.70101,-7.76848 z"
     id="path5901"
     inkscape:connector-curvature="0"
     sodipodi:nodetypes="ccccccccsc" />
  <path
     style="color:#000000;display:inline;overflow:visible;visibility:visible;fill:#ffffff;fill-opacity:1;fill-rule:nonzero;stroke:none;stroke-width:0.398136px;marker:none;enable-background:accumulate"
     d="m 252.22591,348.29753 c 18.6898,-7.39329 32.57851,-11.12563 49.19598,23.49947 16.61744,34.62506 19.46111,51.98238 21.16326,59.15708 -1.17792,6.55584 -10.53067,-2.47445 -6.4663,11.35416 4.35588,9.95323 16.93847,52.63653 20.99696,78.306 4.05848,25.66943 -0.76569,27.20917 -0.76569,27.20917 0,0 -16.51458,-88.29228 -30.38191,-119.88807 3.43554,0.002 10.02884,0.31489 9.4041,-5.43215 -0.62476,-5.74703 -13.37592,-40.96746 -19.99346,-49.2444 -6.61758,-8.27701 -24.16868,-33.99351 -43.15294,-24.96126 z"
     id="path3923-6"
     inkscape:connector-curvature="0"
     sodipodi:nodetypes="csccsccssc" />
  <g
     id="g215">
    <text
       id="text7113-8"
       y="307.71707"
       x="288.06689"
       style="font-style:normal;font-variant:normal;font-weight:normal;font-stretch:normal;font-size:41.6667px;line-height:0.6;font-family:Lavi;-inkscape-font-specification:'Lavi, Normal';font-variant-ligatures:normal;font-variant-caps:normal;font-variant-numeric:normal;font-feature-settings:normal;text-align:center;letter-spacing:0px;word-spacing:0px;writing-mode:lr-tb;text-anchor:middle;fill:#000000;fill-opacity:1;stroke:none;stroke-width:3.125"
       xml:space="preserve"><tspan
         style="font-size:20.8333px;line-height:0.6;stroke-width:3.125"
         y="307.71707"
         x="288.06689"
         sodipodi:role="line"
         id="tspan162">So, you</tspan><tspan
         style="font-size:20.8333px;line-height:0.6;stroke-width:3.125"
         y="332.7171"
         x="288.06689"
         sodipodi:role="line"
         id="tspan184"> <tspan
   style="font-style:normal;font-variant:normal;font-weight:bold;font-stretch:normal;font-family:Lavi;-inkscape-font-specification:'Lavi Bold'"
   id="tspan180">DARE</tspan> to attack</tspan><tspan
         style="font-size:20.8333px;line-height:0.6;stroke-width:3.125"
         y="357.7171"
         x="288.06689"
         sodipodi:role="line"
         id="tspan164">my temple?!*</tspan></text>
  </g>
  <path
     style="color:#000000;display:inline;overflow:visible;visibility:visible;fill:#ffffff;fill-opacity:1;fill-rule:nonzero;stroke:none;stroke-width:0.904014px;marker:none;enable-background:accumulate"
     d="m 528.42597,667.02054 c -26.26134,-16.91351 -53.05209,-33.67186 -5.01394,-72.37426 -45.07021,8.70642 -17.18426,-12.65466 -5.89289,-27.17664 -80.70841,26.45629 -28.06056,-19.27824 -7.83338,-47.46241 -18.07917,10.84156 -47.16589,42.2395 -35.56309,-2.34999 -5.71689,1.84827 -12.51168,7.51512 -15.14723,-1.55337 -7.35328,5.90431 -12.75777,7.28327 -15.82415,3.23207 -7.3276,10.98101 -11.97862,13.76611 -11.70344,1.46814 -6.90111,9.01255 -8.90891,5.73958 -10.537,1.51367 -11.92166,19.46256 -16.12015,13.67713 -20.60277,8.82004 -6.76303,11.70094 -14.35291,8.69471 -22.63663,-6.65749 -9.16996,19.99129 -18.57477,18.38629 -28.11106,4.67741 -2.077,15.88468 -7.80961,31.65004 -13.59327,-1.83236 -3.9407,2.5228 -6.80238,23.43101 -19.30501,-12.01941 -1.82217,38.36336 -47.29426,23.47513 -66.13306,3.25122 5.12999,30.029 -4.99829,43.23207 -37.01018,12.0292 -1.94513,11.93409 -11.85815,16.42385 -28.8811,14.27139 17.20811,15.16551 17.94754,23.44576 -22.46489,14.52144 28.03649,12.96336 53.85546,25.84009 9.80768,35.99089 10.1709,5.10908 43.93005,-4.65879 6.02733,50.27916 26.37824,-11.42247 50.16778,-13.72934 56.49103,36.84992 14.35723,-12.67662 30.09645,-18.61955 41.79244,12.21685 11.46716,-13.78721 27.0582,-9.76141 35.07319,-2.48116 2.5081,-15.49185 19.62522,-38.73318 41.33999,5.46252 -4.47048,-24.81276 0.038,-63.88065 25.06361,1.94028 0.74041,-11.25107 -8.89181,-72.97034 62.97848,3.41972 -8.18443,-49.68955 15.59484,-20.03465 34.48993,-2.50386 -8.93033,-31.3023 5.46092,-33.13443 36.46413,-13.9754 -23.61477,-30.31241 1.09626,-21.23359 16.72528,-19.55757 z"
     id="path3549-3-3-0"
     inkscape:connector-curvature="0"
     sodipodi:nodetypes="ccccccccccccccccccccccccccccc" />
  <text
     id="text7113-8-1"
     y="572.85352"
     x="348.93051"
     style="font-style:normal;font-variant:normal;font-weight:normal;font-stretch:normal;font-size:41.6667px;line-height:0.6;font-family:Lavi;-inkscape-font-specification:'Lavi, Normal';font-variant-ligatures:normal;font-variant-caps:normal;font-variant-numeric:normal;font-feature-settings:normal;text-align:center;letter-spacing:0px;word-spacing:0px;writing-mode:lr-tb;text-anchor:middle;fill:#000000;fill-opacity:1;stroke:none;stroke-width:3.125"
     xml:space="preserve"><tspan
       id="tspan230"
       style="font-size:20.8333px;line-height:0.6;stroke-width:3.125"
       y="572.85352"
       x="348.93051"
       sodipodi:role="line">But just you wait, </tspan><tspan
       style="font-size:20.8333px;line-height:0.6;stroke-width:3.125"
       y="597.85352"
       x="348.93051"
       sodipodi:role="line"
       id="tspan189">insects! I will show you </tspan><tspan
       id="tspan240"
       style="font-size:20.8333px;line-height:0.6;stroke-width:3.125"
       y="622.85358"
       x="348.93051"
       sodipodi:role="line">what the Master of Ah </tspan><tspan
       style="font-size:20.8333px;line-height:0.6;stroke-width:3.125"
       y="647.85358"
       x="348.93051"
       sodipodi:role="line"
       id="tspan210">is able to d...</tspan></text>
  <path
     style="fill:#e9afaf;stroke:none;stroke-width:0.593225"
     d="m 173.86592,1257.1381 c -4.72267,-27.8575 37.11183,-32.314 42.52396,-38.0844 5.41211,-5.7701 17.78276,-26.5435 27.0607,-30.0058 9.27794,-3.4622 43.29713,11.5409 54.89459,19.6193 11.59736,8.0786 28.51477,-8.4717 45.61655,-4.6163 17.10183,3.8554 22.42176,25.3896 30.15335,32.3138 7.73159,6.9245 44.0703,9.2328 44.84348,39.2386 0.77317,30.0057 -52.57507,30.0057 -61.85306,32.3138 -9.27796,2.3082 -34.79237,18.465 -48.70925,16.157 -13.91689,-2.3081 -40.20441,-13.8489 -53.34824,-16.157 -13.14377,-2.3081 -32.47284,10.3866 -40.9776,1.1542 -8.50483,-9.2327 -7.73164,-16.157 -11.59746,-20.7734 -3.86584,-4.6162 -23.88438,-3.3023 -28.60702,-31.1598 z"
     id="path3250"
     inkscape:connector-curvature="0"
     sodipodi:nodetypes="zssszsssssssz" />
  <path
     style="fill:#e9afaf;fill-opacity:1;fill-rule:evenodd;stroke:none;stroke-width:0.781316px;stroke-linecap:butt;stroke-linejoin:miter;stroke-opacity:1"
     d="m 177.07515,1558.5675 c -4.3214,5.5581 -1.47975,12.1396 4.91472,16.0179 5.83057,3.2 11.39592,7.7311 19.6412,7.9266 9.47035,0.2083 20.47399,-3.109 28.55512,1.2534 7.06682,6.1509 15.68461,13.3975 28.65741,13.3761 11.04496,0.047 18.14937,-6.5397 26.72569,-10.2807 6.02039,-3.1102 13.50523,-1.7298 18.97933,0.6614 9.01221,2.4594 21.16662,4.1626 29.56758,-0.8425 4.1545,-3.224 6.2902,-8.2007 13.84094,-8.6199 10.58186,-0.9906 19.18891,4.0503 29.41047,4.4941 9.7685,2.8 20.93743,-0.5683 29.90602,-3.8782 6.25341,-2.4542 14.05668,-4.6525 15.19133,-10.1063 5.76852,-9.3071 6.13329,-22.0515 18.89275,-27.339 7.32945,-3.4402 17.3573,-5.7189 20.24318,-11.9958 3.69979,-7.315 -1.91417,-14.3448 -5.29278,-20.9016 -0.99456,-7.764 -11.20057,-12.5659 -20.55313,-15.9224 -5.28356,-1.8589 -10.34406,-4.1186 -16.52768,-4.5256 -12.17262,-1.6956 -25.47782,-2.7567 -35.3894,-7.9323 -6.84879,-5.5756 -18.7716,-6.2861 -29.1041,-4.9248 -8.32865,1.8445 -16.17397,-0.7407 -24.36015,-1.239 -8.64748,-0.9709 -17.4978,-1.2511 -26.18715,-1.9701 -12.81348,-2.223 -24.92251,-8.3955 -39.05959,-5.8341 -12.14499,1.1058 -21.55937,7.2304 -29.21777,13.3236 -3.29788,2.0058 -5.3478,5.4403 -9.99253,6.0367 -11.50634,2.004 -24.46256,-0.083 -34.90362,4.7174 -7.83805,4.1235 -10.80974,11.486 -8.2117,17.5579 0.89059,4.7291 5.98164,9.8517 2.81362,14.5133 -6.1528,6.0555 -15.79342,11.6407 -15.70679,19.3752 0.0824,4.1304 4.83523,7.1011 5.63018,11.1057 0.72023,1.9505 1.21159,3.9438 1.53648,5.9529 z"
     id="path4367"
     inkscape:connector-curvature="0"
     sodipodi:nodetypes="ccccccccccccccccccccccccccccccc" />
  <path
     style="fill:#e9afaf;fill-opacity:1;fill-rule:evenodd;stroke:none;stroke-width:0.494884px;stroke-linecap:butt;stroke-linejoin:miter;stroke-opacity:1"
     d="m 348.56722,1289.9747 c 4.25463,4.231 0.95404,5.7223 -0.42178,7.4244 -1.77524,2.1061 3.805,7.5476 9.32966,9.4459 4.6266,1.5583 8.77288,5.0773 11.68877,8.2873 2.80816,3.7712 3.53939,6.4107 6.66624,9.665 3.67136,4.8484 -0.88452,5.523 3.92834,10.7169 3.37774,3.4654 4.88193,6.7195 9.99707,9.0353 3.64617,1.4745 8.06868,5.3509 10.35532,8.2913 -5.39786,-3.6984 -11.56229,-5.0048 -16.91851,-9.0442 -6.45477,-5.0128 -13.62533,-11.2746 -14.14885,-15.7328 0.66755,-3.6277 -3.59351,-10.3928 -11.65511,-15.0516 -5.16931,-2.5971 -11.60224,-5.6953 -14.72158,-9.9001 -3.51716,-5.6306 -8.87911,-12.4111 -6.83653,-15.9079 1.47607,-1.6013 -0.75752,-6.0274 3.56002,-5.495 4.65958,1.5634 7.5256,5.6047 9.17694,8.2655 z"
     id="path4396"
     inkscape:connector-curvature="0"
     sodipodi:nodetypes="ccccccccccccccc" />
  <path
     style="color:#000000;display:inline;overflow:visible;visibility:visible;fill:#e9afaf;fill-opacity:1;fill-rule:nonzero;stroke:none;stroke-width:0.604533px;marker:none;enable-background:accumulate"
     d="m 320.9367,1575.076 c -18.20076,-77.4993 -23.3935,-111.1681 -26.44655,-199.8054 -3.05302,-88.6373 2.61168,-73.3556 2.61168,-73.3556 0,0 -1.60287,147.6796 23.83487,273.161 z"
     id="path5002-3-2"
     inkscape:connector-curvature="0" />
  <text
     xml:space="preserve"
     style="font-style:normal;font-variant:normal;font-weight:normal;font-stretch:normal;font-size:18.6667px;line-height:1.25;font-family:Lavi;-inkscape-font-specification:'Lavi, Normal';font-variant-ligatures:normal;font-variant-caps:normal;font-variant-numeric:normal;font-feature-settings:normal;text-align:center;letter-spacing:0px;word-spacing:0px;writing-mode:lr-tb;text-anchor:middle;fill:#ffffff;fill-opacity:1;stroke:none"
     x="291.60809"
     y="1247.4038"
     id="text2334-9"><tspan
       sodipodi:role="line"
       x="291.60809"
       y="1247.4038"
       id="tspan219">I will bake some lil </tspan><tspan
       sodipodi:role="line"
       x="291.60809"
       y="1270.7372"
       id="tspan227">cakes for them, and make </tspan><tspan
       sodipodi:role="line"
       x="291.60809"
       y="1294.0706"
       id="tspan223">some black tea!</tspan></text>
  <text
     id="text2334-9-0"
     y="1516.6473"
     x="306.10306"
     style="font-style:normal;font-variant:normal;font-weight:normal;font-stretch:normal;font-size:18.6667px;line-height:1.25;font-family:Lavi;-inkscape-font-specification:'Lavi, Normal';font-variant-ligatures:normal;font-variant-caps:normal;font-variant-numeric:normal;font-feature-settings:normal;text-align:center;letter-spacing:0px;word-spacing:0px;writing-mode:lr-tb;text-anchor:middle;fill:#ffffff;fill-opacity:1;stroke:none"
     xml:space="preserve"><tspan
       y="1516.6473"
       x="306.10306"
       sodipodi:role="line"
       id="tspan233">Like this, they'll be so </tspan><tspan
       y="1539.9807"
       x="306.10306"
       sodipodi:role="line"
       id="tspan237">happy, and they'll help me</tspan><tspan
       id="tspan354"
       y="1563.3141"
       x="309.38431"
       sodipodi:role="line">for my conquest! </tspan></text>
  <text
     transform="matrix(0.5151703,-0.04776998,-0.00773314,0.61223053,-61.45601,43.643219)"
     id="text4580-6-0-0-3-3-6-2-9"
     y="1584.5073"
     x="787.65729"
     style="font-style:normal;font-variant:normal;font-weight:normal;font-stretch:normal;line-height:0%;font-family:Lavi;-inkscape-font-specification:Lavi;letter-spacing:3.03024px;word-spacing:0px;display:inline;fill:#ffffdb;fill-opacity:1;stroke:#aa7640;stroke-width:0.801839;stroke-miterlimit:4;stroke-dasharray:none;stroke-opacity:1;filter:url(#filter4375-4-1-1-1-9-5-8-8-3-3-3-6-1)"
     xml:space="preserve"><tspan
       style="font-style:normal;font-variant:normal;font-weight:bold;font-stretch:normal;font-size:70px;line-height:1.25;font-family:Drukah;-inkscape-font-specification:'Drukah Bold';fill:#ffffdb;fill-opacity:1;stroke:#aa7640;stroke-width:0.801839;stroke-miterlimit:4;stroke-dasharray:none;stroke-opacity:1"
       y="1584.5073"
       x="787.65729"
       id="tspan4582-1-1-0-6-9-0-8-3"
       sodipodi:role="line">Dziing!</tspan></text>
  <text
     xml:space="preserve"
     style="font-style:normal;font-variant:normal;font-weight:normal;font-stretch:normal;line-height:0%;font-family:Lavi;-inkscape-font-specification:Lavi;letter-spacing:0px;word-spacing:0px;display:inline;opacity:0.860477;fill:#b9c4f2;fill-opacity:1;stroke:#ffe260;stroke-width:0.320995;stroke-miterlimit:4;stroke-dasharray:none;stroke-opacity:1;filter:url(#filter4375-4-1-1-1-9-5-8-8-1-0-7-9-4)"
     x="787.65729"
     y="1584.5073"
     id="text4580-6-0-0-7-5-9-7"
     transform="matrix(0.37864418,-0.09864757,-0.00599768,0.50083756,-107.82391,-235.16363)"><tspan
       sodipodi:role="line"
       id="tspan4582-1-1-0-4-2-2-2"
       x="787.65729"
       y="1584.5073"
       style="font-style:normal;font-variant:normal;font-weight:bold;font-stretch:normal;font-size:70px;line-height:1.25;font-family:Lavi;-inkscape-font-specification:'Lavi Bold';fill:#b9c4f2;fill-opacity:1;stroke:#ffe260;stroke-width:0.320995;stroke-opacity:1"><tspan
   style="font-size:58.6346px;fill:#b9c4f2;fill-opacity:1;stroke-width:0.320995"
   id="tspan853-4-6-2"><tspan
   style="font-size:58.94px;fill:#b9c4f2;fill-opacity:1"
   id="tspan78295-8-6">B</tspan>OO</tspan>M!</tspan></text>
  <path
     sodipodi:nodetypes="ccccscccccccc"
     inkscape:connector-curvature="0"
     id="path1295-3"
     d="m 237.81965,808.16395 c 0,0 1.18189,-11.13762 1.71806,-16.77986 0.53631,-5.64201 1.43518,-11.85831 -0.17522,-18.2561 2.93979,7.64872 4.90762,10.28506 4.90762,10.28506 0,0 2.48528,-13.85121 -3.26277,-24.35743 -2.95363,-5.3988 -12.28266,-9.18999 -18.63081,-10.804 8.23622,-0.0968 14.16428,0.42449 14.16428,0.42449 -12.98489,-12.66677 -37.53977,-16.32971 -63.75795,-1.24794 32.01121,-23.54376 61.32064,-12.33011 81.49316,2.46147 -8.62133,-2.0094 -11.49164,-2.002 -11.49164,-2.002 0,0 5.94063,2.27046 9.06961,14.41295 3.12872,12.14234 0.32777,33.83188 -1.17524,37.64887 -1.50275,3.81714 -12.8591,8.21449 -12.8591,8.21449 z"
     style="display:inline;fill:#000000;fill-opacity:1;fill-rule:evenodd;stroke:none;stroke-width:0.340436px;stroke-linecap:butt;stroke-linejoin:miter;stroke-opacity:1" />
  <path
     sodipodi:nodetypes="csssssccccc"
     inkscape:connector-curvature="0"
     id="path3986-45-3-7-2-0"
     d="m 474.88531,194.33698 c 60.37012,-2.8227 125.44271,-3.86266 183.71185,-18.42057 30.34453,-11.57204 6.3403,-36.48702 10.05568,-54.26536 15.21899,-16.58685 -12.8028,-53.163343 -47.63847,-52.116828 -78.51261,2.358633 -94.58674,-8.67943 -142.11953,-13.011065 -52.7209,-4.684738 -76.07221,9.522709 -128.32283,16.251658 -29.50952,2.974253 -62.08749,4.835525 -85.85886,20.330079 -16.58879,18.927996 -1.88397,43.551746 4.37754,63.572906 8.23951,18.09496 33.14142,24.07956 55.25371,25.72122 42.82637,3.01249 31.01506,9.33763 73.94894,11.31288 8.22815,0.23018 68.3588,0.70267 76.59197,0.62508 z"
     style="color:#000000;display:inline;overflow:visible;visibility:visible;fill:#000000;fill-opacity:1;fill-rule:nonzero;stroke:none;stroke-width:1px;marker:none;filter:url(#filter3018-9-9-3-2-3-8);enable-background:accumulate"
     transform="matrix(0.36502094,0,0,0.48886851,130.87719,726.10629)" />
  <text
     transform="scale(0.99551738,1.0045028)"
     id="text4180-5-0-6-2"
     y="792.34528"
     x="304.5871"
     style="font-style:normal;font-variant:normal;font-weight:normal;font-stretch:normal;font-size:5.5809px;line-height:0%;font-family:Lavi;-inkscape-font-specification:Lavi;text-align:center;letter-spacing:0px;word-spacing:0px;text-anchor:middle;display:inline;fill:#ffffff;fill-opacity:1;stroke:none;stroke-width:0.465074"
     xml:space="preserve"><tspan
       style="font-style:normal;font-variant:normal;font-weight:bold;font-stretch:normal;font-size:23.4614px;line-height:1.25;font-family:'Drukaatie burti';-inkscape-font-specification:'Drukaatie burti Bold';stroke-width:0.465074"
       y="792.34528"
       x="304.5871"
       sodipodi:role="line"
       id="tspan50644-6-9-1-3"><tspan
         id="tspan1002"
         style="font-style:normal;font-variant:normal;font-weight:bold;font-stretch:normal;font-family:Drukah;-inkscape-font-specification:'Drukah Bold'">...LOVUS!</tspan></tspan></text>
  <text
     id="text460"
     y="796.09375"
     x="357.71875"
     style="font-size:29.3333px;line-height:1.25;font-family:Lavi;-inkscape-font-specification:Lavi;text-align:center;letter-spacing:0px;word-spacing:0px;writing-mode:lr-tb;text-anchor:middle;fill:#ffffff"
     xml:space="preserve"><tspan
       y="796.09375"
       x="357.71875"
       id="tspan458"
       sodipodi:role="line">*</tspan></text>
  <g
     style="font-size:21.8232px;line-height:1.25;font-family:Lavi;-inkscape-font-specification:Lavi;text-align:center;letter-spacing:0px;word-spacing:0px;writing-mode:lr-tb;text-anchor:middle;fill:#c83737;stroke-width:0.743972"
     id="text464"
     transform="scale(0.96161456,1.0399177)"
     aria-label="💓">
    <path
       id="path990"
       style="fill:#c83737;stroke-width:0.743972"
       d="m 334.92544,1249.1271 q 0.42624,0 0.95903,0.2557 0.53279,0.2451 1.0869,0.6607 0.5541,0.4156 1.07624,0.9484 0.53279,0.5221 0.93772,1.0762 0.41557,0.5541 0.66066,1.0975 0.25574,0.5328 0.25574,0.9591 0,0.4795 -0.25574,0.9164 -0.24509,0.4369 -0.65001,0.6926 0.13853,0.682 0.13853,1.4279 0,0.3836 -0.13853,0.7246 -0.13852,0.3303 -0.38361,0.5967 -0.24508,0.2558 -0.57542,0.4156 -0.33033,0.1598 -0.71394,0.1811 -0.43689,1.3533 -1.43854,2.355 l -8.23698,8.237 -8.23698,-8.237 q -1.00165,-1.0017 -1.43854,-2.355 -0.38361,-0.021 -0.71394,-0.1811 -0.33033,-0.1598 -0.57542,-0.4156 -0.24508,-0.2664 -0.38361,-0.5967 -0.13853,-0.341 -0.13853,-0.7246 0,-0.7459 0.13853,-1.4279 -0.44754,-0.277 -0.68197,-0.7033 -0.22378,-0.4369 -0.22378,-0.959 0,-0.4156 0.25574,-0.9377 0.25574,-0.5328 0.66067,-1.0763 0.41558,-0.5541 0.94837,-1.0762 0.53279,-0.5328 1.07624,-0.9377 0.5541,-0.4156 1.0869,-0.6607 0.53279,-0.2557 0.94837,-0.2557 0.50082,0 0.93772,0.2451 0.43689,0.2344 0.69263,0.6606 0.35164,-0.075 0.71394,-0.1065 0.3623,-0.032 0.7246,-0.032 0.38361,0 0.71394,0.1385 0.34099,0.1385 0.59673,0.3836 0.25574,0.2451 0.41558,0.5755 0.15983,0.3303 0.18115,0.7139 0.65,0.2025 1.23608,0.5541 0.58607,0.341 1.06558,0.8205 0.47952,-0.4795 1.06559,-0.8205 0.58607,-0.3516 1.23608,-0.5541 0.0213,-0.3836 0.18115,-0.7139 0.15983,-0.3304 0.41558,-0.5755 0.25574,-0.2451 0.58607,-0.3836 0.34099,-0.1385 0.7246,-0.1385 0.3623,0 0.72459,0.032 0.3623,0.032 0.71395,0.1065 0.25574,-0.4262 0.69263,-0.6606 0.43689,-0.2451 0.93771,-0.2451 z m -7.27795,18.3813 7.15008,-7.1607 q 0.60739,-0.6074 0.93772,-1.3959 0.33033,-0.7992 0.33033,-1.6623 0,-0.8951 -0.34099,-1.6837 -0.34098,-0.7885 -0.92706,-1.3746 -0.58607,-0.5967 -1.3746,-0.9377 -0.78854,-0.341 -1.68363,-0.341 -0.68197,0 -1.21477,0.1599 -0.52213,0.1598 -0.96968,0.4369 -0.44755,0.277 -0.85247,0.65 -0.39427,0.3729 -0.8205,0.8098 l -0.23443,0.2451 -0.23443,-0.2451 q -0.42623,-0.4369 -0.83115,-0.8098 -0.39427,-0.373 -0.84182,-0.65 -0.44754,-0.2771 -0.98034,-0.4369 -0.52213,-0.1599 -1.20411,-0.1599 -0.89509,0 -1.69428,0.341 -0.78853,0.341 -1.37461,0.9271 -0.58607,0.586 -0.92706,1.3852 -0.34098,0.7886 -0.34098,1.6837 0,0.8631 0.33033,1.6623 0.33033,0.7885 0.93771,1.3959 z m 9.56896,-9.9632 q 0.15984,0 0.2664,-0.1066 0.11721,-0.1172 0.11721,-0.277 0,-1.1935 -0.4582,-2.2377 -0.44754,-1.0443 -1.22542,-1.8222 -0.77788,-0.7779 -1.82215,-1.2254 -1.04428,-0.4582 -2.23773,-0.4582 -0.15984,0 -0.27706,0.1172 -0.10655,0.1066 -0.10655,0.2664 0,0.1598 0.10655,0.277 0.11722,0.1066 0.27706,0.1066 1.02296,0 1.92871,0.3943 0.90574,0.3942 1.57706,1.0762 0.68198,0.6713 1.07625,1.5771 0.39426,0.9057 0.39426,1.9287 0,0.1492 0.11722,0.2664 0.11721,0.1172 0.26639,0.1172 z m -19.13792,0 q 0.14918,0 0.25574,-0.1172 0.11721,-0.1172 0.11721,-0.2664 0,-1.0336 0.39427,-1.9394 0.39427,-0.9057 1.06559,-1.577 0.68197,-0.682 1.58772,-1.0656 0.90575,-0.3943 1.93937,-0.3943 0.14918,0 0.26639,-0.1172 0.11722,-0.1172 0.11722,-0.2664 0,-0.1492 -0.11722,-0.2664 -0.11721,-0.1172 -0.26639,-0.1172 -1.19346,0 -2.23773,0.4582 -1.04428,0.4475 -1.82216,1.2254 -0.77787,0.7779 -1.23608,1.8222 -0.44754,1.0442 -0.44754,2.2377 0,0.1598 0.10656,0.277 0.11721,0.1066 0.27705,0.1066 z m 19.90515,-3.0582 q 0.15983,0 0.26639,-0.1066 0.11722,-0.1172 0.11722,-0.277 0,-0.075 -0.0426,-0.1812 -0.21311,-0.4795 -0.57541,-0.9484 -0.35165,-0.4795 -0.78854,-0.9057 -0.43689,-0.4369 -0.92706,-0.7885 -0.47951,-0.3623 -0.93771,-0.5861 -0.0746,-0.043 -0.1705,-0.043 -0.14918,0 -0.26639,0.1172 -0.11722,0.1172 -0.11722,0.2664 0,0.1278 0.0426,0.2024 0.0533,0.064 0.15983,0.1386 l 0.19181,0.1278 q 0.34099,0.2238 0.63935,0.4369 0.30902,0.2025 0.57542,0.4369 0.27705,0.2344 0.52213,0.5115 0.25575,0.277 0.51149,0.65 0.11721,0.1812 0.22377,0.373 0.10656,0.1811 0.23443,0.3623 0.0639,0.085 0.13852,0.1491 0.0853,0.064 0.20247,0.064 z m -20.67237,0 q 0.11721,0 0.1918,-0.064 0.0853,-0.064 0.14919,-0.1491 0.12787,-0.1812 0.23442,-0.3623 0.10656,-0.1918 0.22378,-0.373 0.25574,-0.373 0.50082,-0.65 0.25574,-0.2771 0.52214,-0.5115 0.27705,-0.2344 0.57542,-0.4369 0.30902,-0.2131 0.65,-0.4369 l 0.19181,-0.1278 q 0.10656,-0.075 0.14918,-0.1386 0.0533,-0.075 0.0533,-0.2024 0,-0.1492 -0.11721,-0.2664 -0.11722,-0.1172 -0.2664,-0.1172 -0.0959,0 -0.17049,0.043 -0.45821,0.2238 -0.94838,0.5861 -0.47951,0.3516 -0.9164,0.7885 -0.43689,0.4262 -0.79919,0.9057 -0.3623,0.4689 -0.56476,0.9484 -0.0426,0.1066 -0.0426,0.1812 0,0.1598 0.10656,0.277 0.11721,0.1066 0.27705,0.1066 z" />
  </g>
  <g
     style="font-size:20.207px;line-height:1.25;font-family:Lavi;-inkscape-font-specification:Lavi;text-align:center;letter-spacing:0px;word-spacing:0px;writing-mode:lr-tb;text-anchor:middle;fill:#c83737;stroke-width:0.688877"
     id="text468"
     transform="scale(0.96967018,1.0312785)"
     aria-label="💖">
    <path
       id="path987"
       style="fill:#c83737;stroke-width:0.688877"
       d="m 266.76167,1162.3733 q 0.888,0 1.70694,0.2368 0.81893,0.2269 1.52934,0.6512 0.72027,0.4144 1.3024,1.0064 0.592,0.5821 1.0064,1.3024 0.42427,0.7104 0.65121,1.5293 0.2368,0.8189 0.2368,1.7069 0,0.6315 -0.12827,1.2531 -0.12827,0.6216 -0.37493,1.2136 -0.2368,0.5822 -0.59201,1.115 -0.34533,0.5229 -0.78933,0.9669 l -9.46217,9.4622 -3.15734,-3.1574 q -0.37494,0.7203 -0.73014,1.4405 -0.3552,0.7302 -0.72027,1.4603 l -2.12134,-4.2427 -4.24268,-2.1213 q 0.73014,-0.3651 1.45041,-0.7203 0.73013,-0.3552 1.4504,-0.7301 l -1.3912,-1.3912 q -0.89787,-0.9077 -1.39121,-2.0819 -0.49333,-1.184 -0.49333,-2.4667 0,-0.888 0.22693,-1.7069 0.2368,-0.8288 0.6512,-1.5392 0.41441,-0.7104 1.00641,-1.3024 0.592,-0.592 1.3024,-1.0064 0.7104,-0.4144 1.52934,-0.6413 0.8288,-0.2368 1.71681,-0.2368 0.74987,0 1.4208,0.1578 0.67094,0.148 1.27281,0.444 0.60186,0.2862 1.14453,0.7006 0.55254,0.4144 1.07547,0.9472 1.02614,-1.0656 2.22001,-1.6576 1.19387,-0.592 2.69361,-0.592 z m -7.93283,15.4216 3.01921,3.0192 8.45576,-8.4656 q 0.72027,-0.7203 1.09521,-1.628 0.37493,-0.9176 0.37493,-1.9339 0,-1.0261 -0.40453,-1.9339 -0.39467,-0.9077 -1.07547,-1.5885 -0.6808,-0.6808 -1.59841,-1.0755 -0.90773,-0.3946 -1.93387,-0.3946 -0.7992,0 -1.42081,0.1874 -0.6216,0.1875 -1.14453,0.523 -0.52294,0.3256 -0.99654,0.7696 -0.46373,0.444 -0.95707,0.9472 l -0.39467,0.4045 -0.39467,-0.4045 q -0.49333,-0.5032 -0.96693,-0.9472 -0.46374,-0.444 -0.98667,-0.7696 -0.52294,-0.3355 -1.14454,-0.523 -0.6216,-0.1874 -1.4208,-0.1874 -1.03601,0 -1.95361,0.3946 -0.90774,0.3848 -1.58854,1.0656 -0.6808,0.6808 -1.07547,1.5886 -0.39467,0.9077 -0.39467,1.9437 0,1.0163 0.37494,1.9339 0.3848,0.9077 1.0952,1.628 l 2.24961,2.2595 q 0.4144,-0.7992 0.7992,-1.5886 0.3848,-0.7992 0.7992,-1.5984 0.39467,0.7992 0.77947,1.5984 0.39467,0.7894 0.80907,1.5886 0.79921,0.4144 1.58854,0.809 0.7992,0.3848 1.59841,0.7795 -0.79921,0.4144 -1.59841,0.7992 -0.78933,0.3848 -1.58854,0.7992 z m -2.65414,-0.5328 1.0656,2.1312 1.06561,-2.1312 2.12134,-1.0656 -2.12134,-1.0557 -1.06561,-2.1312 -1.0656,2.1312 q -0.5328,0.2565 -1.0656,0.5229 -0.5328,0.2664 -1.06561,0.5328 0.53281,0.2664 1.05574,0.5427 0.5328,0.2664 1.07547,0.5229 z m 10.6363,-10.6363 0.71041,1.4208 1.4208,0.7104 -1.4208,0.7104 -0.71041,1.4109 -0.7104,-1.4109 -1.4208,-0.7104 1.4208,-0.7104 z" />
  </g>
  <g
     style="font-size:23.3445px;line-height:1.25;font-family:Lavi;-inkscape-font-specification:Lavi;text-align:center;letter-spacing:0px;word-spacing:0px;writing-mode:lr-tb;text-anchor:middle;stroke-width:0.795836"
     id="text472"
     transform="scale(0.95854659,1.0432461)"
     aria-label="💞">
    <path
       id="path999"
       style="fill:#c83737;stroke-width:0.795836"
       d="m 287.18996,1418.7659 q 0.53574,0.6839 0.8321,1.4704 0.30777,0.7751 0.30777,1.6414 0,0.9689 -0.35336,1.801 -0.34196,0.8207 -0.93469,1.516 -0.59273,0.6839 -1.37924,1.2425 -0.77511,0.5585 -1.64141,0.9917 -0.85491,0.4217 -1.744,0.7295 -0.8891,0.3078 -1.69841,0.5015 -1.31084,0.3192 -2.66729,0.456 -1.34504,0.1368 -2.69009,0.1368 -0.43315,0 -0.8663,-0.011 -0.42175,-0.023 -0.8549,-0.046 l -4.01233,4.0123 -6.0413,-6.0413 q -0.63833,-0.6383 -0.98029,-1.4704 -0.34196,-0.8435 -0.34196,-1.744 0,-0.5472 0.11399,-1.0373 -0.0684,-0.2622 -0.10259,-0.5129 -0.0228,-0.2622 -0.0228,-0.5244 0,-0.9005 0.29637,-1.6642 0.29636,-0.7751 0.8093,-1.4248 0.51294,-0.6612 1.18547,-1.1969 0.68392,-0.5357 1.43623,-0.9575 0.76371,-0.4331 1.56162,-0.7523 0.79791,-0.3192 1.55022,-0.5357 1.17406,-0.342 2.37092,-0.5358 1.20827,-0.1937 2.42792,-0.2621 0.20518,-0.7296 0.62693,-1.3451 0.42175,-0.6155 0.99169,-1.0487 0.58133,-0.4331 1.27665,-0.6725 0.70672,-0.2508 1.47043,-0.2508 0.77511,0 1.49323,0.2622 0.72951,0.2508 1.34504,0.7295 0.61553,-0.4787 1.33365,-0.7295 0.71811,-0.2622 1.50462,-0.2622 0.93469,0 1.7554,0.3534 0.8321,0.3534 1.44763,0.9689 0.61553,0.6155 0.96889,1.4476 0.36476,0.8207 0.36476,1.7554 0,0.8207 -0.29637,1.6072 -0.29636,0.7865 -0.8435,1.4021 z m -20.54042,2.2911 q -0.60413,0 -1.12847,0.228 -0.52434,0.228 -0.9233,0.6269 -0.38755,0.3876 -0.61553,0.9233 -0.22797,0.5243 -0.22797,1.1171 0,0.5813 0.21658,1.117 0.22797,0.5358 0.62692,0.9347 l 4.89004,4.8901 4.89003,-4.8901 q 0.39896,-0.3989 0.61553,-0.9347 0.22797,-0.5357 0.22797,-1.117 0,-0.5928 -0.22797,-1.1171 -0.22797,-0.5357 -0.62693,-0.9233 -0.38755,-0.3989 -0.92329,-0.6269 -0.52434,-0.228 -1.11707,-0.228 -0.46735,0 -0.8321,0.114 -0.35336,0.114 -0.66113,0.3078 -0.30776,0.1937 -0.58133,0.4559 -0.27357,0.2622 -0.55854,0.5585 l -0.20517,0.2052 -0.20518,-0.2052 q -0.28497,-0.2963 -0.55853,-0.5585 -0.27357,-0.2622 -0.58134,-0.4559 -0.30776,-0.1938 -0.67252,-0.3078 -0.36476,-0.114 -0.8207,-0.114 z m 20.03888,-5.289 q 0,-0.5927 -0.22798,-1.1171 -0.22797,-0.5357 -0.62692,-0.9232 -0.38756,-0.399 -0.9233,-0.627 -0.52434,-0.2279 -1.11707,-0.2279 -0.45594,0 -0.8207,0.1139 -0.36476,0.114 -0.67252,0.3078 -0.30777,0.1938 -0.59274,0.456 -0.27356,0.2621 -0.55853,0.5585 -0.0456,0.057 -0.0912,0.1026 -0.0456,0.034 -0.10259,0.091 l -0.23937,-0.2394 q -0.28497,-0.285 -0.55854,-0.5357 -0.26217,-0.2622 -0.56993,-0.4446 -0.29637,-0.1938 -0.66112,-0.2964 -0.35336,-0.1139 -0.80931,-0.1139 -0.60413,0 -1.12847,0.2279 -0.52434,0.228 -0.92329,0.6156 -0.38756,0.3875 -0.61553,0.9232 -0.22798,0.5244 -0.22798,1.1171 0,0.5814 0.21658,1.1171 0.22797,0.5357 0.62693,0.9347 l 4.89003,4.89 3.92115,-3.9211 q 0.34196,-0.342 0.67252,-0.6498 0.33056,-0.3191 0.58133,-0.6611 0.25077,-0.3419 0.39896,-0.7523 0.15958,-0.4103 0.15958,-0.9461 z m -11.46708,11.8432 q 1.16267,0 2.30254,-0.1139 1.15126,-0.114 2.29113,-0.3648 0.61553,-0.1368 1.35645,-0.3648 0.75231,-0.2279 1.51602,-0.5585 0.76371,-0.3306 1.48183,-0.7523 0.72951,-0.4332 1.28805,-0.9689 0.55854,-0.5471 0.8891,-1.1969 0.34196,-0.6497 0.34196,-1.4134 0,-0.7523 -0.34196,-1.3906 -0.34196,-0.6498 -0.8549,-1.1627 l -1.16267,1.1513 q 0.28497,0.2735 0.50154,0.6383 0.22798,0.3534 0.22798,0.7637 0,0.3306 -0.15959,0.6269 -0.15958,0.2964 -0.35335,0.5472 -0.36476,0.4331 -0.9005,0.7979 -0.53574,0.3533 -1.04868,0.6155 -0.80931,0.399 -1.687,0.6839 -0.8777,0.2736 -1.801,0.456 -0.91189,0.1824 -1.84658,0.2735 -0.9233,0.08 -1.81239,0.091 -0.30777,0.4674 -0.70672,0.8435 -0.39895,0.3762 -0.78651,0.7638 0.62693,0.034 1.26525,0.034 z m -0.7979,-11.4556 q -1.07148,0.034 -2.12016,0.171 -1.03728,0.1367 -2.07456,0.3875 -0.59273,0.1368 -1.27665,0.3648 -0.68392,0.2165 -1.37924,0.5357 -0.69532,0.3078 -1.35644,0.7181 -0.64973,0.399 -1.17407,0.9005 -0.52434,0.4902 -0.8663,1.0943 -0.34196,0.5927 -0.41035,1.288 0.47874,-0.6041 1.15127,-0.946 0.68392,-0.3534 1.43623,-0.4218 0.79791,-0.6839 1.85798,-1.1399 1.07148,-0.4673 2.23415,-0.7523 1.17406,-0.2963 2.34812,-0.4217 1.18547,-0.1368 2.19995,-0.1482 -0.22797,-0.3648 -0.37616,-0.7751 -0.14818,-0.4218 -0.19377,-0.8549 z" />
  </g>
  <g
     style="font-size:23.1759px;line-height:1.25;font-family:Lavi;-inkscape-font-specification:Lavi;text-align:center;letter-spacing:0px;word-spacing:0px;writing-mode:lr-tb;text-anchor:middle;stroke-width:0.790088"
     id="text476"
     transform="scale(0.96857253,1.0324472)"
     aria-label="❤️">
    <path
       id="path996"
       style="fill:#c83737;stroke-width:0.790088"
       d="m 460.59862,1462.2229 q 1.01847,0 1.95773,0.2716 0.93926,0.2603 1.75403,0.7469 0.8261,0.4753 1.49376,1.1543 0.67899,0.6676 1.15427,1.4937 0.48661,0.8148 0.74688,1.7541 0.27159,0.9392 0.27159,1.9577 0,1.5051 -0.5545,2.8291 -0.54318,1.324 -1.60692,2.3877 l -10.85239,10.8524 -10.85238,-10.8524 q -1.06374,-1.0637 -1.61824,-2.3877 -0.54319,-1.324 -0.54319,-2.8291 0,-1.0185 0.26028,-1.9577 0.27159,-0.9506 0.74688,-1.7654 0.47529,-0.8148 1.15427,-1.4937 0.67898,-0.679 1.49376,-1.1543 0.81477,-0.4753 1.75403,-0.7356 0.95058,-0.2716 1.96905,-0.2716 0.87136,0 1.64087,0.1811 0.76951,0.1697 1.44849,0.4979 0.6903,0.3282 1.3127,0.8148 0.63372,0.4753 1.23348,1.0864 0.59977,-0.6111 1.22217,-1.0864 0.63372,-0.4866 1.3127,-0.8148 0.6903,-0.3395 1.45981,-0.5092 0.76951,-0.1698 1.64087,-0.1698 z m -5.63555,21.1503 9.69812,-9.7094 q 0.81478,-0.8148 1.2448,-1.8559 0.44134,-1.0524 0.44134,-2.2067 0,-1.1882 -0.45266,-2.2293 -0.45265,-1.0524 -1.23348,-1.8333 -0.78083,-0.7808 -1.83325,-1.2335 -1.0411,-0.4526 -2.22932,-0.4526 -0.92794,0 -1.65219,0.2263 -0.72425,0.2263 -1.33533,0.6224 -0.61108,0.3848 -1.16558,0.9166 -0.54319,0.5206 -1.12032,1.109 l -0.36213,0.3735 -0.32817,-0.3395 q -0.57713,-0.5998 -1.13164,-1.1203 -0.5545,-0.5319 -1.1769,-0.928 -0.61108,-0.396 -1.34664,-0.6224 -0.72425,-0.2376 -1.65219,-0.2376 -1.18822,0 -2.24064,0.4526 -1.04111,0.4527 -1.82193,1.2335 -0.78083,0.7809 -1.23349,1.8333 -0.45265,1.0411 -0.45265,2.2293 0,1.1543 0.43002,2.2067 0.44134,1.0411 1.25612,1.8559 z" />
  </g>
  <g
     style="font-size:21.5798px;line-height:1.25;font-family:Lavi;-inkscape-font-specification:Lavi;text-align:center;letter-spacing:0px;word-spacing:0px;writing-mode:lr-tb;text-anchor:middle;stroke-width:0.735676"
     id="text480"
     transform="scale(0.98483262,1.015401)"
     aria-label="❣️">
    <path
       id="path993"
       style="fill:#c83737;stroke-width:0.735676"
       d="m 266.1208,1545.7679 q 1.08532,0 2.04418,0.4109 0.95887,0.411 1.67539,1.1275 0.71651,0.7165 1.12746,1.6754 0.42148,0.9588 0.42148,2.0441 0,1.0432 -0.40041,2.0231 -0.4004,0.9695 -1.13799,1.707 l -6.35382,6.3539 q 0.57953,0.1896 1.0537,0.5479 0.47416,0.3582 0.81135,0.8324 0.34772,0.4742 0.53739,1.0432 0.18966,0.569 0.18966,1.1696 0,0.7903 -0.30557,1.4752 -0.29504,0.6849 -0.81135,1.2012 -0.50578,0.5163 -1.20122,0.8113 -0.68491,0.2951 -1.47518,0.2951 -0.79028,0 -1.47518,-0.2951 -0.68491,-0.295 -1.20122,-0.8113 -0.51632,-0.5163 -0.81135,-1.2012 -0.29504,-0.6849 -0.29504,-1.4752 0,-0.6112 0.17913,-1.1802 0.18967,-0.569 0.52685,-1.0431 0.34772,-0.4742 0.82189,-0.8219 0.47416,-0.3583 1.06424,-0.5479 l -6.35382,-6.3539 q -0.73759,-0.7375 -1.138,-1.707 -0.40041,-0.9799 -0.40041,-2.0231 0,-1.0853 0.41095,-2.0441 0.42148,-0.9589 1.12746,-1.6649 0.71651,-0.7165 1.67538,-1.1274 0.95887,-0.4215 2.04418,-0.4215 0.51632,0 1.04317,0.1159 0.53738,0.1053 1.04316,0.3161 0.50578,0.2107 0.94833,0.5163 0.45309,0.3056 0.79028,0.6954 0.7692,-0.7902 1.7386,-1.2117 0.97995,-0.432 2.08633,-0.432 z m -3.82493,14.3935 6.48026,-6.4802 q 0.53739,-0.5374 0.81135,-1.2118 0.2845,-0.6744 0.2845,-1.433 0,-0.7798 -0.29504,-1.4647 -0.29503,-0.6849 -0.80081,-1.1907 -0.50578,-0.5057 -1.19068,-0.8008 -0.68491,-0.295 -1.46465,-0.295 -0.6849,0 -1.20122,0.1897 -0.51631,0.1896 -0.94833,0.5057 -0.43201,0.3162 -0.83242,0.7271 -0.40041,0.4109 -0.84296,0.843 l -0.2845,-0.2951 q -0.37933,-0.3898 -0.74813,-0.7481 -0.36879,-0.3583 -0.79028,-0.6322 -0.41094,-0.274 -0.90618,-0.432 -0.4847,-0.1581 -1.09585,-0.1581 -0.77974,0 -1.46464,0.295 -0.67437,0.2951 -1.18015,0.8114 -0.50577,0.5058 -0.80081,1.1907 -0.29504,0.6849 -0.29504,1.4541 0,0.7586 0.27397,1.433 0.2845,0.6744 0.82188,1.2118 z m 2.27599,4.5415 q 0,-0.4742 -0.17913,-0.8851 -0.17913,-0.411 -0.49524,-0.7165 -0.30557,-0.3162 -0.71651,-0.4953 -0.41095,-0.1791 -0.88511,-0.1791 -0.47417,0 -0.88511,0.1791 -0.41094,0.1791 -0.71652,0.4953 -0.30557,0.3055 -0.4847,0.7165 -0.17913,0.4109 -0.17913,0.8851 0,0.4741 0.17913,0.8851 0.17913,0.4109 0.4847,0.7165 0.30558,0.3056 0.71652,0.4847 0.41094,0.1791 0.88511,0.1791 0.47416,0 0.88511,-0.1791 0.41094,-0.1791 0.71651,-0.4847 0.31611,-0.3056 0.49524,-0.7165 0.17913,-0.411 0.17913,-0.8851 z" />
  </g>
</svg>
