<?xml version="1.0" encoding="UTF-8" standalone="no"?>
<!-- Created with Inkscape (http://www.inkscape.org/) -->

<svg
   xmlns:osb="http://www.openswatchbook.org/uri/2009/osb"
   xmlns:dc="http://purl.org/dc/elements/1.1/"
   xmlns:cc="http://creativecommons.org/ns#"
   xmlns:rdf="http://www.w3.org/1999/02/22-rdf-syntax-ns#"
   xmlns:svg="http://www.w3.org/2000/svg"
   xmlns="http://www.w3.org/2000/svg"
   xmlns:xlink="http://www.w3.org/1999/xlink"
   xmlns:sodipodi="http://sodipodi.sourceforge.net/DTD/sodipodi-0.dtd"
   xmlns:inkscape="http://www.inkscape.org/namespaces/inkscape"
   version="1.1"
   id="svg2"
   width="992"
   height="3042"
   viewBox="0 0 991.99998 3042"
   sodipodi:docname="PCMINI_E18.svg"
   inkscape:version="0.92.3 (2405546, 2018-03-11)"
   inkscape:export-xdpi="300"
   inkscape:export-ydpi="300">
  <metadata
     id="metadata8">
    <rdf:RDF>
      <cc:Work
         rdf:about="">
        <dc:format>image/svg+xml</dc:format>
        <dc:type
           rdf:resource="http://purl.org/dc/dcmitype/StillImage" />
        <dc:title />
      </cc:Work>
    </rdf:RDF>
  </metadata>
  <defs
     id="defs6">
    <linearGradient
       id="linearGradient1964"
       osb:paint="gradient">
      <stop
         style="stop-color:#3a830f;stop-opacity:1;"
         offset="0"
         id="stop1960" />
      <stop
         style="stop-color:#3a830f;stop-opacity:0;"
         offset="1"
         id="stop1962" />
    </linearGradient>
    <linearGradient
       id="linearGradient1224"
       osb:paint="solid">
      <stop
         style="stop-color:#98caff;stop-opacity:1;"
         offset="0"
         id="stop1222" />
    </linearGradient>
    <linearGradient
       inkscape:collect="always"
       id="linearGradient1218">
      <stop
         style="stop-color:#ffffff;stop-opacity:1;"
         offset="0"
         id="stop1214" />
      <stop
         style="stop-color:#ffffff;stop-opacity:0;"
         offset="1"
         id="stop1216" />
    </linearGradient>
    <pattern
       y="0"
       x="0"
       height="6"
       width="6"
       patternUnits="userSpaceOnUse"
       id="EMFhbasepattern" />
    <filter
       style="color-interpolation-filters:sRGB"
       id="filter4375-4-1-1-1-9-5-8-8"
       inkscape:label="Drop Shadow">
      <feFlood
         id="feFlood4377-7-9-0-8-1-7-3-1"
         flood-opacity="1"
         flood-color="rgb(190,113,27)"
         result="flood" />
      <feComposite
         id="feComposite4379-3-8-8-2-77-4-1-0"
         in2="SourceGraphic"
         in="flood"
         operator="in"
         result="composite1"
         baseFrequency="0.053999999999999999 0.053999999999999999" />
      <feMorphology
         id="feMorphology4393-1-0-49-8-9-3-0-1"
         operator="dilate"
         radius="6.2000000000000002"
         result="result3" />
      <feComposite
         id="feComposite4385-9-5-7-0-8-8-7-5"
         in2="result3"
         in="SourceGraphic"
         operator="over"
         result="fbSourceGraphic" />
      <feColorMatrix
         result="fbSourceGraphicAlpha"
         in="fbSourceGraphic"
         values="0 0 0 -1 0 0 0 0 -1 0 0 0 0 -1 0 0 0 0 1 0"
         id="feColorMatrix4544-9" />
      <feTurbulence
         id="feTurbulence4546-3"
         type="fractalNoise"
         numOctaves="5"
         seed="174"
         baseFrequency="0.053999999999999999 0.054054054054054057"
         result="turbulence" />
      <feDisplacementMap
         id="feDisplacementMap4548-8"
         in2="turbulence"
         in="fbSourceGraphic"
         scale="6.6"
         yChannelSelector="G"
         xChannelSelector="R"
         result="fbSourceGraphic" />
      <feColorMatrix
         result="fbSourceGraphicAlpha"
         in="fbSourceGraphic"
         values="0 0 0 -1 0 0 0 0 -1 0 0 0 0 -1 0 0 0 0 1 0"
         id="feColorMatrix4670-7" />
      <feFlood
         id="feFlood4672-4"
         flood-opacity="1"
         flood-color="rgb(141,82,22)"
         result="flood"
         in="fbSourceGraphic" />
      <feComposite
         id="feComposite4674-8"
         in2="fbSourceGraphic"
         in="flood"
         operator="in"
         result="composite1" />
      <feGaussianBlur
         id="feGaussianBlur4676-3"
         in="composite1"
         stdDeviation="0"
         result="blur" />
      <feOffset
         id="feOffset4678-6"
         dx="6"
         dy="6"
         result="offset" />
      <feComposite
         id="feComposite4680-4"
         in2="offset"
         in="fbSourceGraphic"
         operator="over"
         result="composite2" />
    </filter>
    <filter
       style="color-interpolation-filters:sRGB"
       id="filter4375-4-1-1-1-9-5"
       inkscape:label="deevad outline effect">
      <feFlood
         id="feFlood4377-7-9-0-8-1-7"
         flood-opacity="1"
         flood-color="rgb(0,0,0)"
         result="flood" />
      <feComposite
         id="feComposite4379-3-8-8-2-77-4"
         in2="SourceGraphic"
         in="flood"
         operator="in"
         result="composite1" />
      <feMorphology
         id="feMorphology4393-1-0-49-8-9-3"
         operator="dilate"
         radius="1.3999999999999999"
         result="result3" />
      <feComposite
         id="feComposite4385-9-5-7-0-8-8"
         in2="result3"
         in="SourceGraphic"
         operator="over"
         result="composite2" />
    </filter>
    <filter
       style="color-interpolation-filters:sRGB"
       id="filter4375-4-1-1-1-9-5-8"
       inkscape:label="Drop Shadow">
      <feFlood
         id="feFlood4377-7-9-0-8-1-7-3"
         flood-opacity="1"
         flood-color="rgb(108,125,133)"
         result="flood" />
      <feComposite
         id="feComposite4379-3-8-8-2-77-4-1"
         in2="SourceGraphic"
         in="flood"
         operator="in"
         result="composite1" />
      <feMorphology
         id="feMorphology4393-1-0-49-8-9-3-0"
         operator="dilate"
         radius="6.2000000000000002"
         result="result3" />
      <feComposite
         id="feComposite4385-9-5-7-0-8-8-7"
         in2="result3"
         in="SourceGraphic"
         operator="over"
         result="fbSourceGraphic" />
      <feColorMatrix
         result="fbSourceGraphicAlpha"
         in="fbSourceGraphic"
         values="0 0 0 -1 0 0 0 0 -1 0 0 0 0 -1 0 0 0 0 1 0"
         id="feColorMatrix4544" />
      <feTurbulence
         id="feTurbulence4546"
         type="fractalNoise"
         numOctaves="3"
         seed="37"
         baseFrequency="0.129 0.0050000000000000001"
         result="turbulence" />
      <feDisplacementMap
         id="feDisplacementMap4548"
         in2="turbulence"
         in="fbSourceGraphic"
         scale="6.6"
         yChannelSelector="G"
         xChannelSelector="R"
         result="fbSourceGraphic" />
      <feColorMatrix
         result="fbSourceGraphicAlpha"
         in="fbSourceGraphic"
         values="0 0 0 -1 0 0 0 0 -1 0 0 0 0 -1 0 0 0 0 1 0"
         id="feColorMatrix4670" />
      <feFlood
         id="feFlood4672"
         flood-opacity="1"
         flood-color="rgb(17,52,65)"
         result="flood"
         in="fbSourceGraphic" />
      <feComposite
         id="feComposite4674"
         in2="fbSourceGraphic"
         in="flood"
         operator="in"
         result="composite1" />
      <feGaussianBlur
         id="feGaussianBlur4676"
         in="composite1"
         stdDeviation="0"
         result="blur" />
      <feOffset
         id="feOffset4678"
         dx="6"
         dy="6"
         result="offset" />
      <feComposite
         id="feComposite4680"
         in2="offset"
         in="fbSourceGraphic"
         operator="over"
         result="composite2" />
    </filter>
    <filter
       style="color-interpolation-filters:sRGB"
       id="filter4375-4-1-1-1-9-5-2"
       inkscape:label="deevad outline effect">
      <feFlood
         id="feFlood4377-7-9-0-8-1-7-0"
         flood-opacity="1"
         flood-color="rgb(0,0,0)"
         result="flood" />
      <feComposite
         id="feComposite4379-3-8-8-2-77-4-3"
         in2="SourceGraphic"
         in="flood"
         operator="in"
         result="composite1" />
      <feMorphology
         id="feMorphology4393-1-0-49-8-9-3-7"
         operator="dilate"
         radius="1.3999999999999999"
         result="result3" />
      <feComposite
         id="feComposite4385-9-5-7-0-8-8-2"
         in2="result3"
         in="SourceGraphic"
         operator="over"
         result="composite2" />
    </filter>
    <filter
       style="color-interpolation-filters:sRGB"
       id="filter4375-4-1-1-1-9-5-2-0"
       inkscape:label="deevad outline effect">
      <feFlood
         id="feFlood4377-7-9-0-8-1-7-0-2"
         flood-opacity="1"
         flood-color="rgb(0,0,0)"
         result="flood" />
      <feComposite
         id="feComposite4379-3-8-8-2-77-4-3-1"
         in2="SourceGraphic"
         in="flood"
         operator="in"
         result="composite1" />
      <feMorphology
         id="feMorphology4393-1-0-49-8-9-3-7-0"
         operator="dilate"
         radius="1.3999999999999999"
         result="result3" />
      <feComposite
         id="feComposite4385-9-5-7-0-8-8-2-2"
         in2="result3"
         in="SourceGraphic"
         operator="over"
         result="composite2" />
    </filter>
    <filter
       style="color-interpolation-filters:sRGB"
       id="filter4375-4-1-1-1-9-5-2-0-0"
       inkscape:label="deevad outline effect">
      <feFlood
         id="feFlood4377-7-9-0-8-1-7-0-2-5"
         flood-opacity="1"
         flood-color="rgb(0,0,0)"
         result="flood" />
      <feComposite
         id="feComposite4379-3-8-8-2-77-4-3-1-5"
         in2="SourceGraphic"
         in="flood"
         operator="in"
         result="composite1" />
      <feMorphology
         id="feMorphology4393-1-0-49-8-9-3-7-0-5"
         operator="dilate"
         radius="1.3999999999999999"
         result="result3" />
      <feComposite
         id="feComposite4385-9-5-7-0-8-8-2-2-4"
         in2="result3"
         in="SourceGraphic"
         operator="over"
         result="composite2" />
    </filter>
    <filter
       style="color-interpolation-filters:sRGB"
       id="filter4375-4-1-1-1-9-5-2-03"
       inkscape:label="deevad outline effect">
      <feFlood
         id="feFlood4377-7-9-0-8-1-7-0-8"
         flood-opacity="1"
         flood-color="rgb(0,0,0)"
         result="flood" />
      <feComposite
         id="feComposite4379-3-8-8-2-77-4-3-9"
         in2="SourceGraphic"
         in="flood"
         operator="in"
         result="composite1" />
      <feMorphology
         id="feMorphology4393-1-0-49-8-9-3-7-3"
         operator="dilate"
         radius="1.3999999999999999"
         result="result3" />
      <feComposite
         id="feComposite4385-9-5-7-0-8-8-2-20"
         in2="result3"
         in="SourceGraphic"
         operator="over"
         result="composite2" />
    </filter>
    <filter
       style="color-interpolation-filters:sRGB"
       id="filter4375-4-1-1-1-9-5-2-03-2"
       inkscape:label="deevad outline effect">
      <feFlood
         id="feFlood4377-7-9-0-8-1-7-0-8-0"
         flood-opacity="1"
         flood-color="rgb(0,0,0)"
         result="flood" />
      <feComposite
         id="feComposite4379-3-8-8-2-77-4-3-9-3"
         in2="SourceGraphic"
         in="flood"
         operator="in"
         result="composite1" />
      <feMorphology
         id="feMorphology4393-1-0-49-8-9-3-7-3-9"
         operator="dilate"
         radius="1.3999999999999999"
         result="result3" />
      <feComposite
         id="feComposite4385-9-5-7-0-8-8-2-20-6"
         in2="result3"
         in="SourceGraphic"
         operator="over"
         result="composite2" />
    </filter>
    <linearGradient
       inkscape:collect="always"
       xlink:href="#linearGradient1218"
       id="linearGradient1220"
       x1="753.18929"
       y1="1549.6741"
       x2="1195.7326"
       y2="1549.6741"
       gradientUnits="userSpaceOnUse" />
    <linearGradient
       inkscape:collect="always"
       xlink:href="#linearGradient1224"
       id="linearGradient1968"
       x1="789.57104"
       y1="1549.6741"
       x2="1159.3508"
       y2="1549.6741"
       gradientUnits="userSpaceOnUse" />
    <filter
       style="color-interpolation-filters:sRGB"
       id="filter4375-4-1-1-1-9-5-8-8-5"
       inkscape:label="soundFX1">
      <feFlood
         id="feFlood4377-7-9-0-8-1-7-3-1-2"
         flood-opacity="1"
         flood-color="rgb(43,143,96)"
         result="flood" />
      <feComposite
         id="feComposite4379-3-8-8-2-77-4-1-0-6"
         in2="SourceGraphic"
         in="flood"
         operator="in"
         result="composite1"
         baseFrequency="0.053999999999999999 0.053999999999999999" />
      <feMorphology
         id="feMorphology4393-1-0-49-8-9-3-0-1-9"
         operator="dilate"
         radius="6.2000000000000002"
         result="result3" />
      <feComposite
         id="feComposite4385-9-5-7-0-8-8-7-5-4"
         in2="result3"
         in="SourceGraphic"
         operator="over"
         result="fbSourceGraphic" />
      <feColorMatrix
         result="fbSourceGraphicAlpha"
         in="fbSourceGraphic"
         values="0 0 0 -1 0 0 0 0 -1 0 0 0 0 -1 0 0 0 0 1 0"
         id="feColorMatrix4544-9-4" />
      <feTurbulence
         id="feTurbulence4546-3-6"
         type="fractalNoise"
         numOctaves="5"
         seed="174"
         baseFrequency="0.053999999999999999 0.054054054054054057"
         result="turbulence" />
      <feDisplacementMap
         id="feDisplacementMap4548-8-0"
         in2="turbulence"
         in="fbSourceGraphic"
         scale="6.6"
         yChannelSelector="G"
         xChannelSelector="R"
         result="fbSourceGraphic" />
      <feColorMatrix
         result="fbSourceGraphicAlpha"
         in="fbSourceGraphic"
         values="0 0 0 -1 0 0 0 0 -1 0 0 0 0 -1 0 0 0 0 1 0"
         id="feColorMatrix4670-7-7" />
      <feFlood
         id="feFlood4672-4-4"
         flood-opacity="1"
         flood-color="rgb(39,84,60)"
         result="flood"
         in="fbSourceGraphic" />
      <feComposite
         id="feComposite4674-8-3"
         in2="fbSourceGraphic"
         in="flood"
         operator="in"
         result="composite1" />
      <feGaussianBlur
         id="feGaussianBlur4676-3-7"
         in="composite1"
         stdDeviation="0"
         result="blur" />
      <feOffset
         id="feOffset4678-6-9"
         dx="6"
         dy="6"
         result="offset" />
      <feComposite
         id="feComposite4680-4-0"
         in2="offset"
         in="fbSourceGraphic"
         operator="over"
         result="composite2" />
    </filter>
  </defs>
  <sodipodi:namedview
     pagecolor="#ffffff"
     bordercolor="#666666"
     borderopacity="1"
     objecttolerance="10"
     gridtolerance="10"
     guidetolerance="10"
     inkscape:pageopacity="0"
     inkscape:pageshadow="2"
     inkscape:window-width="1920"
     inkscape:window-height="1057"
     id="namedview4"
     showgrid="false"
     inkscape:zoom="1.4088798"
     inkscape:cx="472.77865"
     inkscape:cy="2371.7927"
     inkscape:window-x="-8"
     inkscape:window-y="-8"
     inkscape:window-maximized="1"
     inkscape:current-layer="svg2"
     fit-margin-top="0"
     fit-margin-left="0"
     fit-margin-right="0"
     fit-margin-bottom="0"
     inkscape:measure-start="0,0"
     inkscape:measure-end="0,0" />
  <image
     sodipodi:absref="../../img/18/gfx_Pepper-and-Carrot-MINI_by_Nicolas_Artance_E18.png"
     xlink:href="../../img/18/gfx_Pepper-and-Carrot-MINI_by_Nicolas_Artance_E18.png"
     height="3042"
     width="992"
     preserveAspectRatio="none"
     id="image10"
     x="0"
     y="0" />
  <flowRoot
     xml:space="preserve"
     id="flowRoot3682"
     style="font-style:normal;font-variant:normal;font-weight:normal;font-stretch:normal;font-size:40px;line-height:1.25;font-family:Lavi;-inkscape-font-specification:Lavi;letter-spacing:0px;word-spacing:0px;fill:#000000;fill-opacity:1;stroke:none"
     transform="matrix(1.1663727,0,0,1.2391611,0.7955986,35.976788)"
     inkscape:export-xdpi="300"
     inkscape:export-ydpi="300"><flowRegion
       id="flowRegion3684"
       style="font-style:normal;font-variant:normal;font-weight:normal;font-stretch:normal;font-family:Lavi;-inkscape-font-specification:Lavi"><rect
         id="rect3686"
         width="480.17383"
         height="51.720959"
         x="17.29627"
         y="-14.053221"
         style="font-style:normal;font-variant:normal;font-weight:normal;font-stretch:normal;font-family:Lavi;-inkscape-font-specification:Lavi" /></flowRegion><flowPara
       id="flowPara3688"
       style="font-style:normal;font-variant:normal;font-weight:normal;font-stretch:normal;font-family:Lavi;-inkscape-font-specification:Lavi">Pepper and Carrot MINI</flowPara></flowRoot>  <flowRoot
     xml:space="preserve"
     id="flowRoot3690"
     style="font-style:normal;font-variant:normal;font-weight:normal;font-stretch:normal;font-size:18.66666603px;line-height:1.25;font-family:Lavi;-inkscape-font-specification:Lavi;text-align:end;letter-spacing:0px;word-spacing:0px;text-anchor:end;fill:#000000;fill-opacity:1;stroke:none"
     transform="matrix(1.2002711,0,0,1.2122625,-156.30426,8.423348)"><flowRegion
       id="flowRegion3692"
       style="font-style:normal;font-variant:normal;font-weight:normal;font-stretch:normal;font-size:18.66666603px;font-family:Lavi;-inkscape-font-specification:Lavi;text-align:end;text-anchor:end"><rect
         id="rect3694"
         width="378.35593"
         height="104.85864"
         x="562.12878"
         y="6.4861007"
         style="font-style:normal;font-variant:normal;font-weight:normal;font-stretch:normal;font-size:18.66666603px;font-family:Lavi;-inkscape-font-specification:Lavi;text-align:end;text-anchor:end" /></flowRegion><flowPara
       style="font-style:normal;font-variant:normal;font-weight:normal;font-stretch:normal;font-size:18.66666603px;font-family:Lavi;-inkscape-font-specification:Lavi"
       id="flowPara3704">By Nicolas Artance</flowPara><flowPara
       style="font-style:normal;font-variant:normal;font-weight:normal;font-stretch:normal;font-size:18.66666603px;font-family:Lavi;-inkscape-font-specification:Lavi"
       id="flowPara1016">based on the CC-BY webcomic </flowPara><flowPara
       style="font-style:normal;font-variant:normal;font-weight:normal;font-stretch:normal;font-size:18.66666603px;font-family:Lavi;-inkscape-font-specification:Lavi"
       id="flowPara1018">Pepper&amp;Carrot by David Revoy</flowPara></flowRoot>  <flowRoot
     xml:space="preserve"
     id="flowRoot3706"
     style="font-style:normal;font-variant:normal;font-weight:normal;font-stretch:normal;font-size:40px;line-height:1.25;font-family:Lavi;-inkscape-font-specification:Lavi;text-align:center;letter-spacing:0px;word-spacing:0px;text-anchor:middle;fill:#000000;fill-opacity:1;stroke:none"
     transform="matrix(1.7946554,0,0,2.0343253,-19.588571,-89.20121)"><flowRegion
       id="flowRegion3708"
       style="font-style:normal;font-variant:normal;font-weight:normal;font-stretch:normal;font-family:Lavi;-inkscape-font-specification:Lavi;text-align:center;text-anchor:middle"><rect
         id="rect3710"
         width="281.06439"
         height="82.157288"
         x="153.50441"
         y="79.995255"
         style="font-style:normal;font-variant:normal;font-weight:normal;font-stretch:normal;font-family:Lavi;-inkscape-font-specification:Lavi;text-align:center;text-anchor:middle" /></flowRegion><flowPara
       id="flowPara3712"
       style="font-style:normal;font-variant:normal;font-weight:normal;font-stretch:normal;font-size:14.66666698px;font-family:Lavi;-inkscape-font-specification:Lavi;text-align:center;text-anchor:middle">#18 - Hippiah</flowPara></flowRoot>  <path
     style="color:#000000;display:inline;overflow:visible;visibility:visible;fill:#ffffff;fill-opacity:1;fill-rule:nonzero;stroke:none;stroke-width:0.45940378px;marker:none;enable-background:accumulate"
     d="m 574.54391,256.32673 c 1.55188,-29.94701 17.84666,-43.00087 23.27825,-46.07238 5.43157,-3.07148 10.86313,-29.17916 99.32044,-34.55426 53.53994,-3.07148 78.37006,16.12527 83.80165,17.66107 5.43157,1.53571 47.1276,40.77251 37.45346,73.90307 -6.98349,23.91583 -15.23301,32.62993 -29.50482,37.08282 -16.42088,5.12354 -117.35629,6.49866 -139.85863,0.35567 -22.50231,-6.14293 -65.17906,3.07149 -74.49035,-48.37599 z"
     id="path4472"
     inkscape:connector-curvature="0"
     sodipodi:nodetypes="cscssssc" />
  <path
     style="color:#000000;display:inline;overflow:visible;visibility:visible;fill:#ffffff;fill-opacity:1;fill-rule:nonzero;stroke:none;stroke-width:0.26245689px;marker:none;enable-background:accumulate"
     d="m 620.81364,285.24571 c -2.19034,16.17802 -14.92928,30.96749 -19.6058,35.21909 14.78845,-8.8465 26.43119,-20.71459 27.41287,-31.69459 0.9817,-10.98003 -7.80707,-3.5245 -7.80707,-3.5245 z"
     id="path4480"
     inkscape:connector-curvature="0" />
  <text
     xml:space="preserve"
     style="font-style:normal;font-variant:normal;font-weight:normal;font-stretch:normal;font-size:21.33333397px;line-height:1.25;font-family:Lavi;-inkscape-font-specification:Lavi;letter-spacing:0px;word-spacing:0px;fill:#000000;fill-opacity:1;stroke:none"
     x="699.8255"
     y="210.57294"
     id="text35"><tspan
       sodipodi:role="line"
       x="703.10675"
       y="210.57294"
       id="tspan37"
       style="font-size:18.66666603px;text-align:center;text-anchor:middle">Let's talk about </tspan><tspan
       sodipodi:role="line"
       x="699.8255"
       y="237.23961"
       style="font-size:18.66666603px;text-align:center;text-anchor:middle"
       id="tspan1033">the third magic school</tspan><tspan
       sodipodi:role="line"
       x="703.10675"
       y="263.90628"
       style="font-size:18.66666603px;text-align:center;text-anchor:middle"
       id="tspan1037">of Hereva while I am </tspan><tspan
       sodipodi:role="line"
       x="699.8255"
       y="290.57294"
       style="font-size:18.66666603px;text-align:center;text-anchor:middle"
       id="tspan996">drying myself!</tspan></text>
  <path
     style="fill:#ffffff;stroke:none;stroke-width:0.28269041"
     d="m 210.47136,214.336 c -0.37629,-13.35607 7.90202,-29.23213 21.44829,-31.75215 13.54631,-2.52 97.45804,-5.04 104.60746,-3.27602 7.14947,1.76402 15.80404,5.04002 22.95347,9.82804 7.14942,4.78802 12.79373,12.85205 11.66484,19.40408 -1.12884,6.55204 -6.39686,19.90808 -11.28858,23.4361 -4.8917,3.52801 -18.0617,11.84406 -31.23171,13.35605 -13.17001,1.51202 -28.59773,2.77201 -34.61831,2.52001 -6.02058,-0.252 -36.87602,-1.76399 -36.87602,-1.76399 0,0 -16.55656,1.008 -21.82458,-1.51201 -5.26799,-2.52002 -18.81428,-6.80404 -22.95342,-17.38808 -4.13915,-10.58402 -1.88144,-3.78001 -1.88144,-12.85203 z"
     id="path3971"
     inkscape:connector-curvature="0" />
  <path
     style="color:#000000;display:inline;overflow:visible;visibility:visible;fill:#ffffff;fill-opacity:1;fill-rule:nonzero;stroke:none;stroke-width:0.28963736px;marker:none;enable-background:accumulate"
     d="m 367.945,263.52393 c -21.1815,-14.24929 -30.09157,-20.15216 -28.16406,-37.13318 1.92744,-16.98104 -10.26324,-4.87601 -10.26324,-4.87601 0,0 -12.25526,27.13723 38.4273,42.00919 z"
     id="path3984"
     inkscape:connector-curvature="0" />
  <text
     xml:space="preserve"
     style="font-style:normal;font-variant:normal;font-weight:normal;font-stretch:normal;font-size:21.33333397px;line-height:1.25;font-family:Lavi;-inkscape-font-specification:Lavi;letter-spacing:0px;word-spacing:0px;fill:#000000;fill-opacity:1;stroke:none"
     x="290.59827"
     y="205.74164"
     id="text49"><tspan
       sodipodi:role="line"
       x="290.59827"
       y="205.74164"
       style="font-size:18.66666603px;text-align:center;text-anchor:middle"
       id="tspan982">Sorry for</tspan><tspan
       sodipodi:role="line"
       x="290.59827"
       y="232.40831"
       style="font-size:18.66666603px;text-align:center;text-anchor:middle"
       id="tspan1027">the long wait!</tspan></text>
  <path
     id="path58"
     d="m 402.59972,535.64954 c -5.50561,-1.43363 -14.15726,3.53628 -15.44721,3.18584 -1.32138,-0.35044 -9.97298,-1.43363 -11.79772,-3.18584 -1.85618,-1.78407 -7.07865,3.18584 -8.6517,1.75221 -1.57308,-1.40176 1.82474,6.02124 7.33031,6.75398 5.50568,0.70088 11.54614,1.75221 13.37079,3.88672 1.82476,2.13451 1.32138,6.40354 1.32138,6.40354 l -2.10786,1.40177 3.39772,2.83539 c 0,0 -0.50337,3.91859 -2.07634,3.53628 -1.57306,-0.35044 -13.37079,2.8354 -14.44048,3.56814 -1.03817,0.70089 -8.11691,7.42301 -9.68987,7.07257 -1.57307,-0.35045 -6.04047,-1.40177 -6.04047,-1.40177 0,0 4.21572,2.83539 6.04047,3.53628 1.82465,0.70088 14.94375,0.70088 16.51682,0.70088 h 10.47645 c 2.10786,0 5.78872,-3.88672 7.86512,-2.83539 2.10787,1.08318 8.40001,1.08318 8.40001,1.08318 z"
     style="fill:#d6c38d;fill-opacity:1;fill-rule:evenodd;stroke:none;stroke-width:0.39573929"
     inkscape:connector-curvature="0" />
  <path
     id="path60"
     d="m 393.03565,518.95575 9.12362,6.78583 1.35281,10.8 -0.69212,4.61946 -0.91238,2.77168 4.34157,1.9115 0.59775,7.23186 c 0,0 -0.15729,5.03362 0.31462,6.88141 0.44044,1.84778 -0.69215,5.54336 -0.47191,7.70973 0.25168,2.16637 0.69213,5.54336 0,6.78584 -0.66068,1.24247 -6.95281,-17.96814 -9.68989,-21.0584 -1.6045,-3.37699 -3.96407,-34.43891 -3.96407,-34.43891 z"
     style="fill:#6e674b;fill-opacity:1;fill-rule:evenodd;stroke:none;stroke-width:0.39573929"
     inkscape:connector-curvature="0" />
  <path
     id="path62"
     d="m 582.93233,518.89203 c -15.91911,-12.80707 -40.86743,-6.40354 -49.36181,-4.96991 -8.46291,1.43363 -43.51012,4.96991 -48.7955,3.56814 -5.31685,-1.43363 -21.7708,-3.56814 -27.62249,-3.56814 -5.82022,0 -28.62922,3.56814 -32.34157,2.13451 -3.74382,-1.43363 -27.62249,0.70089 -31.86967,2.8354 1.06969,12.10619 3.209,28.51325 3.74382,34.18405 7.95955,-1.40177 21.73934,0.73274 29.69888,2.86725 7.95954,2.13451 27.05619,-5.00177 36.08541,-5.00177 9.0292,0 50.93483,5.00177 62.10337,5.00177 11.13709,0 45.61799,-6.40353 54.64719,-6.40353 2.13933,-12.83893 3.71237,-30.64777 3.71237,-30.64777 z"
     style="fill:#b89f62;fill-opacity:1;fill-rule:evenodd;stroke:none;stroke-width:0.39573929"
     inkscape:connector-curvature="0" />
  <g
     id="g101"
     style="fill:#338000"
     transform="translate(172.70952,16.279996)">
    <text
       id="text76"
       y="526.26331"
       x="319.22635"
       style="font-style:normal;font-variant:normal;font-weight:normal;font-stretch:normal;font-size:21.33333397px;line-height:1.25;font-family:Lavi;-inkscape-font-specification:Lavi;text-align:center;letter-spacing:0px;word-spacing:0px;text-anchor:middle;fill:#338000;fill-opacity:1;stroke:none"
       xml:space="preserve"><tspan
         style="font-style:normal;font-variant:normal;font-weight:bold;font-stretch:normal;font-size:24px;font-family:Lavi;-inkscape-font-specification:'Lavi, Bold';font-variant-ligatures:normal;font-variant-caps:normal;font-variant-numeric:normal;font-feature-settings:normal;text-align:center;writing-mode:lr-tb;text-anchor:middle;fill:#338000"
         y="526.26331"
         x="319.22635"
         id="tspan74"
         sodipodi:role="line">HIPPIAH.</tspan></text>
  </g>
  <path
     id="path58-7"
     d="m 830.93523,703.55697 c 7.99898,-3.83545 20.56876,9.46076 22.44291,8.52321 1.91982,-0.93755 14.48954,-3.83543 17.14064,-8.52321 2.69681,-4.77299 10.28443,8.52321 12.56989,4.68778 2.28549,-3.75021 -2.65114,16.10887 -10.65007,18.0692 -7.99906,1.87509 -16.77513,4.68777 -19.42612,10.39832 -2.65115,5.71054 -1.9198,17.13165 -1.9198,17.13165 l 3.06246,3.75022 -4.93646,7.58564 c 0,0 0.73132,10.48358 3.01667,9.46076 2.28545,-0.93753 19.42612,7.58569 20.98024,9.54601 1.50834,1.87511 11.7929,19.85909 14.07821,18.92156 2.28548,-0.93759 8.77606,-3.75023 8.77606,-3.75023 0,0 -6.12492,7.58565 -8.77606,9.46077 -2.651,1.8751 -21.71146,1.8751 -23.99693,1.8751 h -15.221 c -3.06246,0 -8.4103,-10.39832 -11.42707,-7.58564 -3.06248,2.89787 -12.20418,2.89787 -12.20418,2.89787 z"
     style="fill:#d6c38d;fill-opacity:1;fill-rule:evenodd;stroke:none;stroke-width:0.78021359"
     inkscape:connector-curvature="0" />
  <path
     id="path60-0"
     d="m 844.83067,658.89534 -13.25552,18.15444 -1.96547,28.89371 1.00557,12.35864 1.32558,7.41519 -6.30777,5.11391 -0.86845,19.34771 c 0,0 0.22851,13.46668 -0.45712,18.41013 -0.63991,4.94346 1.00561,14.83041 0.68563,20.62619 -0.36566,5.79578 -1.00558,14.83038 0,18.15445 0.95988,3.32404 10.10158,-48.07095 14.07824,-56.33845 2.33113,-9.03461 5.75931,-92.13592 5.75931,-92.13592 z"
     style="fill:#6e674b;fill-opacity:1;fill-rule:evenodd;stroke:none;stroke-width:0.78021359"
     inkscape:connector-curvature="0" />
  <path
     id="path62-2"
     d="m 523.82887,657.55424 c 26.90783,-34.66366 69.07757,-17.33184 83.4355,-13.45157 14.3047,3.88027 73.54448,13.45157 82.47828,9.65755 8.98697,-3.88027 36.79883,-9.65755 46.68985,-9.65755 9.83783,0 48.39152,9.65755 54.66645,5.77728 6.32813,-3.88028 46.68986,1.89702 53.8688,7.67429 -1.80808,32.76663 -5.42411,77.17402 -6.32811,92.52262 -13.45391,-3.79403 -36.74567,1.98324 -50.19955,7.76051 -13.4539,5.77728 -45.73265,-13.53781 -60.99462,-13.53781 -15.26191,0 -86.09433,13.53781 -104.97235,13.53781 -18.82485,0 -77.10738,-17.33181 -92.36929,-17.33181 -3.61607,-34.74987 -6.27496,-82.95132 -6.27496,-82.95132 z"
     style="fill:#b89f62;fill-opacity:1;fill-rule:evenodd;stroke:none;stroke-width:0.84644991"
     inkscape:connector-curvature="0" />
  <text
     xml:space="preserve"
     style="font-style:italic;font-variant:normal;font-weight:normal;font-stretch:normal;font-size:21.33333397px;line-height:1;font-family:Lavi;-inkscape-font-specification:'Lavi Italic';text-align:center;letter-spacing:0px;word-spacing:0px;text-anchor:middle;fill:#338000;fill-opacity:1;stroke:none"
     x="685.95764"
     y="670.07544"
     id="text105"><tspan
       sodipodi:role="line"
       x="685.95764"
       y="670.07544"
       style="font-size:16px;line-height:1;text-align:center;text-anchor:middle;fill:#338000;fill-opacity:1"
       id="tspan163">It is said that Hippiah's magic comes from</tspan><tspan
       sodipodi:role="line"
       x="685.95764"
       y="691.40875"
       style="font-size:16px;line-height:1;text-align:center;text-anchor:middle;fill:#338000;fill-opacity:1"
       id="tspan1085">an original tree. Some people think that</tspan><tspan
       sodipodi:role="line"
       x="685.95764"
       y="712.74213"
       style="font-size:16px;line-height:1;text-align:center;text-anchor:middle;fill:#338000;fill-opacity:1"
       id="tspan1087">it is the Great Tree of Komona, the</tspan><tspan
       sodipodi:role="line"
       x="685.95764"
       y="734.07544"
       style="font-size:16px;line-height:1;text-align:center;text-anchor:middle;fill:#338000;fill-opacity:1"
       id="tspan1040">main regulator of magic.</tspan></text>
  <path
     id="path58-7-3"
     d="m 169.55665,977.41467 c -8.2231,-4.8392 -21.14507,11.93679 -23.07173,10.75381 -1.97361,-1.18284 -14.89552,-4.83908 -17.6209,-10.75381 -2.77236,-6.02205 -10.57258,10.75381 -12.92207,5.91473 -2.34953,-4.73176 2.72542,20.3247 10.94847,22.798 8.22318,2.3658 17.24514,5.9146 19.97041,13.1196 2.72543,7.2051 1.97359,21.6153 1.97359,21.6153 l -3.14827,4.7315 5.07477,9.5711 c 0,0 -0.75181,13.227 -3.10119,11.9367 -2.34948,-1.1829 -19.97041,9.5709 -21.56807,12.0441 -1.55061,2.3659 -12.12333,25.0564 -14.47267,23.8734 -2.34951,-1.1827 -9.02195,-4.7315 -9.02195,-4.7315 0,0 6.29653,9.5708 9.02195,11.9368 2.72528,2.3658 22.31979,2.3658 24.66929,2.3658 h 15.64747 c 3.14827,0 8.64595,-13.1196 11.74724,-9.5711 3.14829,3.6565 12.54613,3.6565 12.54613,3.6565 z"
     style="fill:#d6c38d;fill-opacity:1;fill-rule:evenodd;stroke:none;stroke-width:0.88857424"
     inkscape:connector-curvature="0" />
  <path
     id="path60-0-1"
     d="m 155.27188,899.2109 13.62692,25.67632 2.02054,40.86516 -1.03374,17.47909 -1.36272,10.48756 6.4845,7.23267 0.89278,27.3642 c 0,0 -0.23491,19.0461 0.46993,26.0376 0.65784,6.9917 -1.03378,20.9752 -0.70484,29.1724 0.37591,8.1971 1.03376,20.9748 0,25.6764 -0.98677,4.7011 -10.38461,-67.9882 -14.47269,-79.6812 -2.39645,-12.7778 -5.92068,-130.3102 -5.92068,-130.3102 z"
     style="fill:#6e674b;fill-opacity:1;fill-rule:evenodd;stroke:none;stroke-width:0.94078177"
     inkscape:connector-curvature="0" />
  <path
     id="path62-2-6"
     d="m 462.24803,901.49162 c -25.73296,-48.47515 -66.06145,-24.23758 -79.79248,-18.81124 -13.68012,5.42631 -70.33332,18.81124 -78.87705,13.50552 -8.59458,-5.42634 -35.19209,-13.50552 -44.65124,-13.50552 -9.40829,0 -46.27862,13.50552 -52.27956,8.07918 -6.05182,-5.42634 -44.65126,2.65288 -51.51674,10.73206 1.72913,45.82227 5.18727,107.92358 6.05182,129.38778 12.86646,-5.3058 35.14124,2.7733 48.00768,10.8525 12.86646,8.0792 43.73584,-18.9319 58.33142,-18.9319 14.59555,0 82.33523,18.9319 100.38897,18.9319 18.0029,0 73.74066,-24.2376 88.33618,-24.2376 3.45819,-48.59564 6.001,-116.00268 6.001,-116.00268 z"
     style="fill:#b89f62;fill-opacity:1;fill-rule:evenodd;stroke:none;stroke-width:0.97887951"
     inkscape:connector-curvature="0" />
  <text
     xml:space="preserve"
     style="font-style:italic;font-variant:normal;font-weight:normal;font-stretch:normal;font-size:21.33333397px;line-height:1;font-family:Lavi;-inkscape-font-specification:'Lavi Italic';text-align:center;letter-spacing:0px;word-spacing:0px;text-anchor:middle;fill:#338000;fill-opacity:1;stroke:none"
     x="309.08121"
     y="912.51453"
     id="text105-6"><tspan
       sodipodi:role="line"
       x="311.75308"
       y="912.51453"
       style="font-size:16px;line-height:1;text-align:center;text-anchor:middle;fill:#338000;fill-opacity:1"
       id="tspan226">This school preaches every form of </tspan><tspan
       sodipodi:role="line"
       x="311.75308"
       y="933.84784"
       style="font-size:16px;line-height:1;text-align:center;text-anchor:middle;fill:#338000;fill-opacity:1"
       id="tspan1213">plant or animal life. Its pupils are </tspan><tspan
       sodipodi:role="line"
       x="309.08121"
       y="955.18121"
       style="font-size:16px;line-height:1;text-align:center;text-anchor:middle;fill:#338000;fill-opacity:1"
       id="tspan1215">happy to share their knowledge, like</tspan><tspan
       sodipodi:role="line"
       x="309.08121"
       y="976.51453"
       style="font-size:16px;line-height:1;text-align:center;text-anchor:middle;fill:#338000;fill-opacity:1"
       id="tspan1217">gardening, or how to get the most</tspan><tspan
       sodipodi:role="line"
       x="309.08121"
       y="997.84784"
       style="font-size:16px;line-height:1;text-align:center;text-anchor:middle;fill:#338000;fill-opacity:1"
       id="tspan1219">beautiful garden of the neighborhood.</tspan><tspan
       sodipodi:role="line"
       x="309.08121"
       y="1019.1812"
       style="font-size:16px;line-height:1;text-align:center;text-anchor:middle;fill:#338000;fill-opacity:1"
       id="tspan1084">Nothing really exciting!</tspan></text>
  <path
     id="path58-7-3-1"
     d="m 827.96451,1182.571 c 7.5815,-4.6691 19.4952,11.5171 21.2715,10.3759 1.8196,-1.1414 13.7333,-4.6692 16.246,-10.3759 2.556,-5.8105 9.7476,10.3759 11.9138,5.7067 2.1662,-4.5653 -2.5128,19.6103 -10.0942,21.9967 -7.5816,2.2827 -15.8995,5.7068 -18.4122,12.6585 -2.5127,6.952 -1.8196,20.8556 -1.8196,20.8556 l 2.9026,4.5653 -4.6787,9.2346 c 0,0 0.6931,12.7623 2.8592,11.5171 2.1661,-1.1412 18.4121,9.2345 19.8851,11.621 1.4296,2.2827 11.1774,24.1757 13.3434,23.0344 2.1662,-1.1414 8.318,-4.5653 8.318,-4.5653 0,0 -5.8052,9.2344 -8.318,11.5171 -2.5126,2.2827 -20.5782,2.2827 -22.7444,2.2827 h -14.4265 c -2.9026,0 -7.9713,-12.6586 -10.8306,-9.2345 -2.9027,3.5279 -11.5672,3.5279 -11.5672,3.5279 z"
     style="fill:#d6c38d;fill-opacity:1;fill-rule:evenodd;stroke:none;stroke-width:0.83807552"
     inkscape:connector-curvature="0" />
  <path
     id="path60-0-1-8"
     d="m 841.13471,1132.0665 -12.5637,21.3392 -1.8629,33.9624 0.9531,14.5268 1.2564,8.7159 -5.9785,6.0111 -0.8231,22.7417 c 0,0 0.2165,15.829 -0.4333,21.6397 -0.6065,5.8107 0.9531,17.4321 0.6498,24.2447 -0.3465,6.8125 -0.9531,17.4319 0,21.3392 0.9098,3.9071 9.5744,-56.504 13.3435,-66.2217 2.2094,-10.6196 5.4587,-108.299 5.4587,-108.299 z"
     style="fill:#6e674b;fill-opacity:1;fill-rule:evenodd;stroke:none;stroke-width:0.82351321"
     inkscape:connector-curvature="0" />
  <path
     id="path62-2-6-0"
     d="m 544.93375,1132.0665 c 24.8183,-41.3085 63.71336,-20.6542 76.95635,-16.0302 13.19388,4.6242 67.8334,16.0302 76.07345,11.5089 8.2891,-4.6241 33.94125,-11.5089 43.06418,-11.5089 9.07388,0 44.63375,11.5089 50.42134,6.8848 5.83673,-4.6241 43.06417,2.2608 49.68564,9.1454 -1.66762,39.0478 -5.00286,91.9678 -5.83672,110.2586 -12.40919,-4.5213 -33.89221,2.3633 -46.30128,9.2481 -12.40919,6.8847 -42.18133,-16.133 -56.25813,-16.133 -14.07676,0 -79.40871,16.133 -96.82075,16.133 -17.36302,0 -71.11964,-20.6543 -85.19638,-20.6543 -3.33528,-41.4111 -5.7877,-98.8524 -5.7877,-98.8524 z"
     style="fill:#b89f62;fill-opacity:1;fill-rule:evenodd;stroke:none;stroke-width:0.88742191"
     inkscape:connector-curvature="0" />
  <text
     xml:space="preserve"
     style="font-style:italic;font-variant:normal;font-weight:normal;font-stretch:normal;font-size:21.33333397px;line-height:1;font-family:Lavi;-inkscape-font-specification:'Lavi Italic';text-align:center;letter-spacing:0px;word-spacing:0px;text-anchor:middle;fill:#338000;fill-opacity:1;stroke:none"
     x="692.20459"
     y="1144.7716"
     id="text105-6-7"><tspan
       sodipodi:role="line"
       x="694.87646"
       y="1144.7716"
       style="font-size:16px;line-height:1;text-align:center;text-anchor:middle;fill:#338000;fill-opacity:1"
       id="tspan252">Very pacifist, the witches of </tspan><tspan
       sodipodi:role="line"
       x="694.87646"
       y="1166.105"
       style="font-size:16px;line-height:1;text-align:center;text-anchor:middle;fill:#338000;fill-opacity:1"
       id="tspan1337">Hippiah didn't play any role during </tspan><tspan
       sodipodi:role="line"
       x="692.20459"
       y="1187.4382"
       style="font-size:16px;line-height:1;text-align:center;text-anchor:middle;fill:#338000;fill-opacity:1"
       id="tspan1339">the Great War, except repairing the</tspan><tspan
       sodipodi:role="line"
       x="692.20459"
       y="1208.7716"
       style="font-size:16px;line-height:1;text-align:center;text-anchor:middle;fill:#338000;fill-opacity:1"
       id="tspan1341">damages and regenerate the</tspan><tspan
       sodipodi:role="line"
       x="692.20459"
       y="1230.105"
       style="font-size:16px;line-height:1;text-align:center;text-anchor:middle;fill:#338000;fill-opacity:1"
       id="tspan1126">devastated lands.</tspan></text>
  <path
     id="path58-7-3-1-7"
     d="m 169.40091,1397.2029 c -7.03051,-4.7444 -18.07836,11.7028 -19.72557,10.5432 -1.68735,-1.1598 -12.73521,-4.7445 -15.06529,-10.5432 -2.37024,-5.9042 -9.03918,10.5432 -11.04795,5.7987 -2.00877,-4.6389 2.33018,19.9265 9.36059,22.3514 7.03059,2.3195 14.74398,5.7988 17.07406,12.8626 2.33009,7.064 1.68736,21.1918 1.68736,21.1918 l -2.69165,4.6389 4.33867,9.3835 c 0,0 -0.64273,12.9681 -2.6514,11.7028 -2.00868,-1.1596 -17.07398,9.3834 -18.43992,11.8084 -1.3257,2.3195 -10.36507,24.5655 -12.37365,23.4058 -2.00877,-1.1598 -7.71348,-4.6389 -7.71348,-4.6389 0,0 5.3833,9.3833 7.71348,11.7028 2.32999,2.3195 19.08265,2.3195 21.09142,2.3195 h 13.37803 c 2.69165,0 7.39197,-12.8627 10.04347,-9.3834 2.69174,3.5848 10.72654,3.5848 10.72654,3.5848 z"
     style="fill:#d6c38d;fill-opacity:1;fill-rule:evenodd;stroke:none;stroke-width:0.81352717"
     inkscape:connector-curvature="0" />
  <path
     id="path60-0-1-8-2"
     d="m 157.18787,1355.8795 11.65061,19.5237 1.72752,31.0727 -0.88384,13.2908 -1.16509,7.9743 5.54401,5.4996 0.76328,20.8068 c 0,0 -0.20077,14.4823 0.40181,19.7985 0.56242,5.3163 -0.88383,15.9489 -0.60258,22.1819 0.32132,6.2329 0.88383,15.9488 0,19.5236 -0.84368,3.5747 -8.87856,-51.6964 -12.37374,-60.5874 -2.04883,-9.7159 -5.06198,-99.0845 -5.06198,-99.0845 z"
     style="fill:#6e674b;fill-opacity:1;fill-rule:evenodd;stroke:none;stroke-width:0.75853711"
     inkscape:connector-curvature="0" />
  <path
     id="path62-2-6-0-3"
     d="m 483.12889,1357.5306 c -27.32026,-35.904 -70.13641,-17.952 -84.71444,-13.9329 -14.52398,4.0193 -74.6718,13.9329 -83.74256,10.0032 -9.12471,-4.0191 -37.36292,-10.0032 -47.40553,-10.0032 -9.98864,0 -49.13336,10.0032 -55.50441,5.9841 -6.42515,-4.0193 -47.40554,1.9649 -54.69454,7.9488 1.83575,33.9391 5.50721,79.9354 6.42515,95.8331 13.66016,-3.9297 37.30893,2.0542 50.96897,8.0382 13.66018,5.984 46.4337,-14.0223 61.92963,-14.0223 15.49584,0 87.41403,14.0223 106.5814,14.0223 19.11343,0 78.28932,-17.952 93.78519,-17.952 3.67149,-35.9931 6.37114,-85.9193 6.37114,-85.9193 z"
     style="fill:#b89f62;fill-opacity:1;fill-rule:evenodd;stroke:none;stroke-width:0.86803716"
     inkscape:connector-curvature="0" />
  <text
     xml:space="preserve"
     style="font-style:italic;font-variant:normal;font-weight:normal;font-stretch:normal;font-size:21.33333397px;line-height:1;font-family:Lavi;-inkscape-font-specification:'Lavi Italic';text-align:center;letter-spacing:0px;word-spacing:0px;text-anchor:middle;fill:#338000;fill-opacity:1;stroke:none"
     x="317.55856"
     y="1373.416"
     id="text105-6-7-0"><tspan
       sodipodi:role="line"
       x="317.55856"
       y="1373.416"
       style="font-size:16px;line-height:1;text-align:center;text-anchor:middle;fill:#338000;fill-opacity:1"
       id="tspan280">I was a pupil of Hippiah when I was young.</tspan><tspan
       sodipodi:role="line"
       x="317.55856"
       y="1394.7494"
       style="font-size:16px;line-height:1;text-align:center;text-anchor:middle;fill:#338000;fill-opacity:1"
       id="tspan1421">But Master Basilic took some malicious</tspan><tspan
       sodipodi:role="line"
       x="320.23044"
       y="1416.0826"
       style="font-size:16px;line-height:1;text-align:center;text-anchor:middle;fill:#338000;fill-opacity:1"
       id="tspan1431">delight to ridicule my failures. Yes, she </tspan><tspan
       sodipodi:role="line"
       x="317.55856"
       y="1437.416"
       style="font-size:16px;line-height:1;text-align:center;text-anchor:middle;fill:#338000;fill-opacity:1"
       id="tspan1141">shows off a bit for an horticulturist!</tspan></text>
  <text
     xml:space="preserve"
     style="font-style:italic;font-variant:normal;font-weight:normal;font-stretch:normal;font-size:21.33333397px;line-height:1.25;font-family:Lavi;-inkscape-font-specification:'Lavi Italic';letter-spacing:0px;word-spacing:0px;fill:#000000;fill-opacity:1;stroke:none"
     x="511.05029"
     y="1607.9447"
     id="text354"><tspan
       sodipodi:role="line"
       id="tspan352"
       x="511.05029"
       y="1627.4957" /><tspan
       sodipodi:role="line"
       x="511.05029"
       y="1654.1624"
       id="tspan356" /></text>
  <text
     xml:space="preserve"
     style="font-style:normal;font-variant:normal;font-weight:normal;font-stretch:normal;font-size:18.66666603px;line-height:1.25;font-family:Lavi;-inkscape-font-specification:Lavi;letter-spacing:0px;word-spacing:0px;fill:#000000;fill-opacity:1;stroke:none"
     x="38.993668"
     y="2966.2625"
     id="text3929"><tspan
       sodipodi:role="line"
       x="38.993668"
       y="2966.2625"
       style="font-size:16px;text-align:start;text-anchor:start"
       id="tspan3935">Background image of panels 1, 3, 4 and 5: &quot;The &quot;Chaos &amp; Evolutions&quot; impossible triangle&quot; by David Revoy (licence CC-BY 4.0). </tspan><tspan
       sodipodi:role="line"
       x="38.993668"
       y="2989.5957"
       style="font-size:16px;text-align:start;text-anchor:start"
       id="tspan1023">Reference: https://www.peppercarrot.com/fr/static8/wiki&amp;page=Magic-System</tspan></text>
  <path
     style="color:#000000;display:inline;overflow:visible;visibility:visible;fill:#ffffff;fill-opacity:1;fill-rule:nonzero;stroke:none;stroke-width:0.35465941px;marker:none;enable-background:accumulate"
     d="m 179.23578,1563.7814 c 2.66244,-10.4032 30.61782,-14.9379 39.93628,-16.005 9.31847,-1.0669 18.63688,-10.1365 170.39473,-12.0037 91.85339,-1.0671 134.45209,5.6017 143.77052,6.1352 9.31845,0.5334 80.85239,14.1639 64.25537,25.6731 -11.9809,8.3081 -26.13383,11.3353 -50.61863,12.8822 -28.17175,1.7799 -201.33706,2.2576 -239.94221,0.1235 -38.6051,-2.1339 -111.82154,1.0671 -127.79606,-16.8053 z"
     id="path4472-9"
     inkscape:connector-curvature="0"
     sodipodi:nodetypes="cscssssc" />
  <path
     style="color:#000000;display:inline;overflow:visible;visibility:visible;fill:#ffffff;fill-opacity:1;fill-rule:nonzero;stroke:none;stroke-width:0.26245689px;marker:none;enable-background:accumulate"
     d="m 432.02357,1675.3342 c -6.04412,15.1656 -21.9863,26.4286 -27.5535,29.4208 16.491,-5.0006 30.66197,-13.6949 34.27425,-24.11 3.61228,-10.4152 -6.72075,-5.3108 -6.72075,-5.3108 z"
     id="path4480-1"
     inkscape:connector-curvature="0" />
  <text
     xml:space="preserve"
     style="font-style:normal;font-variant:normal;font-weight:normal;font-stretch:normal;font-size:18.66666603px;line-height:1.25;font-family:Lavi;-inkscape-font-specification:'Lavi, Normal';font-variant-ligatures:normal;font-variant-caps:normal;font-variant-numeric:normal;font-feature-settings:normal;text-align:center;letter-spacing:0px;word-spacing:0px;writing-mode:lr-tb;text-anchor:middle;fill:#000000;fill-opacity:1;stroke:none"
     x="389.30423"
     y="1566.8909"
     id="text302"><tspan
       sodipodi:role="line"
       x="389.30423"
       y="1566.8909"
       id="tspan325">In conclusion, I was right to go to Chaosah.</tspan><tspan
       sodipodi:role="line"
       x="389.30423"
       y="1590.2242"
       id="tspan1156" /></text>
  <text
     xml:space="preserve"
     style="font-style:normal;font-variant:normal;font-weight:normal;font-stretch:normal;line-height:0%;font-family:Lavi;-inkscape-font-specification:Lavi;letter-spacing:0px;word-spacing:0px;fill:#000000;fill-opacity:1;stroke:#000000;stroke-width:0.99236238;stroke-miterlimit:4;stroke-dasharray:none;stroke-opacity:1;filter:url(#filter4375-4-1-1-1-9-5-2)"
     x="787.65729"
     y="1584.5073"
     id="text4580-6-6"
     transform="matrix(0.34701669,-0.14755694,-0.05330596,0.37401349,574.67911,1156.387)"><tspan
       sodipodi:role="line"
       id="tspan4582-1-9"
       x="0"
       y="0"
       style="font-size:70px;fill:#000000"><tspan
         style="font-size:114.73223114px"
         id="tspan4313-4" /></tspan></text>
  <text
     xml:space="preserve"
     style="font-style:normal;font-variant:normal;font-weight:normal;font-stretch:normal;line-height:0%;font-family:Lavi;-inkscape-font-specification:Lavi;letter-spacing:0px;word-spacing:0px;fill:#000000;fill-opacity:1;stroke:#000000;stroke-width:0.99236238;stroke-miterlimit:4;stroke-dasharray:none;stroke-opacity:1;filter:url(#filter4375-4-1-1-1-9-5-2-0)"
     x="787.65729"
     y="1584.5073"
     id="text4580-6-6-9"
     transform="matrix(0.17672113,-0.09075352,-0.0271465,0.23003352,471.78886,1325.1649)"><tspan
       sodipodi:role="line"
       id="tspan4582-1-9-7"
       x="787.65729"
       y="1588.0048"
       style="font-size:70px;fill:#000000" /></text>
  <flowRoot
     xml:space="preserve"
     id="flowRoot2987-7-9-9-6"
     style="font-style:normal;font-variant:normal;font-weight:normal;font-stretch:normal;line-height:0.01%;font-family:Lavi;-inkscape-font-specification:Lavi;letter-spacing:0px;word-spacing:0px;fill:#000000;fill-opacity:1;stroke:none"
     transform="matrix(0.33019776,0,0,0.34211269,526.36098,2708.3164)"><flowRegion
       id="flowRegion2989-4-5-8-75"><rect
         id="rect2991-45-1-3-34"
         width="417.15793"
         height="141.89404"
         x="120.55251"
         y="265.53046"
         style="font-style:normal;font-variant:normal;font-weight:normal;font-stretch:normal;font-family:Lavi;-inkscape-font-specification:Lavi" /></flowRegion><flowPara
       id="flowPara2995-4-1-5-4"
       style="font-size:48px">Ugh!</flowPara><flowPara
       style="font-size:48px"
       id="flowPara2017" /></flowRoot>  <text
     xml:space="preserve"
     style="font-style:normal;font-variant:normal;font-weight:normal;font-stretch:normal;line-height:0%;font-family:Lavi;-inkscape-font-specification:Lavi;letter-spacing:0px;word-spacing:0px;fill:#000000;fill-opacity:1;stroke:#000000;stroke-width:0.99236238;stroke-miterlimit:4;stroke-dasharray:none;stroke-opacity:1;filter:url(#filter4375-4-1-1-1-9-5-2-03)"
     x="787.65729"
     y="1584.5073"
     id="text4580-6-6-99"
     transform="matrix(0.34701669,-0.14755694,-0.05330596,0.37401349,136.80943,1688.8629)"><tspan
       sodipodi:role="line"
       id="tspan4582-1-9-1"
       x="787.65729"
       y="1584.5073"
       style="font-size:70px;fill:#000000">?!<tspan
   style="font-size:114.73223114px"
   id="tspan4313-4-5" /></tspan></text>
  <text
     xml:space="preserve"
     style="font-style:normal;font-variant:normal;font-weight:normal;font-stretch:normal;line-height:0%;font-family:Lavi;-inkscape-font-specification:Lavi;letter-spacing:0px;word-spacing:0px;fill:#000000;fill-opacity:1;stroke:#000000;stroke-width:0.99236238;stroke-miterlimit:4;stroke-dasharray:none;stroke-opacity:1;filter:url(#filter4375-4-1-1-1-9-5-2-03-2)"
     x="787.65729"
     y="1584.5073"
     id="text4580-6-6-99-7"
     transform="matrix(0.14696573,-0.09391683,-0.02257571,0.23805158,441.21691,1968.531)"><tspan
       sodipodi:role="line"
       id="tspan4582-1-9-1-5"
       x="787.65729"
       y="1584.5073"
       style="font-size:70px;fill:#000000">?!<tspan
   style="font-size:114.73223114px"
   id="tspan4313-4-5-1" /></tspan></text>
  <path
     style="color:#000000;display:inline;overflow:visible;visibility:visible;fill:#ffffff;fill-opacity:1;fill-rule:nonzero;stroke:none;stroke-width:0.40961653;stroke-miterlimit:4;stroke-dasharray:none;marker:none;enable-background:accumulate"
     d="m 640.07236,1643.6843 c -2.90366,-29.9418 -13.72647,-47.8018 -19.79775,-54.1054 -6.07131,-6.3037 -76.2873,-13.6576 -91.59757,-14.708 -15.31024,-1.0509 -59.65717,-1.576 -78.92698,16.8093 -19.26982,18.3852 -26.39698,43.0741 -26.66097,57.2571 -0.26397,14.1831 6.86321,52.0044 43.29108,63.5611 36.42781,11.5566 72.98992,16.2006 86.9803,14.0991 13.99043,-2.1008 61.76006,-6.165 74.95853,-30.8537 13.19853,-24.6891 11.48939,-34.1993 11.75336,-52.0595 z"
     id="path5909-8"
     inkscape:connector-curvature="0"
     sodipodi:nodetypes="csssssssc" />
  <text
     xml:space="preserve"
     style="font-style:normal;font-variant:normal;font-weight:normal;font-stretch:normal;font-size:18.66666603px;line-height:1.25;font-family:Lavi;-inkscape-font-specification:'Lavi, Normal';font-variant-ligatures:normal;font-variant-caps:normal;font-variant-numeric:normal;font-feature-settings:normal;text-align:center;letter-spacing:0px;word-spacing:0px;writing-mode:lr-tb;text-anchor:middle;fill:#000000;fill-opacity:1;stroke:none"
     x="535.82422"
     y="1607.9448"
     id="text1165"><tspan
       sodipodi:role="line"
       x="535.82422"
       y="1607.9448"
       id="tspan1179">And I can say that</tspan><tspan
       sodipodi:role="line"
       x="535.82422"
       y="1631.2782"
       id="tspan1465">without any risk of</tspan><tspan
       sodipodi:role="line"
       x="535.82422"
       y="1654.6115"
       id="tspan1467">reprisals, because the</tspan><tspan
       sodipodi:role="line"
       x="535.82422"
       y="1677.9448"
       id="tspan1469">witches of Hippiah are</tspan><tspan
       sodipodi:role="line"
       x="535.82422"
       y="1701.2782"
       id="tspan1177">pacifist!</tspan></text>
  <text
     xml:space="preserve"
     style="font-style:normal;font-variant:normal;font-weight:normal;font-stretch:normal;line-height:0%;font-family:Lavi;-inkscape-font-specification:Lavi;letter-spacing:0px;word-spacing:0px;fill:#e0ffa1;fill-opacity:1;stroke:#ffffff;stroke-width:0.65164882;stroke-miterlimit:4;stroke-dasharray:none;stroke-opacity:1;filter:url(#filter4375-4-1-1-1-9-5-8-8-5)"
     x="787.65729"
     y="1584.5073"
     id="text4580-6-0-0-0"
     transform="matrix(0.41303154,-0.17670279,-0.09968658,0.41355864,182.47774,1851.1736)"><tspan
       sodipodi:role="line"
       id="tspan4582-1-1-0-2"
       x="787.65729"
       y="1584.5073"
       style="font-size:70px;line-height:1.25;fill:#e0ffa1;fill-opacity:1;stroke:#ffffff;stroke-width:0.65164882;stroke-miterlimit:4;stroke-dasharray:none;stroke-opacity:1"><tspan
         style="font-size:93.14950562px;fill:#e0ffa1;fill-opacity:1;stroke:#ffffff;stroke-width:0.65164882;stroke-miterlimit:4;stroke-dasharray:none;stroke-opacity:1"
         id="tspan4315-8-9-2">Bam!</tspan></tspan></text>
  <path
     style="display:inline;fill:#ffffff;fill-rule:evenodd;stroke:none;stroke-width:0.61276078px;stroke-linecap:butt;stroke-linejoin:miter;stroke-opacity:1"
     d="m 486.66948,2534.4197 c 27.51472,14.3251 43.18754,8.4997 42.71522,-24.7989 13.12703,35.983 22.2367,44.0309 27.63927,26.3016 17.37932,15.2391 28.23422,10.9642 36.85234,0 3.21216,14.1009 10.10068,8.4108 16.06232,7.7103 1.96352,3.1904 -4.7803,11.1162 22.46506,0.5559 1.76485,4.2226 4.14221,7.8593 20.10126,-1.5026 4.1345,17.1388 17.39974,-0.9501 30.98945,-20.2899 -8.46676,23.7768 -4.95585,27.1349 5.86298,18.0351 -4.94638,9.7917 -7.9047,17.3715 10.8881,0.7518 -6.43367,18.0731 10.44515,5.6676 37.6899,-20.29 -13.62822,19.1877 -49.76735,51.5273 -25.96413,48.8462 -3.31956,5.6565 -15.16002,10.5849 20.10126,19.5383 -6.58279,3.8385 -26.67995,-1.7706 -9.91529,14.4812 2.24613,1.9001 -5.27329,3.0601 9.07772,8.0629 -8.47158,-0.3402 -13.66698,0.8759 -5.8629,8.2663 -15.46379,-0.3994 -9.67787,7.3718 1.67515,17.2841 -22.39373,-12.7145 -23.62614,-8.0934 -24.28911,-3.0058 -28.06587,-17.3343 -29.71336,-11.877 -33.50205,-8.2663 -13.68003,0.1353 -27.36007,-2.048 -41.04009,17.284 -3.58265,-12.0239 -10.76538,-21.2791 -41.04008,-12.775 13.2929,-15.2964 -5.61798,-5.551 -20.10126,0.7511 7.93132,-19.1087 -12.19726,-6.5676 -37.6899,12.0239 14.27578,-21.1017 -1.93811,-13.4794 -25.96414,1.5029 9.07771,-20.7303 -5.70626,-30.7556 -41.04009,-31.5622 16.91183,-7.4777 26.77387,-16.888 9.21306,-33.8166 19.79604,4.9848 25.70096,0.3549 11.72577,-18.0353 21.59214,15.0943 11.77499,-6.7994 3.35018,-27.053 z"
     id="path4508"
     inkscape:connector-curvature="0"
     sodipodi:nodetypes="cccccccccccccccccccccccccccc" />
  <path
     style="color:#000000;display:inline;overflow:visible;visibility:visible;fill:#ffffff;fill-opacity:1;fill-rule:nonzero;stroke:none;stroke-width:0.4417015px;marker:none;enable-background:accumulate"
     d="m 480.87847,2594.8496 c -12.47078,1.3044 -27.16969,4.2216 -30.62204,5.2139 2.44671,3.126 3.94689,6.3722 5.16939,8.8777 -6.5143,1.3249 -36.96869,5.8524 -44.09259,4.04 17.30823,5.1766 40.4678,3.2925 51.04724,0.3434 -0.94315,-3.6493 -2.05469,-5.67 -2.49839,-7.6091 5.23431,-1.7169 22.93862,-3.796 22.93862,-3.796 z"
     id="path5066"
     inkscape:connector-curvature="0" />
  <text
     xml:space="preserve"
     style="font-style:normal;font-variant:normal;font-weight:normal;font-stretch:normal;font-size:18.66666603px;line-height:1.25;font-family:Lavi;-inkscape-font-specification:'Lavi, Normal';font-variant-ligatures:normal;font-variant-caps:normal;font-variant-numeric:normal;font-feature-settings:normal;text-align:center;letter-spacing:0px;word-spacing:0px;writing-mode:lr-tb;text-anchor:middle;fill:#000000;fill-opacity:1;stroke:none"
     x="600.21838"
     y="2567.2876"
     id="text2042"><tspan
       sodipodi:role="line"
       x="600.21838"
       y="2567.2876"
       id="tspan2044">Get me out of here,</tspan><tspan
       sodipodi:role="line"
       x="600.21838"
       y="2590.6208"
       id="tspan1551">Camomile! Gardening</tspan><tspan
       sodipodi:role="line"
       x="600.21838"
       y="2613.9543"
       id="tspan1024">is good, too! Please!</tspan></text>
  <path
     inkscape:connector-curvature="0"
     style="color:#000000;display:inline;overflow:visible;visibility:visible;fill:#ffffff;fill-opacity:1;fill-rule:nonzero;stroke:none;stroke-width:0.51911771px;marker:none;enable-background:accumulate"
     d="m 481.83149,2440.7841 -17.67912,16.4135 -0.55211,-4.1028 -6.63318,3.167 c -27.87892,-4.0058 -63.37466,-3.171 -91.15512,-0.2944 l -7.73534,-2.8726 -1.12219,3.8907 c -1.26654,0.161 -2.51916,0.3249 -3.73891,0.4939 l -8.39831,-3.5645 1.05032,4.6775 c -0.15192,0.025 -0.30141,0.05 -0.45226,0.076 l -11.64698,-3.9323 2.15245,5.7549 c -0.54389,0.1205 -1.07634,0.2415 -1.59534,0.3634 l -14.92165,-8.5801 6.0341,11.205 c -0.87917,0.3471 -1.63796,0.695 -2.28323,1.0434 l -7.61856,-4.0421 3.73689,6.7842 c -0.84654,0.6483 -1.64636,1.2818 -2.41307,1.905 l -9.61032,-0.8921 5.33532,4.6234 c -6.30581,6.0193 -8.629,11.1175 -8.17167,17.0298 0.0918,1.1867 0.26415,2.3364 0.50716,3.4532 l -2.09059,2.7963 3.34654,1.2428 c 0.54007,1.3175 1.19343,2.583 1.95484,3.798 l -8.61696,7.68 h 10.49687 l -8.83955,6.5654 16.50401,-4.596 c 0.20943,0.1469 0.42434,0.2911 0.63801,0.4361 l -5.54,7.8534 11.60209,-2.4626 -11.04898,9.028 22.651,-5.3345 -3.31456,9.4381 14.36454,-6.1553 1.31287,-0.015 c 3.94912,1.0564 8.06273,2.0347 12.3129,2.9475 22.41959,4.8153 64.30902,1.6284 94.22709,-3.4369 l 14.79686,4.6085 -4.82709,-6.4527 c 0.31582,-0.064 0.61503,-0.1298 0.92643,-0.1943 l 15.50269,7.057 -3.31456,-5.7445 14.91665,4.9237 -9.39167,-9.8481 8.28646,2.8726 -5.84046,-4.9577 c 0.68355,-0.2906 1.36395,-0.5948 2.04071,-0.9122 l 7.66742,1.3563 -4.75023,-2.8222 c 1.12545,-0.6036 2.23155,-1.2415 3.3086,-1.9139 l 11.93851,2.2735 -6.53234,-6.145 c 0.65313,-0.5377 1.28739,-1.0878 1.89591,-1.6514 h 9.05621 l -4.14724,-5.5999 c 5.89243,-8.6001 5.75467,-18.9893 -7.54962,-28.923 l 2.3052,-3.6386 -6.63014,0.41 0.55305,-11.4891 -10.49783,4.1028 3.31557,-8.6172 -6.6302,4.1036 0.55211,-15.1826 z"
     id="path4040-0-3" />
  <path
     style="display:inline;fill:#ffffff;stroke:none;stroke-width:0.51179051"
     d="m 359.75281,2567.3016 c 19.19357,-7.2808 33.54207,-26.1841 21.09221,-45.1979 -7.54345,-11.5206 -13.6239,-17.7304 -13.6239,-17.7304 l 15.99934,0.045 9.39434,12.5898 c 0,0 14.42306,36.5401 -32.86199,50.2939 z"
     id="path3063-1-9"
     inkscape:connector-curvature="0"
     sodipodi:nodetypes="cscccc" />
  <text
     xml:space="preserve"
     style="font-style:normal;font-variant:normal;font-weight:normal;font-stretch:normal;font-size:18.66666603px;line-height:1.25;font-family:Lavi;-inkscape-font-specification:'Lavi, Normal';font-variant-ligatures:normal;font-variant-caps:normal;font-variant-numeric:normal;font-feature-settings:normal;text-align:center;letter-spacing:0px;word-spacing:0px;writing-mode:lr-tb;text-anchor:middle;fill:#000000;fill-opacity:1;stroke:none"
     x="403.15723"
     y="2484.6902"
     id="text2027"><tspan
       sodipodi:role="line"
       x="406.43848"
       y="2484.6902"
       id="tspan1539">Maybe not as pacifist </tspan><tspan
       sodipodi:role="line"
       x="403.15723"
       y="2508.0234"
       id="tspan1543">as I thought!</tspan></text>
  <flowRoot
     xml:space="preserve"
     id="flowRoot1043"
     style="fill:black;fill-opacity:1;stroke:none;font-family:Lavi;font-style:normal;font-weight:normal;font-size:18.66666667px;line-height:1.25;letter-spacing:0px;word-spacing:0px;-inkscape-font-specification:'Lavi, Normal';font-stretch:normal;font-variant:normal;text-anchor:middle;text-align:center;writing-mode:lr;font-variant-ligatures:normal;font-variant-caps:normal;font-variant-numeric:normal;font-feature-settings:normal"><flowRegion
       id="flowRegion1045"><rect
         id="rect1047"
         width="31.940269"
         height="111.43605"
         x="730.36749"
         y="283.7803" /></flowRegion><flowPara
       id="flowPara1049" /></flowRoot></svg>
