<?xml version="1.0" encoding="UTF-8" standalone="no"?>
<!-- Created with Inkscape (http://www.inkscape.org/) -->

<svg
   xmlns:dc="http://purl.org/dc/elements/1.1/"
   xmlns:cc="http://creativecommons.org/ns#"
   xmlns:rdf="http://www.w3.org/1999/02/22-rdf-syntax-ns#"
   xmlns:svg="http://www.w3.org/2000/svg"
   xmlns="http://www.w3.org/2000/svg"
   xmlns:xlink="http://www.w3.org/1999/xlink"
   xmlns:sodipodi="http://sodipodi.sourceforge.net/DTD/sodipodi-0.dtd"
   xmlns:inkscape="http://www.inkscape.org/namespaces/inkscape"
   version="1.1"
   id="svg2"
   sodipodi:docname="PCMINI_E24.svg"
   inkscape:version="0.92.4 (5da689c313, 2019-01-14)"
   width="992"
   height="1459">
  <metadata
     id="metadata8">
    <rdf:RDF>
      <cc:Work
         rdf:about="">
        <dc:format>image/svg+xml</dc:format>
        <dc:type
           rdf:resource="http://purl.org/dc/dcmitype/StillImage" />
        <dc:title />
      </cc:Work>
    </rdf:RDF>
  </metadata>
  <defs
     id="defs6">
    <filter
       style="color-interpolation-filters:sRGB"
       id="filter4375-4-1-1-1-9-5"
       inkscape:label="deevad outline effect">
      <feFlood
         id="feFlood4377-7-9-0-8-1-7"
         flood-opacity="1"
         flood-color="rgb(0,0,0)"
         result="flood" />
      <feComposite
         id="feComposite4379-3-8-8-2-77-4"
         in2="SourceGraphic"
         in="flood"
         operator="in"
         result="composite1" />
      <feMorphology
         id="feMorphology4393-1-0-49-8-9-3"
         operator="dilate"
         radius="1.3999999999999999"
         result="result3" />
      <feComposite
         id="feComposite4385-9-5-7-0-8-8"
         in2="result3"
         in="SourceGraphic"
         operator="over"
         result="composite2" />
    </filter>
    <filter
       style="color-interpolation-filters:sRGB"
       id="filter4375-4-1-1-1-9-5-2"
       inkscape:label="deevad outline effect">
      <feFlood
         id="feFlood4377-7-9-0-8-1-7-3"
         flood-opacity="1"
         flood-color="rgb(0,0,0)"
         result="flood" />
      <feComposite
         id="feComposite4379-3-8-8-2-77-4-6"
         in2="SourceGraphic"
         in="flood"
         operator="in"
         result="composite1" />
      <feMorphology
         id="feMorphology4393-1-0-49-8-9-3-6"
         operator="dilate"
         radius="1.3999999999999999"
         result="result3" />
      <feComposite
         id="feComposite4385-9-5-7-0-8-8-7"
         in2="result3"
         in="SourceGraphic"
         operator="over"
         result="composite2" />
    </filter>
    <filter
       inkscape:collect="always"
       style="color-interpolation-filters:sRGB"
       id="filter4213"
       x="-0.0010298714"
       width="1.0020597"
       y="-0.0014578935"
       height="1.0029159">
      <feGaussianBlur
         inkscape:collect="always"
         stdDeviation="0.24308766"
         id="feGaussianBlur4215" />
    </filter>
    <filter
       inkscape:collect="always"
       style="color-interpolation-filters:sRGB"
       id="filter4213-8"
       x="-0.0010298714"
       width="1.0020597"
       y="-0.0014578935"
       height="1.0029159">
      <feGaussianBlur
         inkscape:collect="always"
         stdDeviation="0.24308766"
         id="feGaussianBlur4215-7" />
    </filter>
    <filter
       inkscape:collect="always"
       style="color-interpolation-filters:sRGB"
       id="filter4213-0"
       x="-0.0010298714"
       width="1.0020597"
       y="-0.0014578935"
       height="1.0029159">
      <feGaussianBlur
         inkscape:collect="always"
         stdDeviation="0.24308766"
         id="feGaussianBlur4215-2" />
    </filter>
    <filter
       inkscape:collect="always"
       style="color-interpolation-filters:sRGB"
       id="filter4213-8-8"
       x="-0.0010298714"
       width="1.0020597"
       y="-0.0014578935"
       height="1.0029159">
      <feGaussianBlur
         inkscape:collect="always"
         stdDeviation="0.24308766"
         id="feGaussianBlur4215-7-9" />
    </filter>
    <filter
       inkscape:collect="always"
       style="color-interpolation-filters:sRGB"
       id="filter4213-8-2"
       x="-0.0010298714"
       width="1.0020597"
       y="-0.0014578935"
       height="1.0029159">
      <feGaussianBlur
         inkscape:collect="always"
         stdDeviation="0.24308766"
         id="feGaussianBlur4215-7-8" />
    </filter>
    <filter
       inkscape:collect="always"
       style="color-interpolation-filters:sRGB"
       id="filter4213-8-2-0"
       x="-0.0010298714"
       width="1.0020597"
       y="-0.0014578935"
       height="1.0029159">
      <feGaussianBlur
         inkscape:collect="always"
         stdDeviation="0.24308766"
         id="feGaussianBlur4215-7-8-1" />
    </filter>
    <filter
       inkscape:collect="always"
       style="color-interpolation-filters:sRGB"
       id="filter4213-8-5"
       x="-0.0010298714"
       width="1.0020597"
       y="-0.0014578935"
       height="1.0029159">
      <feGaussianBlur
         inkscape:collect="always"
         stdDeviation="0.24308766"
         id="feGaussianBlur4215-7-6" />
    </filter>
    <filter
       inkscape:collect="always"
       style="color-interpolation-filters:sRGB"
       id="filter4213-0-8"
       x="-0.0010298714"
       width="1.0020597"
       y="-0.0014578935"
       height="1.0029159">
      <feGaussianBlur
         inkscape:collect="always"
         stdDeviation="0.24308766"
         id="feGaussianBlur4215-2-2" />
    </filter>
    <filter
       inkscape:collect="always"
       style="color-interpolation-filters:sRGB"
       id="filter4213-88"
       x="-0.0010298714"
       width="1.0020597"
       y="-0.0014578935"
       height="1.0029159">
      <feGaussianBlur
         inkscape:collect="always"
         stdDeviation="0.24308766"
         id="feGaussianBlur4215-3" />
    </filter>
    <filter
       inkscape:collect="always"
       style="color-interpolation-filters:sRGB"
       id="filter4213-8-6"
       x="-0.0010298714"
       width="1.0020597"
       y="-0.0014578935"
       height="1.0029159">
      <feGaussianBlur
         inkscape:collect="always"
         stdDeviation="0.24308766"
         id="feGaussianBlur4215-7-2" />
    </filter>
    <filter
       inkscape:collect="always"
       style="color-interpolation-filters:sRGB"
       id="filter4213-88-7"
       x="-0.0010298714"
       width="1.0020597"
       y="-0.0014578935"
       height="1.0029159">
      <feGaussianBlur
         inkscape:collect="always"
         stdDeviation="0.24308766"
         id="feGaussianBlur4215-3-4" />
    </filter>
    <filter
       inkscape:collect="always"
       style="color-interpolation-filters:sRGB"
       id="filter4213-0-8-0"
       x="-0.0010298714"
       width="1.0020597"
       y="-0.0014578935"
       height="1.0029159">
      <feGaussianBlur
         inkscape:collect="always"
         stdDeviation="0.24308766"
         id="feGaussianBlur4215-2-2-8" />
    </filter>
    <filter
       inkscape:collect="always"
       style="color-interpolation-filters:sRGB"
       id="filter4213-88-7-7"
       x="-0.0010298714"
       width="1.0020597"
       y="-0.0014578935"
       height="1.0029159">
      <feGaussianBlur
         inkscape:collect="always"
         stdDeviation="0.24308766"
         id="feGaussianBlur4215-3-4-8" />
    </filter>
    <filter
       inkscape:collect="always"
       style="color-interpolation-filters:sRGB"
       id="filter4213-0-8-0-2"
       x="-0.0010298714"
       width="1.0020597"
       y="-0.0014578935"
       height="1.0029159">
      <feGaussianBlur
         inkscape:collect="always"
         stdDeviation="0.24308766"
         id="feGaussianBlur4215-2-2-8-8" />
    </filter>
    <filter
       inkscape:collect="always"
       style="color-interpolation-filters:sRGB"
       id="filter4213-8-28"
       x="-0.0010298714"
       width="1.0020597"
       y="-0.0014578935"
       height="1.0029159">
      <feGaussianBlur
         inkscape:collect="always"
         stdDeviation="0.24308766"
         id="feGaussianBlur4215-7-5" />
    </filter>
    <filter
       inkscape:collect="always"
       style="color-interpolation-filters:sRGB"
       id="filter4213-8-2-0-5"
       x="-0.0010298714"
       width="1.0020597"
       y="-0.0014578935"
       height="1.0029159">
      <feGaussianBlur
         inkscape:collect="always"
         stdDeviation="0.24308766"
         id="feGaussianBlur4215-7-8-1-7" />
    </filter>
    <filter
       style="color-interpolation-filters:sRGB"
       id="filter4375-4-1-1-1-9"
       inkscape:label="deevad outline effect">
      <feFlood
         id="feFlood4377-7-9-0-8-1"
         flood-opacity="1"
         flood-color="rgb(0,0,0)"
         result="flood" />
      <feComposite
         id="feComposite4379-3-8-8-2-77"
         in2="SourceGraphic"
         in="flood"
         operator="in"
         result="composite1" />
      <feMorphology
         id="feMorphology4393-1-0-49-8-9"
         operator="dilate"
         radius="4"
         result="result3" />
      <feComposite
         id="feComposite4385-9-5-7-0-8"
         in2="result3"
         in="SourceGraphic"
         operator="over"
         result="composite2" />
    </filter>
  </defs>
  <sodipodi:namedview
     pagecolor="#ffffff"
     bordercolor="#666666"
     borderopacity="1"
     objecttolerance="10"
     gridtolerance="10"
     guidetolerance="10"
     inkscape:pageopacity="0"
     inkscape:pageshadow="2"
     inkscape:window-width="1920"
     inkscape:window-height="1057"
     id="namedview4"
     showgrid="false"
     inkscape:zoom="0.67289195"
     inkscape:cx="1049.3296"
     inkscape:cy="452.08193"
     inkscape:window-x="-8"
     inkscape:window-y="-8"
     inkscape:window-maximized="1"
     inkscape:current-layer="svg2"
     inkscape:snap-text-baseline="true">
    <inkscape:grid
       type="xygrid"
       id="grid5917" />
  </sodipodi:namedview>
  <image
     sodipodi:absref="../../img/24/gfx_Pepper-and-Carrot-MINI_by_Nicolas_Artance_E24.png"
     xlink:href="../../img/24/gfx_Pepper-and-Carrot-MINI_by_Nicolas_Artance_E24.png"
     y="0"
     x="0"
     id="image10"
     preserveAspectRatio="none"
     height="1459"
     width="992"
     style="fill:#ffffff;fill-opacity:1" />
  <path
     style="color:#000000;display:inline;overflow:visible;visibility:visible;fill:#ffffff;fill-opacity:1;fill-rule:nonzero;stroke:none;stroke-width:0.23641537px;marker:none;enable-background:accumulate"
     d="m 382.88665,757.72251 c -0.86519,-2.33135 -1.89737,-4.77823 1.48219,-6.40222 1.02006,-0.44842 2.2697,-0.86797 4.15737,-1.07918 2.49496,-0.0454 5.99831,0.54328 8.64545,1.25959 3.97225,0.99904 7.37082,2.28852 11.98204,3.01183 3.35904,0.50934 5.50321,0.20843 7.5143,0.0227 5.01264,-0.51237 9.25999,-1.2936 15.18289,-1.49013 6.30002,-0.37015 13.37142,-0.59461 22.06749,0.2408 3.45532,0.34519 7.18265,0.82747 10.56321,1.61944 8.82538,1.96983 16.06782,4.80374 17.05627,6.9803 0.0614,1.31578 -5.23491,1.80139 -11.4746,0.78705 -3.29661,-0.52523 -5.96748,-1.43165 -7.63672,-2.25945 -3.98724,-1.53608 -10.26292,-2.85848 -15.99281,-3.48901 -4.74309,-0.53922 -9.18456,-0.71364 -12.7541,-0.55901 -6.00414,-0.23904 -8.7822,0.74 -12.47959,1.31781 -1.72498,0.2532 -3.72076,0.47312 -6.3973,0.35 -4.25547,-0.43733 -8.08392,-1.60753 -11.05342,-2.63768 -3.13457,-1.05624 -6.46404,-2.31178 -10.94841,-2.9556 -3.12496,-0.53947 -4.05543,0.0934 -5.494,0.3243 -3.76076,1.00466 -5.20074,2.5914 -4.82644,4.40272 0.0936,0.18065 0.24841,0.36787 0.406,0.55577 z"
     id="path4496-6"
     inkscape:connector-curvature="0" />
  <path
     style="display:inline;fill:#301b0b;fill-opacity:1;stroke:none;stroke-width:0.39177489"
     d="m 285.79094,133.87575 c -0.80153,-0.656 -1.72219,-1.6703 -2.04606,-2.2541 l -0.58888,-1.0612 v -1.5513 -1.5516 l 0.99753,-0.9296 0.9975,-0.9297 h 0.72966 c 0.40131,0 1.08228,-0.2625 1.51322,-0.5647 l 0.78356,-0.5525 0.30437,-1.9925 0.30438,-1.9925 0.0281,-8.6431 0.0281,-8.6429 -0.42072,-0.7328 -0.42066,-0.7328 h -0.72475 c -0.39859,0 -1.69418,-0.2687 -2.87912,-0.5962 l -2.15431,-0.5966 -0.96732,-0.901596 -0.96731,-0.9015 v -0.5856 -0.5854 h 2.33672 2.33681 l 1.82875,-0.8368 1.82878,-0.8366 0.11594,-13.2587 0.11594,-13.2588 -0.48228,-1.6387 -0.48241,-1.6388 -0.85297,-0.5156 -0.8529,-0.5156 -3.55594,-0.2657 -3.55584,-0.2656 v -0.4537 -0.4538 l 1.79731,-1.6994 1.7974,-1.6993 5.14357,-2.1672 5.1435,-2.1672 0.78275,0.2312 c 0.43043,0.1282 1.33034,0.6613 1.99968,1.1863 l 1.21691,0.9544 v 0.5075 c 0,0.2781 0.2875,0.7753 0.63872,1.1028 l 0.63859,0.5953 h 4.1926 4.19262 l 3.52319,0.9515 c 1.93772,0.5235 4.40506,1.3685 5.48315,1.8775 1.07794,0.5094 3.41257,1.9463 5.188,3.1935 l 3.22797,2.2672 1.11566,1.5006 1.11559,1.5006 0.58166,1.8016 0.58172,1.8019 v 2.5578 2.5578 l -0.76057,2.2778 -0.76059,2.2781 -1.50334,2.5056 -1.50335,2.506 -2.44418,2.4356 -2.44419,2.4356 -2.70853,1.8607 c -1.48972,1.0231 -3.62294,2.2825 -4.7405,2.7981 -1.11756,0.515596 -4.13503,1.586496 -6.70547,2.379696 -2.57041,0.7934 -5.085,1.5815 -5.58791,1.7515 l -0.91437,0.3094 v 8.17 8.17 l 0.98094,0.9144 0.98103,0.9144 1.15262,0.2281 c 0.63385,0.125 1.45978,0.3819 1.83538,0.5703 l 0.68278,0.3428 1.77206,-0.034 c 0.97466,-0.031 2.70572,0.088 3.84678,0.2344 l 2.07472,0.2656 1.29113,-0.6225 1.29115,-0.6222 1.19672,0.2438 c 0.65812,0.1344 2.01641,0.2437 3.01828,0.2437 1.00184,0 1.82156,0.081 1.82156,0.1782 0,0.097 -0.66043,0.434 -1.46756,0.7484 -1.48072,0.5769 -4.66516,2.44 -6.80481,3.9813 l -1.16056,0.8359 -2.64425,0.6837 -2.64416,0.6835 -1.88475,1.1169 -1.88478,1.1171 -3.04794,0.8025 c -1.67631,0.4413 -3.97837,1.0522 -5.11556,1.3575 l -2.06769,0.555 h -1.67747 -1.67728 l -1.45728,-1.1931 z m 17.94815,-40.646896 3.59725,-1.685 3.27594,-2.4513 3.27587,-2.4515 1.96247,-2.2088 1.96235,-2.209 1.16209,-2.2728 1.16194,-2.2729 3.7e-4,-1.629 3.2e-4,-1.6288 -0.595,-1.0725 c -0.32725,-0.5897 -1.16232,-1.5175 -1.85582,-2.0612 l -1.26078,-0.9891 -2.30969,-0.6465 -2.30977,-0.6466 h -3.45425 -3.45441 l -2.24538,0.4731 -2.24546,0.4731 -1.31054,0.7429 -1.31043,0.7428 v 11.3515 11.3513 l 0.71112,0.3859 c 0.39116,0.2125 0.92125,0.3916 1.17791,0.3978 0.25687,0 2.08544,-0.7465 4.0639,-1.6734 z m 29.80953,41.241196 c -0.55872,-0.3365 -1.51525,-1.2153 -2.12544,-1.9521 l -1.1095,-1.3404 -0.24968,-1.2421 -0.25,-1.2422 0.54672,-1.0741 0.54675,-1.0741 1.79568,-0.8031 1.79572,-0.8034 0.541,-0.6897 0.54103,-0.6897 v -10.4875 -10.4878 l -2.13353,-0.2219 c -1.17344,-0.1219 -2.85006,-0.3569 -3.72572,-0.5215 l -1.59222,-0.3 -0.12843,-0.3775 c -0.0703,-0.2063 0.0156,-0.5869 0.18812,-0.8425 l 0.31653,-0.464996 3.1415,-0.5604 c 1.72775,-0.3093 3.31969,-0.6631 3.53747,-0.7884 l 0.3961,-0.2281 v -15.3388 -15.3387 l -0.59297,-1.0688 -0.59303,-1.069 -3.36925,-0.446 c -1.85322,-0.2468 -3.96372,-0.5306 -4.69013,-0.634 l -1.32081,-0.1875 v -0.2969 c 0,-0.1625 0.4115,-0.645 0.9144,-1.0719 0.99516,-0.8447 6.1236,-3.9015 6.54563,-3.9015 0.14344,0 1.88937,-0.6838 3.88031,-1.5194 l 3.62,-1.5197 1.15494,0.4094 c 0.63519,0.225 1.47528,0.6797 1.86684,1.01 l 0.71194,0.6006 v 1.0334 1.0335 l 0.91441,0.2281 c 0.50287,0.125 2.74681,0.2312 4.98647,0.2344 h 4.07206 l 2.91578,0.7534 c 1.60372,0.4141 3.95594,1.1819 5.22719,1.7059 l 2.3114,0.9529 2.68928,1.8653 c 1.47916,1.0259 3.36607,2.5168 4.19322,3.3134 l 1.50394,1.4478 0.90181,1.8941 0.90172,1.894 0.18188,2.8613 0.18218,2.8609 -1.18943,3.2169 -1.1895,3.2169 -1.5646,2.1972 c -0.8605,1.2084 -2.48125,3.1318 -3.60168,4.2747 l -2.0371,2.0778 -1.296,-0.225 -1.296,-0.2282 -0.42372,0.481 c -0.23281,0.2656 -0.487,0.9053 -0.56434,1.4244 l -0.14063,0.9434 -1.99968,1.2178 -1.99972,1.2181 -5.04344,1.721596 -5.04356,1.7212 h -0.88147 c -0.48478,0 -1.15569,0.1688 -1.49103,0.365 l -0.6096,0.3591 v 8.1275 8.1278 l 0.96885,0.9616 0.96869,0.9615 2.11043,0.4085 2.11038,0.4084 h 4.03275 c 2.21794,0 5.09494,-0.031 6.39325,-0.053 l 2.36056,-0.044 0.2775,0.2594 0.27781,0.2594 -0.80937,0.4425 c -0.44516,0.2437 -1.973,0.9134 -3.39506,1.4891 l -2.58575,1.0465 -1.2046,0.9447 c -0.66256,0.5197 -1.43919,0.945 -1.72581,0.945 h -0.52116 l -1.78443,1.4613 c -0.98144,0.8037 -2.56757,1.8328 -3.52475,2.2868 l -1.74035,0.8257 -3.94919,1.0006 -3.94909,1.0006 -2.03194,0.1281 -2.03203,0.1282 -1.01597,-0.6122 z m 16.57247,-40.867496 2.93541,-1.3115 2.94584,-2.0385 2.94584,-2.0384 2.84472,-2.8109 2.84475,-2.8113 1.13882,-2.1897 1.13887,-2.1897 0.20563,-1.7828 0.20593,-1.7828 -0.73503,-1.3162 -0.73515,-1.3163 -1.6255,-1.0537 -1.6256,-1.0541 -3.048,-0.6009 -3.04794,-0.6013 -2.64146,0.2188 c -1.45288,0.1218 -3.73882,0.4806 -5.07994,0.7997 l -2.43835,0.58 -0.93203,0.9806 -0.93203,0.9806 0.11906,10.6988 0.11907,10.6984 0.55778,0.6259 0.55772,0.6257 h 0.67293 c 0.37,0 1.99375,-0.59 3.60825,-1.3113 z m 140.09162,29.370996 c -1.11753,-0.3713 -2.96278,-1.115 -4.10046,-1.6528 l -2.06857,-0.9775 -1.28168,-1.3607 c -0.70503,-0.7484 -1.68828,-2.0806 -2.18522,-2.9603 l -0.90353,-1.5993 -0.0125,-2.8413 -0.0125,-2.8409 1.283,-2.5244 1.283,-2.5244 3.15353,-3.0769 3.1535,-3.076496 -1.14166,-2.2266 -1.14156,-2.2265 0.24375,-1.1363 0.24375,-1.1362 -0.58159,-0.45 -0.5816,-0.45 0.63078,-1.1369 0.63075,-1.1372 -0.9019,-0.895 -0.90197,-0.8947 0.25781,-1.7525 0.2575,-1.7525 0.80947,-1.7059 0.80941,-1.7057 1.72824,-1.924 1.72835,-1.9244 1.784,-1.0547 1.78403,-1.0547 2.201,-0.459 2.20091,-0.4591 2.11581,0.6231 2.11581,0.6232 2.32003,1.3543 2.32,1.3544 1.48038,2.2716 1.4805,2.2718 0.20781,1.445 0.20781,1.4454 -0.89719,2.6496 -0.89712,2.6497 -1.56141,1.8535 c -0.85875,1.019 -2.23275,2.7906 -3.05325,3.9365 -0.82053,1.146 -2.03943,2.5366 -2.70868,3.0903 l -1.21669,1.0069 0.34603,0.55 c 0.19,0.3031 2.01116,2.198096 4.04634,4.212196 l 3.70038,3.6619 0.48531,-0.545 0.48541,-0.5453 0.0819,-1.0747 0.0819,-1.075 -1.52197,-0.1188 -1.52185,-0.1187 -1.018,-1.2441 -1.01812,-1.2444 v -0.7893 -0.789696 l 0.58216,-0.5425 0.58218,-0.5428 3.38016,-0.9794 c 1.85912,-0.5388 4.29456,-1.1731 5.41212,-1.41 l 2.032,-0.4303 4.87666,-0.15 c 2.68225,-0.081 5.83681,-0.25 7.01028,-0.3747 l 2.13356,-0.225 -2.1e-4,0.5009 -1.9e-4,0.5007 -2.89019,2.4625 c -1.5895,1.354 -3.46394,2.994296 -4.16528,3.644996 l -1.27519,1.1828 -1.98228,0.2687 c -1.09031,0.1469 -2.23331,0.3581 -2.53994,0.4678 l -0.55765,0.2 v 1.8394 1.8394 l -0.86707,2.1603 -0.86709,2.1603 1.16772,0.7897 c 0.64219,0.4344 1.901,1.3159 2.79747,1.9591 l 1.62972,1.169 -0.075,0.5356 c -0.0416,0.2938 -0.32835,1.1735 -0.63744,1.9532 l -0.56188,1.4175 -0.95743,0.95 -0.95738,0.95 h -1.24994 -1.24993 l -1.33063,-0.7563 c -0.7319,-0.4159 -1.57587,-0.7562 -1.87559,-0.7562 -0.29969,0 -1.00991,-0.341 -1.57822,-0.7575 -0.56838,-0.4166 -1.27878,-0.7535 -1.57878,-0.7479 -0.3,0 -1.55138,0.6082 -2.78066,1.3397 l -2.23519,1.33 -3.84456,1.1225 -3.84453,1.1225 -2.04816,-0.031 -2.04812,-0.031 -2.03191,-0.675 z m 9.86104,-9.1675 1.78662,-0.8063 0.19906,-0.4831 0.19907,-0.4834 -4.194,-3.8222 -4.1941,-3.8222 h -0.49062 -0.49072 l -1.13488,1.3947 c -0.62428,0.7669 -1.72925,1.9062 -2.45572,2.5319 l -1.32071,1.1375 v 0.5125 0.5122 l 1.72706,1.6428 c 0.95003,0.9034 2.09297,1.8293 2.54,2.0581 l 0.81281,0.4156 h 2.61484 2.61479 l 1.78662,-0.8062 z m -2.17397,-23.281896 3.13753,-2.4953 0.78365,-1.1981 0.78372,-1.1982 v -1.2018 -1.2022 l -1.00772,-1.1166 -1.00778,-1.1162 -1.22056,-0.4713 -1.22072,-0.4712 -1.40465,0.2468 -1.4046,0.2469 -1.10215,1.2181 c -0.60607,0.67 -1.34857,1.7669 -1.65,2.4372 l -0.54829,1.2191 v 1.4672 1.4675 l 0.57557,1.7825 c 0.57159,1.7703 1.28606,2.8837 1.85059,2.8837 0.16188,0 1.70653,-1.1231 3.43216,-2.4956 z m 72.0799,22.195596 c -1.27825,-0.1531 -3.62012,-0.6662 -5.20418,-1.1409 l -2.87994,-0.8634 -2.41313,-1.3663 c -1.32718,-0.7512 -3.34828,-2.0481 -4.49134,-2.8816 l -2.07816,-1.515 -2.34987,-2.5778 -2.34994,-2.577796 -1.22937,-2.1575 c -0.67616,-1.1865 -1.60322,-3.2656 -2.06007,-4.6197 -0.45684,-1.3543 -1.21872,-4.419 -1.69306,-6.8106 l -0.86237,-4.3484 0.18031,-1.7128 c 0.26094,-2.4744 1.4095,-7.97 2.54137,-12.16 1.12691,-4.1713 3.53713,-10.7904 4.74341,-13.0263 1.79691,-3.3306 6.31791,-10.02 9.09275,-13.4537 1.60981,-1.9919 4.18106,-4.8175 5.71391,-6.2788 1.53287,-1.4616 4.0665,-3.5587 5.63034,-4.6609 l 2.84328,-2.0038 3.36981,-1.5565 3.36982,-1.5563 4.35306,-0.031 4.35303,-0.031 3.86078,1.4522 c 2.12338,0.7987 4.22647,1.4803 4.6735,1.5153 l 0.81278,0.062 0.20313,-2.1006 0.20312,-2.1006 0.754,-1.0722 0.75385,-1.0719 2.23593,0.2437 2.23588,0.2438 2.1964,0.9687 2.19641,0.9685 1.41763,1.2462 1.41765,1.2463 v 1.8969 c 0,1.0431 -0.11437,2.4296 -0.25375,3.0812 l -0.25406,1.1844 -1.60297,1.6975 -1.60306,1.6975 0.25562,0.3853 0.25563,0.3853 h 0.74375 0.74378 l 0.93866,0.7088 0.93865,0.7084 -0.48265,5.2578 c -0.55541,6.0516 -0.97225,8.9425 -1.8405,12.765 -0.33997,1.4966 -0.79525,3.5734 -1.01172,4.615 -0.21657,1.0419 -0.69472,3.1475 -1.0626,4.6791 l -0.66893,2.7847 -1.00888,1.8556 -1.00878,1.8559 h -0.35213 -0.35212 l -0.245,-0.8525 c -0.13469,-0.4687 -0.2475,-1.7528 -0.25031,-2.8531 l -0.009,-2.0009 -0.54906,-1.2254 -0.54913,-1.225 -0.29968,-4.9034 -0.29969,-4.9034 -1.74134,-4.7503 -1.74144,-4.7504 -1.74994,-3.1809 -1.75012,-3.1809 -1.46016,-1.431 -1.46013,-1.4306 -1.12593,-0.2625 -1.12594,-0.2625 -1.77994,0.6338 c -0.97894,0.3484 -2.93694,1.3453 -4.351,2.2153 l -2.57122,1.5818 -3.7875,3.5788 -3.78768,3.5787 -2.99385,4.195 -2.99397,4.195 -2.84072,5.4929 c -3.05062,5.899 -5.09406,10.7756 -6.75853,16.1296 l -1.04353,3.3569 -0.25156,2.8525 -0.25156,2.8525 -0.95128,1.0669 -0.95125,1.0669 0.59806,1.0778 c 0.3289,0.5931 1.11903,1.4765 1.75581,1.9637 l 1.15775,0.8857 1.08866,1.7771 1.08853,1.7772 1.92722,1.8397 1.92715,1.8394 1.9691,0.885596 1.969,0.8856 4.53328,-0.1968 4.53325,-0.2 3.93537,-1.188496 c 2.16447,-0.6534 4.98682,-1.6218 6.27203,-2.1515 l 2.33675,-0.9635 0.72204,0.175 0.72215,0.175 1.16713,-1.0397 1.16715,-1.0396 2.86563,-1.021 2.86578,-1.0206 0.75737,-0.78 c 0.41657,-0.4291 1.23491,-1.0103 1.81869,-1.2919 l 1.06125,-0.5115 0.4821,-1.0594 0.48209,-1.0597 2.30022,-1.3025 c 1.26515,-0.7166 2.98725,-1.8813 3.827,-2.5884 l 1.52672,-1.2857 1.6129,-2.3806 1.61297,-2.3806 0.60781,-0.2188 0.60782,-0.2187 0.49737,0.5587 0.49728,0.5588 -0.45322,0.8394 c -0.24937,0.4615 -0.90237,2.5759 -1.45137,4.6984 l -0.99813,3.8594 -1.96146,3.3381 -1.96147,3.3384 -2.71622,2.5338 -2.71622,2.534 -1.166,0.561896 -1.16588,0.5619 -0.7835,-0.066 -0.78346,-0.066 -1.13063,2.0835 -1.13056,2.0837 -4.36469,2.5347 -4.36469,2.535 -3.65759,1.1322 -3.6575,1.1322 -3.17894,0.4053 c -3.48137,0.4438 -5.37153,0.4497 -8.89869,0.031 z m -383.28598,-6.5893 -1.56973,-0.5497 -1.21059,-1.0719 -1.21058,-1.0716 -0.79801,-1.4465 -0.79801,-1.4466 -0.22828,-1.795596 -0.22829,-1.7956 0.96943,-1.0507 0.96934,-1.0506 2.54652,-0.2812 2.54652,-0.2813 0.69177,-0.6447 0.69176,-0.645 0.20862,-3.4931 0.20834,-3.4928 1.21914,-0.1938 1.21926,-0.1937 0.126,-1.0163 0.12628,-1.0162 -1.14216,-0.6778 c -0.62815,-0.3728 -1.27649,-0.8525 -1.44064,-1.0657 l -0.29859,-0.3875 -0.009,-10.9028 -0.009,-10.9031 0.50802,-0.1469 c 0.27925,-0.081 0.99076,-0.2437 1.58078,-0.3637 l 1.07272,-0.2188 0.25812,-0.6268 0.25816,-0.6269 -0.51806,-0.6466 c -0.28481,-0.3556 -1.13367,-1.3959 -1.88611,-2.3122 l -1.36768,-1.6656 0.32853,-6.0609 c 0.1805,-3.3338 0.33909,-7.71 0.35198,-9.725 l 0.0238,-3.6635 -0.98124,-0.9731 -0.98136,-0.9731 -2.26985,-0.7888 -2.26982,-0.789 -0.88149,-0.7675 -0.88155,-0.7675 -0.86547,-1.8753 -0.86537,-1.8754 -0.0671,-2.2387 -0.0671,-2.2391 0.95179,-0.9443 0.95178,-0.9444 3.50329,-1.1938 3.50335,-1.1937 6.29902,-1.0956 6.29911,-1.0957 h 7.31502 7.31506 l 3.90784,0.3547 3.90786,0.3544 3.33952,1.1359 c 1.8368,0.625 4.47026,1.7257 5.85226,2.446 1.382,0.7206 3.34083,1.9893 4.35298,2.82 l 1.84029,1.51 2.57811,3.3509 2.57804,3.3509 1.94759,3.7882 1.94768,3.7881 0.68253,2.4622 0.68256,2.4625 0.0366,2.8409 0.0369,2.8413 -0.52632,2.0834 -0.5264,2.0838 -1.58878,3.0303 -1.58874,3.0306 -2.33502,2.5291 c -1.28422,1.3909 -3.24939,3.2859 -4.36694,4.2109 -1.11764,0.925 -3.46432,2.6394 -5.21502,3.81 l -3.18308,2.1281 -4.9448,2.23 c -6.23386,2.8116 -13.50837,5.5263 -16.93334,6.3194 -1.45285,0.3366 -3.31912,0.7737 -4.14726,0.9722 l -1.50562,0.36 -0.62792,0.5853 -0.62782,0.5853 v 4.9147 4.915 l 0.9321,0.8687 0.93218,0.8691 1.65662,0.2469 1.65662,0.2469 0.50894,0.5715 0.50892,0.5716 h 2.08381 2.08373 l 1.75419,0.5697 1.75414,0.5693 0.37647,-0.2156 c 0.35444,-0.2031 8.90925,-0.6281 11.55815,-0.5728 0.67054,0 1.85924,0.031 2.64148,0.031 0.78234,0 1.67157,0.087 1.97619,0.1906 l 0.55375,0.1844 -0.50192,0.5637 -0.50197,0.5638 h -0.63468 c -0.3491,0 -1.4697,0.3621 -2.49017,0.805 -1.02053,0.4425 -2.95279,1.28 -4.29386,1.8609 -1.34106,0.5812 -3.53561,1.345296 -4.8767,1.698096 -1.34106,0.3528 -3.03885,0.8791 -3.77293,1.1694 l -1.33453,0.5278 h -1.52138 -1.52133 l -0.88882,0.58 c -1.32867,0.8675 -3.9267,1.6516 -8.23266,2.4847 l -3.86072,0.7469 -4.87667,0.1906 -4.8767,0.1906 -1.56983,-0.55 z m 30.36866,-42.162196 3.60259,-1.3272 1.75868,0.2469 1.7588,0.2468 0.6515,-0.9268 0.65153,-0.9269 -0.24466,-0.9091 -0.24465,-0.909 0.80193,-0.6766 0.802,-0.6766 0.87258,0.4353 0.87259,0.4354 0.61868,-0.4785 0.6186,-0.4787 -0.22619,-1.0538 -0.22591,-1.054 2.02999,-2.1622 c 2.53588,-2.7013 4.58107,-5.5569 5.99589,-8.3716 l 1.09314,-2.1747 2.3e-4,-3.4094 2.7e-4,-3.4093 -1.08123,-2.15 -1.08112,-2.1497 -1.66301,-1.6819 -1.66306,-1.6819 -2.36957,-0.9912 -2.36962,-0.9913 -3.11847,-0.4322 -3.11849,-0.4325 -3.95953,0.4482 c -2.17772,0.2468 -4.26455,0.5297 -4.63733,0.6303 l -0.6779,0.1812 -1.4077,-1.1518 -1.40773,-1.1522 h -0.84645 -0.84644 l -0.42072,0.7325 c -0.23147,0.4031 -0.42066,1.1415 -0.42066,1.6412 v 0.9085 l -1.49215,0.9159 c -0.82063,0.5037 -1.85042,1.37 -2.28837,1.925 l -0.79631,1.0091 -0.33439,5.999 -0.33451,5.9991 -0.0175,10.8187 -0.0175,10.8185 0.50803,0.5972 c 0.27925,0.3284 0.78225,0.6737 1.11755,0.7675 l 0.60963,0.1718 4.67344,-0.9197 4.67352,-0.92 3.60256,-1.3271 z m 38.2558,41.288096 c -0.67053,-0.081 -2.19322,-0.4069 -3.38382,-0.7197 l -2.16465,-0.5694 -1.71369,-1.5972 -1.71364,-1.5975 -1.78514,-4.349996 -1.7851,-4.35 -0.16966,-5.099 -0.16966,-5.0994 0.48264,-2.7891 0.48272,-2.789 0.97866,-2.6822 c 0.53822,-1.475 1.63464,-3.7947 2.43649,-5.1544 1.74597,-2.9609 4.52647,-6.4053 7.17432,-8.8875 l 1.93753,-1.8162 3.36837,-1.5066 3.36828,-1.5066 2.07203,-0.2281 2.07207,-0.2281 2.10831,1.0697 2.10828,1.0694 2.15797,1.9328 2.15797,1.9328 1.01334,1.8753 1.01347,1.875 0.45697,2.0075 0.45691,2.0075 v 4.8112 4.8113 l -0.42425,1.4241 -0.42432,1.424 -0.89422,0.541 -0.89418,0.5409 -2.84475,0.4334 c -2.85219,0.435 -16.86335,3.6788 -19.91322,4.6103 l -1.6256,0.4966 -0.70837,1.35 -0.70834,1.3497 0.68909,1.6806 c 0.379,0.9247 1.11575,2.3263 1.63719,3.1153 l 0.948,1.4341 1.30637,0.7681 1.30638,0.7681 2.47481,-0.1656 2.47484,-0.1656 2.60507,-1.0709 c 1.43284,-0.5891 4.79859,-2.2944 7.47953,-3.7894 l 4.8744,-2.7185 0.55369,0.1969 0.55369,0.1969 -0.21719,1.2481 c -0.11969,0.6863 -0.58606,2.025 -1.03656,2.9744 l -0.81935,1.7266 h -1.00978 -1.00975 l -0.66587,0.6206 -0.66591,0.6206 0.0644,1.5575 c 0.0356,0.8566 0.0481,1.742496 0.025,1.968096 l -0.0375,0.411 -3.56738,1.5803 -3.56747,1.5803 -2.83322,0.5594 c -2.80606,0.554 -3.72156,0.6003 -6.08434,0.3093 z m 3.8845,-27.953096 6.68168,-1.4007 1.69247,-0.6868 1.69241,-0.6869 0.44112,-0.7684 0.44116,-0.7685 v -3.9947 -3.995 l -0.65519,-1.5262 -0.65515,-1.5266 -0.95982,-0.225 -0.95981,-0.225 -1.83447,0.8278 -1.8345,0.8278 -3.03647,2.6432 c -1.67003,1.4537 -3.66,3.4428 -4.42215,4.4197 -0.76219,0.9768 -2.16075,3.169 -3.10797,4.8718 l -1.72219,3.0953 0.28813,0.4344 0.28812,0.4344 0.49063,-0.175 c 0.27,-0.097 3.4974,-0.8059 7.17234,-1.5763 z M 387.9574,104.61885 c -0.80865,-0.2688 -2.13609,-0.8734 -2.94997,-1.3422 l -1.47971,-0.8525 -1.01688,-1.6175 c -0.55928,-0.889396 -1.70062,-3.389096 -2.53637,-5.554396 l -1.5195,-3.9372 0.0375,-6.0612 0.0378,-6.0613 0.88056,-3.0303 0.88053,-3.0306 1.64769,-3.22 1.64775,-3.22 2.20122,-2.6847 c 1.21065,-1.4765 3.21369,-3.5772 4.45112,-4.6681 l 2.24991,-1.9834 3.06078,-1.3185 3.06066,-1.3181 1.97828,-0.2188 1.97834,-0.2187 1.76085,0.8016 1.76093,0.8015 2.52313,2.1047 2.52303,2.105 1.33772,2.5309 1.33765,2.5307 0.13157,6.6393 0.13187,6.6394 -0.4184,1.0219 -0.41835,1.0222 -0.93253,0.5637 -0.93247,0.5641 -3.67,0.5894 c -2.01856,0.3243 -7.13909,1.4506 -11.37897,2.5028 l -7.709,1.9134 -1.82872,0.836 -1.82878,0.8359 0.0687,2.3375 0.0688,2.3375 0.82932,1.7475 0.82928,1.7475 1.42609,0.5556 1.42609,0.5553 h 2.95938 2.95941 l 3.4274,-1.2956 3.42741,-1.2956 0.7719,0.3853 0.77197,0.385 0.74247,-0.6263 c 0.40831,-0.3443 0.84378,-0.9971 0.9676,-1.4509 l 0.22531,-0.8244 2.55672,-1.61 2.55672,-1.61 h 0.74781 0.74778 l 1.16247,-0.7715 c 0.63928,-0.4244 2.00862,-1.1203 3.04278,-1.5469 l 1.88047,-0.7753 0.2125,0.1969 0.2125,0.1968 -0.68116,1.6625 -0.68115,1.6625 -1.5846,1.9516 c -0.87156,1.0734 -1.94956,2.6184 -2.39565,3.4337 l -0.81119,1.4819 -2.05644,1.6769 -2.05641,1.676896 -3.74884,1.7587 -3.74875,1.7588 -1.93397,0.4728 -1.934,0.4731 -0.62897,-0.8372 -0.62903,-0.8372 h -1.09447 -1.09456 l -1.62559,0.9331 c -0.8941,0.5134 -1.89988,0.9312 -2.23519,0.9287 -0.33522,0 -1.27116,-0.225 -2.07981,-0.4947 z m 6.55007,-27.153796 c 3.01746,-0.6231 6.63115,-1.4837 8.03037,-1.9128 l 2.54413,-0.7803 0.44865,-0.7815 0.44875,-0.7816 0.0547,-4.395 0.055,-4.395 -0.84575,-1.3259 -0.84566,-1.326 -1.42318,0.037 -1.42313,0.038 -2.49828,1.5816 -2.49831,1.5812 -0.96553,-0.225 -0.96547,-0.225 -0.66841,0.6232 -0.66834,0.6231 0.24875,0.9244 0.24906,0.9246 -1.61144,1.9838 c -0.88622,1.0912 -2.36975,3.2834 -3.2965,4.8719 l -1.68506,2.8878 v 0.8497 0.85 l 0.91441,-0.2469 c 0.50287,-0.1344 3.38315,-0.7566 6.40059,-1.3797 z m 252.47896,27.410396 -0.90622,-0.1625 -0.82093,-0.9729 -0.82085,-0.9728 v -0.66 -0.6603 l -0.57384,-0.444 -0.57397,-0.4438 -2.46291,0.9663 c -1.35453,0.5312 -3.88512,1.4037 -5.6235,1.9387 l -3.16071,0.9728 -3.6901,0.2156 -3.69015,0.2157 -2.15625,-0.6675 -2.15629,-0.6678 -1.56793,-1.3204 -1.56785,-1.3203 -0.61206,-1.920896 -0.61184,-1.9206 v -1.8082 -1.8081 l 0.98465,-2.5284 0.98453,-2.5285 1.52113,-2.0587 1.52087,-2.0584 2.2695,-1.5275 2.26954,-1.5272 4.87668,-2.2147 4.87678,-2.2144 3.57988,-0.8322 3.58012,-0.8319 0.85332,-0.6443 0.85337,-0.6441 -0.44865,-3.6816 -0.44869,-3.6818 -0.73347,-1.3991 -0.73363,-1.3987 -3.25115,-0.1063 -3.2511,-0.1062 -3.25112,1.4731 -3.25119,1.4731 -3.04787,2.1081 c -1.67641,1.1594 -3.2815,2.3344 -3.56694,2.6113 -0.28563,0.275 -0.95847,1.0144 -1.49575,1.6394 l -0.97669,1.1365 -0.48884,-0.4481 -0.48869,-0.4481 1.09666,-2.5825 c 0.60309,-1.4203 1.679,-3.495 2.39081,-4.6107 l 1.29419,-2.0281 2.38718,-1.8662 c 1.31285,-1.0266 3.14763,-2.2816 4.07725,-2.7894 0.92954,-0.5078 2.50704,-1.1944 3.5055,-1.5256 l 1.8155,-0.6022 2.92469,-0.031 2.9246,-0.031 2.17381,0.9275 2.17378,0.9278 1.48897,1.2187 1.48903,1.2185 0.98581,1.9631 0.98584,1.9631 0.4621,2.0469 0.46209,2.0472 0.39122,5.34 c 0.215,2.9369 0.39391,6.8312 0.39731,8.6544 l 0.009,3.3147 h 0.38247 c 0.21062,0 0.49534,-0.1688 0.6335,-0.3788 l 0.25093,-0.3787 h 0.83957 0.83965 l -0.26375,1.2309 c -0.145,0.6772 -0.80797,2.3159 -1.47322,3.6416 l -1.20934,2.41 v 0.715 0.7153 h 0.42884 c 0.23563,0 1.47019,-0.4978 2.74313,-1.1066 3.41109,-1.6306 5.96128,-2.6816 6.5065,-2.6816 h 0.48122 v 0.3519 c 0,0.1938 -0.74416,1.3963 -1.65363,2.6728 l -1.65359,2.3207 -0.31334,1.8468 -0.31332,1.8469 -0.65847,0.936896 -0.65837,0.9365 -2.14988,1.1379 -2.14987,1.1375 -2.20725,0.6034 c -1.214,0.3322 -2.31134,0.5806 -2.43837,0.5522 -0.12719,-0.031 -0.63885,-0.125 -1.13735,-0.2156 z m -14.53403,-8.624396 3.12206,-0.5569 2.29844,-0.9772 c 1.26406,-0.5372 2.98506,-1.4184 3.82419,-1.9581 l 1.52575,-0.9809 0.81103,-1.2232 0.81097,-1.2234 v -1.5825 -1.5825 l -0.99753,-0.9297 -0.99753,-0.9297 h -0.78166 -0.78169 l -0.61081,-0.8525 -0.61084,-0.8522 -0.77766,0.651 -0.77769,0.6512 -2.75062,0.7922 -2.75066,0.7919 -1.49834,1.2344 c -0.82403,0.679 -2.3601,1.8012 -3.41369,2.494 l -1.91541,1.2594 -0.99034,1.3662 c -0.54456,0.7516 -1.11519,1.7585 -1.26778,2.2375 l -0.2775,0.8707 0.65262,0.9287 0.65275,0.9285 h 2.1901 2.18997 z m -205.9745,6.845896 -1.49109,-1.3897 -1.01603,-1.868996 -1.01597,-1.8688 v -0.9372 -0.9375 l 0.50609,-0.2906 0.50594,-0.2906 h 3.45634 3.45635 l 0.24469,-7.5766 0.24468,-7.5762 0.499,-1.9835 0.49888,-1.9831 -0.13375,-4.9009 -0.13375,-4.9007 -0.9,-0.8918 -0.9001,-0.8919 0.235,-0.8375 0.235,-0.8378 -0.68315,-0.2438 -0.6831,-0.2437 -0.887,0.435 -0.88687,0.435 -2.03203,-0.7244 -2.03197,-0.7244 -0.13844,-0.6412 -0.13844,-0.6413 0.90222,-0.895 0.90216,-0.8953 3.50334,-1.1997 3.50328,-1.2 2.26063,-0.044 2.26056,-0.044 1.12613,0.6878 1.12603,0.6879 0.57562,1.2843 0.57572,1.2841 v 1.9062 1.9063 l 0.508,-3e-4 h 0.508 l 2.32413,-2.4228 2.32409,-2.4225 1.76653,-0.7972 1.76644,-0.7972 h 1.87044 c 1.02868,0 2.17368,0.1094 2.54437,0.2406 l 0.67397,0.2406 0.36519,0.8957 0.36522,0.8953 h 1.15318 1.15322 l 1.04169,1.0415 1.04172,1.0419 1.67587,3.2331 1.67582,3.2335 -0.0219,0.7444 c -0.0125,0.4093 -0.34937,1.91 -0.74794,3.335 l -0.72453,2.5906 -1.792,0.7462 -1.7919,0.7463 -1.07978,0.9619 -1.07975,0.9618 -2.426,-1.015 -2.42597,-1.0147 -0.44128,-0.9028 -0.44122,-0.9028 0.33668,-0.1937 0.33675,-0.1938 0.72691,0.7488 0.72688,0.7484 h 1.07853 1.07853 l 0.66556,-0.4734 0.66563,-0.4735 0.62528,-1.7047 c 0.344,-0.9375 0.62803,-2.0109 0.63131,-2.385 l 0.009,-0.68 -1.01603,-0.9471 c -0.55868,-0.5207 -1.01593,-1.08 -1.01593,-1.2425 0,-0.1625 -0.42329,-0.6663 -0.94054,-1.1194 l -0.94281,-0.8235 h -2.22022 -2.22006 l -0.91219,0.5957 -0.91212,0.5953 -1.15366,2.1509 c -0.63453,1.1831 -1.44853,3.0035 -1.80894,4.045 -0.36046,1.0419 -1.12259,4.4475 -1.69384,7.5681 l -1.03853,5.6744 -0.0406,2.9356 -0.0409,2.936 0.69628,0.9906 0.69634,0.9906 1.74647,0.7203 1.7465,0.72 0.22094,0.7882 0.22094,0.7881 0.8335,-0.4159 0.83359,-0.416 0.79703,0.4641 0.79713,0.464 1.00965,-0.5037 1.00978,-0.5038 1.14891,0.2657 c 0.63184,0.1468 1.42316,0.4868 1.7585,0.7553 0.33531,0.2687 1.11622,0.6 1.7355,0.7372 l 1.12587,0.25 0.8481,-0.4228 0.84806,-0.4232 0.38888,0.3625 0.3889,0.3625 -0.69628,0.6491 -0.69634,0.6491 -0.82372,-0.2 -0.82391,-0.2 -1.04594,0.524996 c -1.58937,0.7971 -4.90987,1.7121 -6.21443,1.7121 h -1.16297 l -1.71103,0.8254 -1.71094,0.8256 -4.47028,0.2812 c -2.45866,0.1532 -6.22247,0.4025 -8.36394,0.5516 l -3.89359,0.2719 -1.49122,-1.39 z m 235.80247,0.2875 c -0.58038,-0.5956 -1.35759,-1.5047 -1.72709,-2.0197 l -0.67194,-0.9368 v -1.051896 -1.0522 l 0.79672,-0.7428 0.79681,-0.7428 2.25062,-0.6097 2.25063,-0.61 0.23187,-0.8606 0.23188,-0.8604 -0.12969,-13.6025 -0.12937,-13.6028 -0.83475,-1.3243 -0.83469,-1.3247 -1.40044,-0.8797 -1.40047,-0.8797 v -0.4475 -0.4475 l 3.86078,-1.2216 c 2.12332,-0.6718 4.22641,-1.2256 4.67354,-1.2309 h 0.81275 l 1.05306,1.2309 1.05309,1.2313 0.51994,1.5153 c 0.28594,0.8334 0.67478,1.6716 0.86381,1.8625 l 0.34391,0.3475 2.95984,-2.8659 2.95981,-2.8657 1.72716,-0.4318 1.72709,-0.4322 1.53294,0.3847 1.53278,0.3846 1.72444,1.1822 1.72431,1.1822 0.97007,1.5728 c 0.53353,0.8653 1.09046,2.1122 1.23746,2.771 l 0.2675,1.1975 -0.45815,2.4012 c -0.25188,1.3206 -0.91963,3.8241 -1.48356,5.5635 l -1.02538,3.1625 -2.40369,2.2968 -2.40359,2.2969 -0.24969,-0.2312 -0.24969,-0.2344 0.69529,-2.6447 0.69518,-2.6447 -0.23125,-3.8803 -0.23125,-3.8806 -0.41022,-0.3822 -0.41021,-0.3825 -2.25675,0.6631 -2.25666,0.6631 -1.25153,1.586 c -0.68831,0.8722 -1.50406,2.1347 -1.81278,2.8053 l -0.56135,1.2194 -1.01568,6.2384 -1.01585,6.2384 v 2.3157 2.3153 l 0.5946,1.0718 c 0.32696,0.5894 0.82996,1.1538 1.11756,1.2538 0.28781,0.1 2.71753,0.059 5.39975,-0.088 l 4.87669,-0.2719 0.36731,0.3063 0.36734,0.3062 -1.11412,1.3616 c -0.61294,0.749 -1.70678,1.7237 -2.431,2.1662 l -1.31669,0.8047 -0.87859,1.249096 -0.87844,1.2494 -1.06294,0.649 -1.06284,0.6494 -3.91966,0.275 c -2.15578,0.15 -5.657,0.3937 -7.78041,0.54 l -3.86071,0.2656 -1.05525,-1.0828 z m 34.71266,0.3828 c -0.48729,-0.3893 -1.35597,-1.3712 -1.93035,-2.1818 l -1.0445,-1.4735 v -0.733696 -0.7341 l 1.13869,-1.0612 1.13853,-1.0613 1.68275,-0.2656 1.68284,-0.2656 0.39232,-0.4441 0.39228,-0.4438 0.0869,-13.2587 0.0869,-13.2588 -0.40575,-1.8128 -0.40581,-1.8131 -0.71557,-0.7372 -0.71565,-0.7369 -2.07722,-0.7215 -2.07728,-0.7213 -0.11094,-0.5165 -0.11094,-0.5169 5.15266,-0.8572 5.15262,-0.8572 1.05403,0.625 c 0.57972,0.3438 1.45897,1.0703 1.95388,1.6147 l 0.89987,0.99 0.26313,1.2313 0.26281,1.2309 h 0.46272 0.46278 l 1.90966,-2.2325 1.90969,-2.2325 2.23415,-1.0187 2.2341,-1.0191 1.3425,0.2687 c 0.7384,0.1469 1.89115,0.5241 2.56171,0.8354 1.56457,0.7262 3.37829,2.2981 4.06544,3.5234 l 0.53866,0.9603 -0.5801,4.9113 -0.58,4.9112 -1.20359,1.7047 c -0.66194,0.9375 -1.51644,2.2587 -1.89891,2.9359 l -0.69528,1.2313 h -0.65797 -0.6579 l -0.0394,-3.1253 -0.0394,-3.1253 -0.69094,-1.6029 -0.69106,-1.6025 -1.32769,-0.765 -1.32775,-0.765 h -1.01953 -1.01956 l -0.81291,1.7994 c -0.44712,0.9897 -1.09912,2.6519 -1.44897,3.6935 -0.69006,2.0546 -2.10584,10.1056 -2.54006,14.4443 l -0.27031,2.7007 0.47481,1.3412 c 0.26094,0.7378 0.69422,1.5081 0.96206,1.7122 l 0.48716,0.3712 2.23522,-0.3728 c 1.22937,-0.2062 3.33237,-0.4187 4.67353,-0.475 1.34106,-0.056 2.73981,-0.225 3.1084,-0.3725 l 0.67016,-0.2718 0.28781,0.434 0.28782,0.4338 -2.67154,2.3943 -2.6715,2.3941 -0.63484,1.479096 -0.635,1.479 -1.30072,0.7163 -1.3009,0.7162 -3.86879,0.2688 c -2.12781,0.1469 -5.51465,0.3906 -7.52634,0.5409 l -3.65747,0.2719 -0.88594,-0.7084 z m 46.19865,0.031 -2.23512,-0.5722 -2.15963,-1.3781 -2.15947,-1.3782 -1.59328,-1.736496 -1.59315,-1.7366 -1.18432,-2.2728 -1.18418,-2.2731 -0.44766,-2.0075 -0.44769,-2.0072 0.009,-3.4856 0.009,-3.4853 0.39516,-2.5469 0.39519,-2.5472 0.87262,-2.3775 c 1.14866,-3.1297 3.01166,-6.5797 4.51038,-8.3525 l 1.20787,-1.4288 2.54878,-1.6953 c 1.40191,-0.9325 3.54816,-2.1218 4.76972,-2.6431 l 2.22075,-0.9478 3.01234,-0.2281 3.01219,-0.2282 2.83572,0.6219 2.83563,0.6222 1.69787,0.9272 1.69781,0.9275 1.25647,1.4791 1.25647,1.4787 1.41066,2.7878 c 0.7759,1.5335 1.70187,3.8106 2.05778,5.061 l 0.64709,2.2728 0.22719,3.5987 0.22719,3.5988 -0.65747,3.22 c -0.36172,1.7709 -0.84506,3.8447 -1.07419,4.6084 l -0.41672,1.3884 -1.41281,0.7769 -1.41278,0.7772 v 0.5859 c 0,0.3225 0.22562,0.9232 0.50128,1.3344 l 0.50125,0.7485 -0.80603,1.4006 c -0.44335,0.7703 -1.65841,2.2709 -2.70013,3.334996 l -1.89406,1.9344 -2.16981,1.1165 -2.16997,1.1169 -5.07988,0.091 -5.07987,0.091 -2.23513,-0.5721 z m 9.73572,-7.843496 2.24131,-0.4734 1.555,-1.4441 1.55503,-1.444 0.78985,-1.7178 0.79003,-1.7178 0.44781,-2.691 0.44785,-2.6906 -0.27032,-5.3225 c -0.14843,-2.9275 -0.26281,-6.1144 -0.25343,-7.0822 l 0.0187,-1.76 -1.09766,-0.6703 c -0.60384,-0.3688 -2.071,-1.4094 -3.26059,-2.3125 l -2.16272,-1.6422 h -1.33282 -1.33284 l -2.08641,0.5775 -2.08643,0.5778 -1.30903,1.0266 -1.3091,1.0269 -1.54569,2.229 -1.54568,2.2294 -0.24782,1.375 c -0.13656,0.7566 -0.33318,1.6662 -0.43731,2.0216 -0.10437,0.3553 -0.91125,1.4603 -1.79334,2.4553 l -1.60391,1.8093 v 0.5857 0.5856 l 0.75003,0.5987 0.75007,0.5985 0.27906,2.2144 0.27906,2.2143 1.75681,3.4569 1.75688,3.4572 1.19106,0.7906 c 1.40584,0.9331 3.45569,1.53 5.41663,1.5775 0.77578,0.031 2.41906,-0.1781 3.65178,-0.4394 z m 36.27588,7.452196 -2.10216,-0.9762 -1.04497,-1.1578 c -0.57472,-0.6366 -1.38531,-1.779396 -1.80134,-2.539396 l -0.75635,-1.3822 -0.44343,-2.2356 -0.44325,-2.236 -0.0281,-10.0637 -0.0281,-10.0638 -0.31782,-0.7578 -0.31778,-0.7575 h -2.93287 -2.93285 l -1.5975,-1.5953 -1.5974,-1.5953 v -0.9669 -0.9668 l -0.47057,-0.7022 -0.47043,-0.7025 0.22156,-0.5382 0.22156,-0.5381 2.39747,-1.1715 2.39741,-1.1713 2.345,-0.4894 2.34487,-0.489 0.48488,-0.7872 0.48484,-0.7872 -0.10437,-7.7006 -0.10438,-7.7007 -0.43194,-0.7525 -0.43187,-0.7521 0.48434,-0.5441 0.48428,-0.5441 h 0.8115 0.81153 l 2.37804,1.3466 2.37812,1.3466 0.85541,1.12 0.85547,1.1196 0.23625,5.7382 0.23625,5.7378 0.75481,0.7037 0.75478,0.7035 1.11137,-0.25 c 0.61125,-0.1375 1.75144,-0.5444 2.53379,-0.9053 l 1.42237,-0.656 3.1925,-0.2719 3.19253,-0.275 1.48097,-0.5881 1.48094,-0.5881 2.12928,-0.038 2.12912,-0.037 0.19907,0.4841 0.19937,0.4837 -0.70275,0.5341 c -0.3865,0.2937 -1.56053,1.184 -2.6089,1.9784 -1.04838,0.7944 -3.45738,2.7359 -5.35329,4.3147 l -3.44709,2.8703 -3.58737,1.2644 c -1.973,0.6956 -3.86163,1.4981 -4.19694,1.7831 l -0.60953,0.5188 -0.13094,10.499 -0.13094,10.4994 0.26344,2.0012 0.26344,2.0013 0.94312,1.0219 0.94297,1.0218 1.24909,-0.5606 1.24916,-0.5609 4.62572,-4.2185 c 2.54416,-2.3203 5.02216,-4.4162 5.50678,-4.6581 l 0.88113,-0.4394 0.3469,0.2 0.34688,0.2 -0.32853,1.6169 c -0.18063,0.8894 -0.62054,2.2635 -0.97744,3.0535 l -0.64888,1.4362 -1.26128,1.0506 -1.26122,1.0507 0.47028,0.819 0.47032,0.8191 -0.63813,1.4294 -0.63815,1.429 -1.70788,1.657196 c -0.93944,0.9116 -2.521,2.1472 -3.51469,2.7466 l -1.80681,1.0893 h -2.27887 -2.279 l -2.10229,-0.9765 z"
     id="path4376"
     inkscape:connector-curvature="0" />
  <text
     xml:space="preserve"
     style="font-style:normal;font-variant:normal;font-weight:normal;font-stretch:normal;font-size:33.33333588px;line-height:1.25;font-family:Lavi;-inkscape-font-specification:'Lavi, Normal';font-variant-ligatures:normal;font-variant-caps:normal;font-variant-numeric:normal;font-feature-settings:normal;text-align:center;letter-spacing:0px;word-spacing:0px;writing-mode:lr-tb;text-anchor:middle;fill:#000000;fill-opacity:1;stroke:none;stroke-width:3.125"
     x="347.73135"
     y="174.42786"
     id="text5915"><tspan
       sodipodi:role="line"
       id="tspan5913"
       x="347.73135"
       y="204.94958"
       style="stroke-width:3.125" /></text>
  <text
     xml:space="preserve"
     style="font-style:normal;font-variant:normal;font-weight:normal;font-stretch:normal;font-size:41.66666412px;line-height:1.25;font-family:Lavi;-inkscape-font-specification:'Lavi, Normal';font-variant-ligatures:normal;font-variant-caps:normal;font-variant-numeric:normal;font-feature-settings:normal;text-align:center;letter-spacing:0px;word-spacing:0px;writing-mode:lr-tb;text-anchor:middle;fill:#301b0b;fill-opacity:1;stroke:none;stroke-width:3.125"
     x="492.72986"
     y="213.38965"
     id="text5921"><tspan
       sodipodi:role="line"
       id="tspan5919"
       x="492.72986"
       y="213.38965"
       style="font-size:33.33333588px;stroke-width:3.125">#24 - Graduates</tspan></text>
  <text
     xml:space="preserve"
     style="font-style:normal;font-variant:normal;font-weight:normal;font-stretch:normal;font-size:41.66666412px;line-height:1.25;font-family:Lavi;-inkscape-font-specification:Lavi;font-variant-ligatures:normal;font-variant-caps:normal;font-variant-numeric:normal;font-feature-settings:normal;text-align:center;letter-spacing:0px;word-spacing:0px;writing-mode:lr-tb;text-anchor:middle;fill:#ffa800;fill-opacity:1;stroke:#d95923;stroke-width:3.125;stroke-opacity:1"
     x="833.76288"
     y="-126.10855"
     id="text5925"
     transform="rotate(19.953943)"><tspan
       sodipodi:role="line"
       id="tspan5923"
       x="833.76288"
       y="-126.10855"
       style="font-style:normal;font-variant:normal;font-weight:bold;font-stretch:normal;font-size:58.33332825px;font-family:Lavi;-inkscape-font-specification:'Lavi Bold';fill:#ffa800;fill-opacity:1;stroke:#d95923;stroke-width:3.125;stroke-opacity:1">MINI</tspan></text>
  <text
     xml:space="preserve"
     style="font-style:normal;font-variant:normal;font-weight:normal;font-stretch:normal;font-size:41.66666412px;line-height:1.25;font-family:Lavi;-inkscape-font-specification:'Lavi, Normal';font-variant-ligatures:normal;font-variant-caps:normal;font-variant-numeric:normal;font-feature-settings:normal;text-align:center;letter-spacing:0px;word-spacing:0px;writing-mode:lr-tb;text-anchor:middle;fill:#000000;fill-opacity:1;stroke:none;stroke-width:3.125"
     x="762.43542"
     y="299.21524"
     id="text7073"><tspan
       sodipodi:role="line"
       id="tspan7071"
       x="762.43542"
       y="299.21524"
       style="stroke-width:3.125">?</tspan></text>
  <text
     xml:space="preserve"
     style="font-style:normal;font-variant:normal;font-weight:normal;font-stretch:normal;font-size:41.66666412px;line-height:1.25;font-family:Lavi;-inkscape-font-specification:'Lavi, Normal';font-variant-ligatures:normal;font-variant-caps:normal;font-variant-numeric:normal;font-feature-settings:normal;text-align:center;letter-spacing:0px;word-spacing:0px;writing-mode:lr-tb;text-anchor:middle;fill:#000000;fill-opacity:1;stroke:none;stroke-width:3.125"
     x="261.49344"
     y="810.79358"
     id="text7077"><tspan
       sodipodi:role="line"
       id="tspan7075"
       x="261.49344"
       y="810.79358"
       style="stroke-width:3.125">!!</tspan></text>
  <path
     style="color:#000000;display:inline;overflow:visible;visibility:visible;fill:#ffffff;fill-opacity:1;fill-rule:nonzero;stroke:none;stroke-width:0.39211795px;marker:none;enable-background:accumulate"
     d="m 168.70872,268.28305 c 0,-17.51453 39.69748,-25.02082 72.58962,-26.02167 32.89217,-1.00066 79.96201,1.5014 81.09622,14.01175 1.1342,12.51022 -7.37238,24.52033 -15.87898,27.02233 -8.50658,2.50205 -53.8751,7.50617 -67.48568,8.00665 -13.61054,0.50036 -68.05273,9.00751 -70.32118,-23.01906 z"
     id="path4974"
     inkscape:connector-curvature="0" />
  <path
     style="color:#000000;display:inline;overflow:visible;visibility:visible;fill:#ffffff;fill-opacity:1;fill-rule:nonzero;stroke:none;stroke-width:0.35264573px;marker:none;enable-background:accumulate"
     d="m 259.27076,313.90617 c -15.71261,-19.96984 -18.42428,-27.97208 -9.4689,-46.40374 8.95538,-18.43165 15.20023,-13.97874 15.20023,-13.97874 0,0 -25.06083,29.04909 -5.73133,60.38248 z"
     id="path5002"
     inkscape:connector-curvature="0" />
  <path
     style="color:#000000;display:inline;overflow:visible;visibility:visible;fill:#ffffff;fill-opacity:1;fill-rule:nonzero;stroke:none;stroke-width:0.46530762px;marker:none;enable-background:accumulate"
     d="m 228.80237,276.98634 c 43.12084,-11.65899 61.92666,-13.85352 111.7172,-8.40215 49.79043,5.45142 41.34281,9.9457 41.34281,9.9457 0,0 -83.13434,-16.15727 -153.06001,-1.54355 z"
     id="path5002-3"
     inkscape:connector-curvature="0" />
  <text
     xml:space="preserve"
     style="font-style:normal;font-variant:normal;font-weight:normal;font-stretch:normal;font-size:41.66666412px;line-height:0.60000002;font-family:Lavi;-inkscape-font-specification:'Lavi, Normal';font-variant-ligatures:normal;font-variant-caps:normal;font-variant-numeric:normal;font-feature-settings:normal;text-align:center;letter-spacing:0px;word-spacing:0px;writing-mode:lr-tb;text-anchor:middle;fill:#000000;fill-opacity:1;stroke:none;stroke-width:3.125"
     x="243.57111"
     y="273.8606"
     id="text7113"><tspan
       sodipodi:role="line"
       x="243.57111"
       y="273.8606"
       style="font-size:20.83333397px;line-height:0.60000002;stroke-width:3.125"
       id="tspan7115">Hey, Saffron!</tspan></text>
  <text
     xml:space="preserve"
     style="font-style:normal;font-variant:normal;font-weight:normal;font-stretch:normal;font-size:41.66666412px;line-height:0.60000002;font-family:Lavi;-inkscape-font-specification:'Lavi, Normal';font-variant-ligatures:normal;font-variant-caps:normal;font-variant-numeric:normal;font-feature-settings:normal;text-align:center;letter-spacing:0px;word-spacing:0px;writing-mode:lr-tb;text-anchor:middle;fill:#000000;fill-opacity:1;stroke:none;stroke-width:3.125"
     x="493.67981"
     y="1240.1655"
     id="text7113-0"><tspan
       sodipodi:role="line"
       x="493.67981"
       y="1240.1655"
       style="font-size:20.83333397px;line-height:0.60000002;stroke-width:3.125"
       id="tspan7142">By Nicolas Artance</tspan><tspan
       sodipodi:role="line"
       x="493.67981"
       y="1265.1655"
       style="font-size:20.83333397px;line-height:0.60000002;stroke-width:3.125"
       id="tspan985"></tspan><tspan
       sodipodi:role="line"
       x="497.34192"
       y="1290.1655"
       style="font-size:20.83333397px;line-height:0.60000002;stroke-width:3.125"
       id="tspan987">Based on the CC-BY webcomic </tspan><tspan
       sodipodi:role="line"
       x="493.67981"
       y="1315.1655"
       style="font-size:20.83333397px;line-height:0.60000002;stroke-width:3.125"
       id="tspan989">Pepper&amp;Carrot by David Revoy</tspan></text>
  <text
     xml:space="preserve"
     style="font-style:normal;font-variant:normal;font-weight:normal;font-stretch:normal;line-height:0%;font-family:Lavi;-inkscape-font-specification:Lavi;letter-spacing:0px;word-spacing:0px;fill:#000000;fill-opacity:1;stroke:#000000;stroke-width:0.99236238;stroke-miterlimit:4;stroke-dasharray:none;stroke-opacity:1;filter:url(#filter4375-4-1-1-1-9-5-2)"
     x="787.65729"
     y="1584.5073"
     id="text4580-6-5"
     transform="matrix(0.20697903,-0.08583294,-0.0317945,0.21756129,73.446988,876.58925)"><tspan
       sodipodi:role="line"
       id="tspan4582-1-1"
       x="787.65729"
       y="1584.5073"
       style="font-size:90.42871857px;line-height:1.25;fill:#000000">Kriii!</tspan></text>
  <g
     id="surface1"
     transform="matrix(1.3342933,0,0,1.1594588,441.17249,1347.7533)">
    <path
       id="path7229"
       d="m 2.300781,0.375 83.128907,0.148438 c 1.160156,0 2.199218,-0.171875 2.199218,2.332031 L 87.527344,30.410156 H 0.203125 V 2.753906 C 0.203125,1.519531 0.324219,0.375 2.300781,0.375 Z"
       style="fill:#a8b0ab;fill-opacity:1;fill-rule:nonzero;stroke:none"
       inkscape:connector-curvature="0" />
    <path
       id="path7231"
       d="M 86.351563,0 H 1.648438 C 0.738281,0 0,0.742188 0,1.65625 V 30.625 C 0,30.832031 0.167969,31 0.371094,31 H 87.628906 C 87.832031,31 88,30.832031 88,30.625 V 1.65625 C 88,0.742188 87.261719,0 86.351563,0 Z M 1.648438,0.75 h 84.703125 c 0.5,0 0.902343,0.40625 0.902343,0.90625 0,0 0,11.699219 0,20.132813 H 26.515625 c -2.21875,4.039062 -6.492187,6.78125 -11.398437,6.78125 -4.910157,0 -9.183594,-2.738282 -11.402344,-6.78125 h -2.96875 c 0,-8.433594 0,-20.132813 0,-20.132813 0,-0.5 0.402344,-0.90625 0.902344,-0.90625 z"
       style="fill:#000000;fill-opacity:1;fill-rule:nonzero;stroke:none"
       inkscape:connector-curvature="0" />
    <path
       id="path7233"
       d="m 54.125,24.171875 c 0.234375,0 0.445313,0.01953 0.636719,0.05859 0.191406,0.04297 0.351562,0.109375 0.488281,0.203125 0.136719,0.09375 0.242188,0.21875 0.316406,0.375 0.07422,0.152344 0.113282,0.34375 0.113282,0.574219 0,0.246093 -0.05469,0.449218 -0.167969,0.613281 -0.109375,0.164062 -0.273438,0.300781 -0.492188,0.40625 0.300782,0.08594 0.523438,0.238281 0.671875,0.453125 0.148438,0.21875 0.222657,0.480469 0.222657,0.785156 0,0.246094 -0.04687,0.460938 -0.144532,0.640625 -0.09375,0.179688 -0.222656,0.328125 -0.382812,0.441406 -0.164063,0.113282 -0.347656,0.199219 -0.554688,0.253907 -0.207031,0.05469 -0.417968,0.08203 -0.636718,0.08203 H 51.835938 V 24.17187 Z m -0.136719,1.976563 c 0.191407,0 0.347657,-0.04687 0.472657,-0.136719 0.121093,-0.09375 0.183593,-0.238281 0.183593,-0.445313 0,-0.113281 -0.01953,-0.207031 -0.0625,-0.277343 -0.03906,-0.07422 -0.09375,-0.132813 -0.164062,-0.171875 -0.06641,-0.04297 -0.144531,-0.07031 -0.234375,-0.08594 -0.08594,-0.01563 -0.179688,-0.02344 -0.273438,-0.02344 H 52.90625 v 1.140625 z m 0.0625,2.074218 c 0.105469,0 0.207032,-0.01172 0.300782,-0.03125 0.09766,-0.01953 0.179687,-0.05469 0.253906,-0.101562 0.07031,-0.05078 0.128906,-0.113281 0.171875,-0.195313 0.04297,-0.08203 0.06641,-0.1875 0.06641,-0.316406 0,-0.25 -0.07031,-0.429687 -0.210937,-0.535156 -0.140625,-0.109375 -0.328125,-0.160156 -0.558594,-0.160156 H 52.90625 v 1.339843 z"
       style="fill:#ffffff;fill-opacity:1;fill-rule:nonzero;stroke:none"
       inkscape:connector-curvature="0" />
    <path
       id="path7235"
       d="m 56.101563,24.171875 h 1.199218 l 1.136719,1.929688 1.128906,-1.929688 h 1.191407 l -1.800782,3.011719 v 1.875 H 57.886719 V 27.15625 Z"
       style="fill:#ffffff;fill-opacity:1;fill-rule:nonzero;stroke:none"
       inkscape:connector-curvature="0" />
    <path
       id="path7237"
       d="m 25.121094,14.472656 c 0.0039,5.554688 -4.472656,10.0625 -9.996094,10.066407 -5.519531,0.0039 -10,-4.5 -10.003906,-10.054688 0,-0.0039 0,-0.0078 0,-0.01172 C 5.117188,8.914063 9.59375,4.40625 15.113281,4.402344 c 5.523438,-0.00391 10.003907,4.5 10.007813,10.058594 0,0 0,0.0078 0,0.01172 z"
       style="fill:#ffffff;fill-opacity:1;fill-rule:nonzero;stroke:none"
       inkscape:connector-curvature="0" />
    <path
       id="path7239"
       d="m 23.25,6.273438 c 2.214844,2.234375 3.324219,4.964843 3.324219,8.199218 0,3.230469 -1.089844,5.933594 -3.269531,8.109375 -2.3125,2.289063 -5.042969,3.433594 -8.199219,3.433594 -3.113281,0 -5.800781,-1.136719 -8.054688,-3.40625 C 4.792969,20.339844 3.667969,17.625 3.667969,14.472656 c 0,-3.15625 1.125,-5.890625 3.382812,-8.199218 2.195313,-2.230469 4.882813,-3.347657 8.054688,-3.347657 3.210937,0 5.925781,1.117188 8.144531,3.347657 z M 8.542969,7.777344 c -1.875,1.902344 -2.8125,4.136719 -2.8125,6.695312 0,2.5625 0.929687,4.773438 2.78125,6.640625 1.855469,1.867188 4.066406,2.800782 6.628906,2.800782 2.5625,0 4.789063,-0.941407 6.683594,-2.828125 1.796875,-1.753907 2.695312,-3.957032 2.695312,-6.613282 0,-2.636718 -0.914062,-4.871093 -2.738281,-6.710937 -1.828125,-1.839844 -4.039062,-2.757813 -6.640625,-2.757813 -2.601562,0 -4.800781,0.925782 -6.597656,2.773438 z m 4.933594,5.570312 C 13.1875,12.71875 12.761719,12.40625 12.1875,12.40625 c -1.011719,0 -1.515625,0.683594 -1.515625,2.054688 0,1.367187 0.503906,2.050781 1.515625,2.050781 0.667969,0 1.144531,-0.332031 1.429688,-1 l 1.402343,0.75 c -0.667968,1.195312 -1.667968,1.792969 -3.003906,1.792969 -1.03125,0 -1.859375,-0.316407 -2.476562,-0.953125 -0.621094,-0.636719 -0.933594,-1.511719 -0.933594,-2.628907 0,-1.101562 0.320312,-1.972656 0.960937,-2.617187 0.640625,-0.644531 1.4375,-0.96875 2.390625,-0.96875 1.414063,0 2.421875,0.5625 3.035157,1.679687 z m 6.589843,0 C 19.78125,12.71875 19.359375,12.40625 18.808594,12.40625 c -1.03125,0 -1.550781,0.683594 -1.550781,2.054688 0,1.367187 0.519531,2.050781 1.550781,2.050781 0.667969,0 1.136719,-0.332031 1.402344,-1 l 1.433593,0.75 c -0.667968,1.195312 -1.667968,1.792969 -3.003906,1.792969 -1.027344,0 -1.851562,-0.316407 -2.46875,-0.953125 -0.621094,-0.636719 -0.929687,-1.511719 -0.929687,-2.628907 0,-1.101562 0.3125,-1.972656 0.941406,-2.617187 0.628906,-0.644531 1.429687,-0.96875 2.402344,-0.96875 1.410156,0 2.417968,0.5625 3.027343,1.679687 z"
       style="fill:#000000;fill-opacity:1;fill-rule:nonzero;stroke:none"
       inkscape:connector-curvature="0" />
    <path
       id="path7241"
       d="m 63.804688,11.230469 c 0,4.378906 -3.527344,7.925781 -7.875,7.925781 -4.351563,0 -7.875,-3.546875 -7.875,-7.925781 0,-4.375 3.523437,-7.925781 7.875,-7.925781 4.347656,0 7.875,3.550781 7.875,7.925781 z"
       style="fill:#ffffff;fill-opacity:1;fill-rule:nonzero;stroke:none"
       inkscape:connector-curvature="0" />
    <path
       id="path7243"
       d="m 58.207031,8.9375 c 0,-0.304687 -0.246093,-0.550781 -0.546875,-0.550781 h -3.480468 c -0.300782,0 -0.546875,0.246094 -0.546875,0.550781 v 3.5 h 0.96875 v 4.148438 h 2.636718 V 12.4375 h 0.96875 z"
       style="fill:#000000;fill-opacity:1;fill-rule:nonzero;stroke:none"
       inkscape:connector-curvature="0" />
    <path
       id="path7245"
       d="m 57.109375,6.726563 c 0,0.660156 -0.53125,1.199218 -1.1875,1.199218 -0.660156,0 -1.191406,-0.539062 -1.191406,-1.199218 0,-0.660157 0.53125,-1.195313 1.191406,-1.195313 0.65625,0 1.1875,0.535156 1.1875,1.195313 z"
       style="fill:#000000;fill-opacity:1;fill-rule:nonzero;stroke:none"
       inkscape:connector-curvature="0" />
    <path
       id="path7247"
       d="m 55.910156,2.5 c -2.355468,0 -4.351562,0.828125 -5.984375,2.480469 -1.671875,1.710937 -2.507812,3.738281 -2.507812,6.078125 0,2.335937 0.835937,4.347656 2.507812,6.03125 1.675782,1.683594 3.671875,2.523437 5.984375,2.523437 2.339844,0 4.371094,-0.847656 6.085938,-2.542968 1.617187,-1.613282 2.429687,-3.617188 2.429687,-6.011719 0,-2.398438 -0.824218,-4.421875 -2.46875,-6.078125 C 60.308594,3.328125 58.292969,2.5 55.910156,2.5 Z m 0.01953,1.539063 c 1.929687,0 3.570312,0.683593 4.917968,2.054687 1.363282,1.355469 2.042969,3.007813 2.042969,4.964844 0,1.964844 -0.667969,3.601562 -2,4.898437 -1.40625,1.398438 -3.058594,2.097657 -4.960937,2.097657 -1.902344,0 -3.539063,-0.691407 -4.917969,-2.078125 -1.375,-1.382813 -2.0625,-3.023438 -2.0625,-4.917969 0,-1.898438 0.695312,-3.554688 2.085937,-4.964844 C 52.367188,4.722656 54,4.039063 55.929688,4.039063 Z"
       style="fill:#000000;fill-opacity:1;fill-rule:evenodd;stroke:none"
       inkscape:connector-curvature="0" />
  </g>
  <path
     style="color:#000000;display:inline;overflow:visible;visibility:visible;fill:#ffffff;fill-opacity:1;fill-rule:nonzero;stroke:none;stroke-width:0.65799081px;marker:none;enable-background:accumulate"
     d="m 348.24518,274.6561 c 1.60525,-31.64949 63.95942,-41.41766 115.14589,-40.08096 51.18652,1.33702 124.07564,10.35932 124.69094,33.07452 0.61527,22.71494 -13.69963,43.60428 -27.14312,47.31206 -13.44347,3.70789 -84.37771,8.41223 -105.56631,8.01513 -21.1885,-0.39732 -106.53889,9.7695 -107.1274,-48.32075 z"
     id="path4974-4"
     inkscape:connector-curvature="0" />
  <text
     xml:space="preserve"
     style="font-style:normal;font-variant:normal;font-weight:normal;font-stretch:normal;font-size:41.66666412px;line-height:0.60000002;font-family:Lavi;-inkscape-font-specification:'Lavi, Normal';font-variant-ligatures:normal;font-variant-caps:normal;font-variant-numeric:normal;font-feature-settings:normal;text-align:center;letter-spacing:0px;word-spacing:0px;writing-mode:lr-tb;text-anchor:middle;fill:#000000;fill-opacity:1;stroke:none;stroke-width:3.125"
     x="467.81238"
     y="262.12018"
     id="text7113-8"><tspan
       sodipodi:role="line"
       x="467.81238"
       y="262.12018"
       style="font-size:20.83333397px;line-height:0.60000002;stroke-width:3.125"
       id="tspan892">Guess who has</tspan><tspan
       sodipodi:role="line"
       x="467.81238"
       y="287.12018"
       style="font-size:20.83333397px;line-height:0.60000002;stroke-width:3.125"
       id="tspan996">just received her</tspan><tspan
       sodipodi:role="line"
       x="467.81238"
       y="312.12018"
       style="font-size:20.83333397px;line-height:0.60000002;stroke-width:3.125"
       id="tspan998">witch degree?</tspan></text>
  <path
     style="color:#000000;display:inline;overflow:visible;visibility:visible;fill:#ffffff;fill-opacity:1;fill-rule:nonzero;stroke:none;stroke-width:0.37715778px;marker:none;filter:url(#filter4386);enable-background:accumulate"
     d="m 419.5517,741.68265 c 2.25368,25.9475 -40.75626,36.3551 -52.19493,38.58582 -11.43871,2.23109 -116.42704,0.42209 -122.1839,-24.52679 -5.75682,-24.94857 48.47816,-41.64886 101.92287,-39.57264 53.44474,2.07655 72.78698,14.90658 72.45596,25.51361 z"
     id="path3145"
     inkscape:connector-curvature="0"
     sodipodi:nodetypes="ccssc" />
  <path
     style="color:#000000;display:inline;overflow:visible;visibility:visible;fill:#ffffff;fill-opacity:1;fill-rule:nonzero;stroke:none;stroke-width:0.21499501px;marker:none;enable-background:accumulate"
     d="m 599.87215,825.96423 c 1.33684,-19.56917 1.82205,-33.85407 -8.87425,-45.23646 -10.69628,-11.38235 -15.82459,-11.66054 -17.96683,-12.29659 -1.84105,2.12274 -3.22731,6.74324 -3.00004,8.05521 -3.0568,-2.85553 -15.90587,-9.06942 -23.4838,-9.33544 -7.57791,-0.26601 -7.81664,4.73131 -7.81664,4.73131 0,0 26.17372,3.44265 35.87901,12.54681 -0.14694,-3.39839 -0.51795,-9.87532 1.16655,-10.09663 1.6845,-0.22127 12.38787,7.24932 15.05742,12.58707 2.66957,5.33779 10.83568,18.94487 9.03858,39.04472 z"
     id="path3923"
     inkscape:connector-curvature="0" />
  <path
     style="color:#000000;display:inline;overflow:visible;visibility:visible;fill:#ffffff;fill-opacity:1;fill-rule:nonzero;stroke:none;stroke-width:0.21803373px;marker:none;enable-background:accumulate"
     d="m 469.26315,762.34748 c 1.49316,-14.24157 14.01707,-24.1727 45.5414,-20.13464 16.88613,2.16298 36.08469,3.9287 34.09382,24.8 -1.99089,20.87128 -29.61433,19.15248 -35.33812,19.39802 -5.72379,0.24557 -35.3681,-3.21847 -40.31532,-10.55843 -3.09684,-4.59462 -4.23063,-9.08513 -3.98178,-13.50495 z"
     id="path4546-6"
     inkscape:connector-curvature="0"
     sodipodi:nodetypes="cssssc" />
  <path
     style="fill:#ffffff;fill-rule:evenodd;stroke:none;stroke-width:0.26013792px;stroke-linecap:butt;stroke-linejoin:miter;stroke-opacity:1"
     d="m 615.50214,824.92198 c 4.26543,55.84668 -1.46568,109.76516 -6.42254,164.42927 -27.57502,14.00295 -36.64886,31.79295 -39.32651,63.70375 2.29999,-39.6035 10.24868,-48.1524 35.25419,-67.30466 8.75377,-53.39694 7.98644,-107.21826 7.11527,-161.95318 z"
     id="path4412"
     inkscape:connector-curvature="0"
     sodipodi:nodetypes="cccccc" />
  <path
     style="color:#000000;display:inline;overflow:visible;visibility:visible;fill:#ffffff;fill-opacity:1;fill-rule:nonzero;stroke:none;stroke-width:0.36472452px;marker:none;enable-background:accumulate"
     d="m 562.63752,821.16247 c 2.99853,-20.954 32.41479,-25.90868 55.89479,-23.77058 23.48002,2.13816 56.40718,9.90477 55.06911,24.9869 -1.33805,15.08212 -9.42227,28.58789 -15.87876,30.71869 -6.45646,2.13084 -39.46306,3.51698 -49.19372,2.73549 -9.73063,-0.78154 -49.76692,3.87531 -45.89142,-34.6705 z"
     id="path4974-0"
     inkscape:connector-curvature="0" />
  <path
     style="color:#000000;display:inline;overflow:visible;visibility:visible;fill:#ffffff;fill-opacity:1;fill-rule:nonzero;stroke:none;stroke-width:0.22650437px;marker:none;enable-background:accumulate"
     d="m 542.77411,1000.9156 c 7.61657,-14.76996 25.03189,-24.30132 68.42042,-23.47058 43.38857,0.83084 51.4544,3.53098 57.29519,7.47738 5.84072,3.94641 14.46282,26.5862 10.01273,42.164 -4.45014,15.5778 -22.25056,31.9864 -64.80471,30.7403 -42.55417,-1.2463 -42.64161,-1.8145 -49.22934,-4.985 -12.51594,-6.0234 -29.31083,-37.1561 -21.69429,-51.9261 z"
     id="path4530"
     inkscape:connector-curvature="0"
     sodipodi:nodetypes="zsssssz" />
  <path
     style="color:#000000;display:inline;overflow:visible;visibility:visible;fill:#ffffff;fill-opacity:1;fill-rule:nonzero;stroke:none;stroke-width:0.29429281px;marker:none;enable-background:accumulate"
     d="m 528.44318,969.5875 c 10.60019,25.33687 15.30696,31.8841 28.09548,31.6742 12.78843,-0.2098 10.77593,-8.61665 10.77593,-8.61665 0,0 -21.55738,11.34155 -38.87141,-23.05755 z"
     id="path5002-6"
     inkscape:connector-curvature="0" />
  <text
     xml:space="preserve"
     style="font-style:normal;font-variant:normal;font-weight:normal;font-stretch:normal;font-size:18.66666603px;line-height:1.25;font-family:Lavi;-inkscape-font-specification:'Lavi, Normal';font-variant-ligatures:normal;font-variant-caps:normal;font-variant-numeric:normal;font-feature-settings:normal;text-align:center;letter-spacing:0px;word-spacing:0px;writing-mode:lr-tb;text-anchor:middle;fill:#000000;fill-opacity:1;stroke:none"
     x="334.83563"
     y="745.1452"
     id="text2328"><tspan
       sodipodi:role="line"
       x="334.83563"
       y="745.1452"
       id="tspan1004">Hum... let me</tspan><tspan
       sodipodi:role="line"
       x="334.83563"
       y="768.47852"
       id="tspan1010">guess...</tspan></text>
  <text
     xml:space="preserve"
     style="font-style:normal;font-variant:normal;font-weight:normal;font-stretch:normal;font-size:18.66666603px;line-height:1.25;font-family:Lavi;-inkscape-font-specification:'Lavi, Normal';font-variant-ligatures:normal;font-variant-caps:normal;font-variant-numeric:normal;font-feature-settings:normal;text-align:center;letter-spacing:0px;word-spacing:0px;writing-mode:lr-tb;text-anchor:middle;fill:#000000;fill-opacity:1;stroke:none"
     x="508.04895"
     y="768.00842"
     id="text2334"><tspan
       sodipodi:role="line"
       id="tspan2332"
       x="508.04895"
       y="768.00842">Me?</tspan></text>
  <text
     xml:space="preserve"
     style="font-style:normal;font-variant:normal;font-weight:normal;font-stretch:normal;font-size:18.66666603px;line-height:1.25;font-family:Lavi;-inkscape-font-specification:'Lavi, Normal';font-variant-ligatures:normal;font-variant-caps:normal;font-variant-numeric:normal;font-feature-settings:normal;text-align:center;letter-spacing:0px;word-spacing:0px;writing-mode:lr-tb;text-anchor:middle;fill:#000000;fill-opacity:1;stroke:none"
     x="618.70245"
     y="818.76581"
     id="text2338"><tspan
       sodipodi:role="line"
       x="618.70245"
       y="818.76581"
       id="tspan2340">Like,</tspan><tspan
       sodipodi:role="line"
       x="618.70245"
       y="842.09912"
       id="tspan1014">several?</tspan></text>
  <text
     xml:space="preserve"
     style="font-style:normal;font-variant:normal;font-weight:normal;font-stretch:normal;font-size:18.66666603px;line-height:1.25;font-family:Lavi;-inkscape-font-specification:'Lavi, Normal';font-variant-ligatures:normal;font-variant-caps:normal;font-variant-numeric:normal;font-feature-settings:normal;text-align:center;letter-spacing:0px;word-spacing:0px;writing-mode:lr-tb;text-anchor:middle;fill:#000000;fill-opacity:1;stroke:none"
     x="610.04065"
     y="1001.5618"
     id="text2344"><tspan
       sodipodi:role="line"
       x="610.04065"
       y="1001.5618"
       id="tspan2352">Since those</tspan><tspan
       sodipodi:role="line"
       x="610.04065"
       y="1024.8951"
       id="tspan1021">last three</tspan><tspan
       sodipodi:role="line"
       x="610.04065"
       y="1048.2285"
       id="tspan1023">years?</tspan></text>
  <text
     xml:space="preserve"
     style="font-style:normal;font-variant:normal;font-weight:normal;font-stretch:normal;line-height:0%;font-family:Lavi;-inkscape-font-specification:Lavi;text-align:center;letter-spacing:0px;word-spacing:0px;text-anchor:middle;display:inline;opacity:0.6;fill:#000000;fill-opacity:1;stroke:none;stroke-width:1.27569795;filter:url(#filter4213)"
     x="-447.29675"
     y="2872.5061"
     id="text4246-85"
     transform="matrix(0.61655851,0.01619223,-0.10823975,0.68344058,2050.2392,-1260.8278)"><tspan
       sodipodi:role="line"
       style="font-style:normal;font-variant:normal;font-weight:normal;font-stretch:normal;font-size:68.81560516px;line-height:1.26999998;font-family:Fondamento;-inkscape-font-specification:Fondamento;stroke:#000000;stroke-width:1.4631319;stroke-opacity:1"
       x="-447.29675"
       y="2872.5061"
       id="tspan4172">Degree of</tspan></text>
  <use
     x="0"
     y="0"
     xlink:href="#text4246-85"
     id="use3148"
     transform="matrix(0.15759721,0.03213951,0.0058483,0.18622164,506.38813,652.74796)"
     width="100%"
     height="100%"
     inkscape:transform-center-x="8.4367007"
     inkscape:transform-center-y="26.665733" />
  <text
     xml:space="preserve"
     style="font-style:normal;font-variant:normal;font-weight:normal;font-stretch:normal;line-height:0%;font-family:Lavi;-inkscape-font-specification:Lavi;text-align:center;letter-spacing:0px;word-spacing:0px;text-anchor:middle;display:inline;opacity:0.6;fill:#000000;fill-opacity:1;stroke:none;stroke-width:1.53380978;filter:url(#filter4213-0)"
     x="-447.29675"
     y="2872.5061"
     id="text4246-85-3"
     transform="matrix(0.50868854,0.04111458,-0.08930267,0.56819347,1942.7495,-870.65774)"><tspan
       sodipodi:role="line"
       style="font-style:normal;font-variant:normal;font-weight:normal;font-stretch:normal;font-size:68.81560516px;line-height:1.26999998;font-family:Fondamento;-inkscape-font-specification:Fondamento;stroke:#000000;stroke-width:1.75916731;stroke-opacity:1"
       x="-447.29675"
       y="2872.5061"
       id="tspan4172-7">Magmah</tspan></text>
  <text
     xml:space="preserve"
     style="font-style:normal;font-variant:normal;font-weight:normal;font-stretch:normal;line-height:0%;font-family:Lavi;-inkscape-font-specification:Lavi;text-align:center;letter-spacing:0px;word-spacing:0px;text-anchor:middle;display:inline;opacity:0.6;fill:#000000;fill-opacity:1;stroke:none;stroke-width:1.61567485;filter:url(#filter4213-8-8)"
     x="-447.29675"
     y="2872.5061"
     id="text4246-85-9-7"
     transform="matrix(0.47831841,0.01305834,-0.01239099,0.55116529,1706.8941,-792.3665)"><tspan
       sodipodi:role="line"
       style="font-style:normal;font-variant:normal;font-weight:normal;font-stretch:normal;font-size:49.19388962px;line-height:1.26999998;font-family:Fondamento;-inkscape-font-specification:Fondamento;stroke:#000000;stroke-width:1.8530606;stroke-opacity:1"
       x="-447.29675"
       y="2872.5061"
       id="tspan1120-6">~ for Saffron ~</tspan></text>
  <text
     xml:space="preserve"
     style="font-style:normal;font-variant:normal;font-weight:normal;font-stretch:normal;line-height:0%;font-family:Lavi;-inkscape-font-specification:Lavi;text-align:center;letter-spacing:0px;word-spacing:0px;text-anchor:middle;display:inline;opacity:0.6;fill:#000000;fill-opacity:1;stroke:none;stroke-width:1.52892983;filter:url(#filter4213-8)"
     x="-447.29675"
     y="2872.5061"
     id="text4246-85-9"
     transform="matrix(0.55026081,0.01267562,-0.01425468,0.53501165,1743.3025,-699.90204)"><tspan
       sodipodi:role="line"
       style="font-style:normal;font-variant:normal;font-weight:normal;font-stretch:normal;font-size:49.19388962px;line-height:1.26999998;font-family:Fondamento;-inkscape-font-specification:Fondamento;stroke:#000000;stroke-width:1.75357032;stroke-opacity:1"
       x="-447.29675"
       y="2872.5061"
       id="tspan1120">Official Witch</tspan></text>
  <use
     x="0"
     y="0"
     xlink:href="#text4246-85-3"
     id="use3215"
     transform="matrix(0.19612099,0.02687275,5.0702379e-5,0.33175947,454.10003,556.31116)"
     width="100%"
     height="100%"
     inkscape:transform-center-x="-1.0746838"
     inkscape:transform-center-y="37.154357" />
  <use
     x="0"
     y="0"
     xlink:href="#text4246-85-9-7"
     id="use3217"
     transform="matrix(0.1172571,0.03531152,-0.00888663,0.17085318,573.59081,675.48621)"
     width="100%"
     height="100%"
     inkscape:transform-center-x="0.804849"
     inkscape:transform-center-y="26.666178" />
  <use
     x="0"
     y="0"
     xlink:href="#text4246-85-9"
     id="use3219"
     transform="matrix(0.20475952,0.06847903,-0.0030458,0.39767326,442.86726,442.49737)"
     width="100%"
     height="100%"
     inkscape:transform-center-x="-0.73198212"
     inkscape:transform-center-y="25.39152" />
  <text
     xml:space="preserve"
     style="font-style:normal;font-variant:normal;font-weight:normal;font-stretch:normal;font-size:18.66666603px;line-height:1.25;font-family:Lavi;-inkscape-font-specification:'Lavi, Normal';font-variant-ligatures:normal;font-variant-caps:normal;font-variant-numeric:normal;font-feature-settings:normal;text-align:center;letter-spacing:0px;word-spacing:0px;writing-mode:lr-tb;text-anchor:middle;fill:#000000;fill-opacity:1;stroke:none"
     x="1115.3351"
     y="985.66992"
     id="text3229"><tspan
       sodipodi:role="line"
       id="tspan3227"
       x="1115.3351"
       y="1002.7771" /></text>
  <text
     xml:space="preserve"
     style="font-style:normal;font-variant:normal;font-weight:normal;font-stretch:normal;line-height:0%;font-family:Lavi;-inkscape-font-specification:Lavi;text-align:center;letter-spacing:0px;word-spacing:0px;text-anchor:middle;display:inline;opacity:0.6;fill:#000000;fill-opacity:1;stroke:none;stroke-width:1.52892983;filter:url(#filter4213-8-2)"
     x="-447.29675"
     y="2872.5061"
     id="text4246-85-9-74"
     transform="matrix(0.55026081,0.01267562,-0.01425468,0.53501165,1745.0394,-637.1232)"><tspan
       sodipodi:role="line"
       style="font-style:normal;font-variant:normal;font-weight:normal;font-stretch:normal;font-size:49.19388962px;line-height:1.26999998;font-family:Cursivah;-inkscape-font-specification:Cursivah;stroke:#000000;stroke-width:1.75357032;stroke-opacity:1"
       x="-447.29675"
       y="2872.5061"
       id="tspan1120-8">Vanilla</tspan></text>
  <use
     x="0"
     y="0"
     xlink:href="#text4246-85-9-74"
     id="use3270"
     transform="matrix(0.19151826,0.03709181,-0.02268691,0.21776123,500.30345,608.01295)"
     width="100%"
     height="100%"
     inkscape:transform-center-x="0.96815433"
     inkscape:transform-center-y="9.9653323" />
  <path
     style="opacity:1;fill:#625a4c;fill-opacity:1;fill-rule:nonzero;stroke:#635b4c;stroke-width:0.1;stroke-linecap:round;stroke-linejoin:round;stroke-miterlimit:4;stroke-dasharray:none;stroke-dashoffset:0;stroke-opacity:1;paint-order:markers stroke fill"
     id="path3298"
     d="m 766.59144,857.12647 c -0.0655,0.0784 -0.13128,0.15648 -0.19889,0.23305 -0.0345,0.0389 -0.0704,0.0767 -0.10723,0.1134 -0.0291,0.0286 -0.0592,0.0563 -0.0894,0.0837 -0.0277,0.0254 -0.0563,0.0499 -0.0854,0.0738 -0.0293,0.0233 -0.0592,0.046 -0.0891,0.0687 -0.0348,0.026 -0.0696,0.0522 -0.104,0.0788 -0.0398,0.0314 -0.079,0.0633 -0.11855,0.095 -0.0424,0.0343 -0.0852,0.068 -0.12883,0.1007 -0.134,0.0985 -0.27045,0.19375 -0.41229,0.28058 -0.066,0.0401 -0.13425,0.0762 -0.2027,0.11175 -0.0888,0.0458 -0.17933,0.088 -0.27032,0.1292 -0.11507,0.0511 -0.23105,0.1001 -0.34664,0.1501 -0.13079,0.0571 -0.26197,0.11335 -0.39364,0.16838 -0.15011,0.0635 -0.30187,0.12274 -0.45416,0.1807 -0.18082,0.0682 -0.36377,0.13038 -0.5471,0.19133 -0.20211,0.0678 -0.40686,0.12689 -0.61247,0.18291 -0.23184,0.0632 -0.46677,0.11389 -0.70258,0.1597 -0.24715,0.0479 -0.49673,0.0807 -0.74706,0.10625 -0.24914,0.0251 -0.49947,0.0308 -0.74966,0.0286 -0.24485,-0.003 -0.48856,-0.0262 -0.73078,-0.0607 -0.22152,-0.0321 -0.43919,-0.0842 -0.65408,-0.14604 -0.18729,-0.054 -0.36821,-0.12633 -0.54358,-0.21092 -0.14946,-0.0725 -0.28328,-0.16954 -0.40454,-0.28222 -0.10051,-0.0957 -0.1728,-0.21074 -0.22045,-0.34021 -0.0394,-0.1189 -0.0271,-0.23719 0.009,-0.35457 0.0395,-0.11188 0.11022,-0.20567 0.19134,-0.29045 0.15479,-0.13944 0.3258,-0.26812 0.52127,-0.3428 0.0949,-0.0344 0.19482,-0.0421 0.29489,-0.04 0.0973,0.003 0.1911,0.0273 0.28191,0.0609 0.0878,0.0334 0.16332,0.0874 0.23201,0.1505 0.0657,0.0631 0.11448,0.13981 0.15703,0.21969 0.0377,0.0733 0.0615,0.15204 0.0784,0.2324 0.0138,0.068 0.0136,0.13678 0.004,0.20516 -0.009,0.059 -0.0342,0.11161 -0.0683,0.15997 -0.10953,0.12174 -0.25096,0.2173 -0.40138,0.28222 -0.0732,0.0293 -0.1506,0.045 -0.22772,0.0597 -0.10697,0.0191 -0.21461,0.0336 -0.32209,0.0492 -0.13966,0.0198 -0.27931,0.0399 -0.41901,0.0596 -0.1553,0.0221 -0.31086,0.0423 -0.46654,0.0616 -0.16316,0.0198 -0.32668,0.0366 -0.49022,0.0531 -0.1843,0.0186 -0.36869,0.0362 -0.55326,0.0517 -0.20115,0.0175 -0.40265,0.03 -0.60427,0.0401 -0.2131,0.01 -0.42639,0.0134 -0.63966,0.0154 -0.23232,0.002 -0.4646,-0.003 -0.69672,-0.012 -0.22752,-0.009 -0.45384,-0.0334 -0.67924,-0.0647 -0.23472,-0.0333 -0.46651,-0.0832 -0.69677,-0.1389 -0.23362,-0.0568 -0.46228,-0.13121 -0.68833,-0.2126 -0.21068,-0.0767 -0.41688,-0.1648 -0.62136,-0.25657 -0.19418,-0.0874 -0.38454,-0.18275 -0.57184,-0.28393 -0.17419,-0.0929 -0.3372,-0.20366 -0.49197,-0.32573 -0.1439,-0.11508 -0.26673,-0.25218 -0.37993,-0.39679 -0.0996,-0.12848 -0.18147,-0.26875 -0.25469,-0.41349 -0.0586,-0.11677 -0.10157,-0.24006 -0.13318,-0.3666 -0.0244,-0.0996 -0.031,-0.20148 -0.0254,-0.3035 0.006,-0.0852 0.0314,-0.16526 0.0708,-0.24042 0.0989,-0.1585 0.27795,-0.24504 0.42654,-0.34709 0.0844,-0.0473 0.1771,-0.0749 0.27017,-0.099 0.0965,-0.0242 0.19521,-0.0375 0.29425,-0.0453 0.089,-0.007 0.17817,-0.002 0.2667,0.008 0.0758,0.009 0.14964,0.0285 0.22215,0.0519 0.0603,0.0198 0.1175,0.0472 0.17307,0.0775 0.0429,0.0238 0.0837,0.0509 0.12274,0.0805 0.0267,0.0204 0.0519,0.0428 0.0762,0.0659 0.0142,0.0132 0.0268,0.0278 0.0361,0.0448 0.0528,0.12024 -0.11573,0.0956 -0.27061,0.17485 -0.0142,-0.0303 -0.0121,-0.0602 -0.003,-0.0914 0.01,-0.0307 0.0261,-0.0586 0.0445,-0.0849 0.0908,-0.10752 0.2148,-0.18728 0.34027,-0.24916 0.0468,-0.0209 0.0966,-0.0336 0.14621,-0.0458 0.067,-0.0161 0.13474,-0.0287 0.20265,-0.0403 0.075,-0.0124 0.15075,-0.0167 0.22661,-0.0141 0.0712,0.003 0.13943,0.021 0.20499,0.0478 0.0631,0.0276 0.11379,0.0723 0.1576,0.12443 0.0494,0.0624 0.0738,0.13641 0.0902,0.21303 0.0189,0.105 0.01,0.21117 -0.008,0.31533 -0.0314,0.15228 -0.13386,0.26582 -0.24138,0.37137 -0.0885,0.079 -0.18836,0.14352 -0.29836,0.18757 0,0 0.006,-0.005 0.006,-0.005 v 0 c 0.0696,-0.0361 0.13728,-0.065 0.18718,-0.1281 0.0524,-0.0807 0.0595,-0.17595 0.079,-0.26869 0.0162,-0.10013 0.027,-0.20195 0.0106,-0.30294 -0.0141,-0.0718 -0.0356,-0.14146 -0.0821,-0.19957 -0.041,-0.0481 -0.0887,-0.0885 -0.14819,-0.11192 -0.0637,-0.0237 -0.1298,-0.0385 -0.1981,-0.0391 -0.0745,-7.3e-4 -0.14894,0.005 -0.22235,0.0183 -0.0675,0.0117 -0.13479,0.025 -0.20113,0.0423 -0.0484,0.0131 -0.0972,0.027 -0.14103,0.052 -0.12263,0.0769 0.37303,-0.27779 0.17069,-0.11398 -0.0199,0.0229 -0.037,0.0477 -0.0493,0.0756 -0.01,0.0231 -0.0195,0.0458 -0.0108,0.0708 -0.0873,0.0609 -0.17451,0.12163 -0.26176,0.18244 0.006,0.005 0.008,0.003 0.008,-0.004 -0.007,-0.0139 -0.0174,-0.0255 -0.0289,-0.0362 -0.0234,-0.0224 -0.0477,-0.0437 -0.0734,-0.0634 -0.038,-0.0283 -0.0776,-0.0544 -0.11927,-0.0771 -0.0542,-0.0289 -0.11017,-0.0547 -0.16894,-0.0732 -0.0711,-0.0221 -0.14353,-0.0396 -0.2177,-0.0476 -0.0872,-0.009 -0.17499,-0.0117 -0.26248,-0.004 -0.0982,0.009 -0.19586,0.0236 -0.2911,0.0499 -0.0916,0.0257 -0.18263,0.0554 -0.2639,0.10599 0.43984,-0.30997 0.14787,-0.1268 0.076,-0.018 -0.0427,0.0702 -0.0706,0.14624 -0.0784,0.2287 -0.008,0.0993 -0.003,0.19863 0.019,0.29603 0.0298,0.12478 0.0709,0.24641 0.12809,0.36154 0.0716,0.1433 0.15184,0.28223 0.25013,0.40919 0.11171,0.14266 0.23302,0.27784 0.37542,0.39091 0.15386,0.12056 0.31598,0.22975 0.48895,0.32134 0.18709,0.10021 0.37716,0.19471 0.57059,0.28212 0.20355,0.0916 0.40889,0.17946 0.61885,0.25552 0.22542,0.0808 0.45352,0.15425 0.68668,0.20957 0.23011,0.0543 0.46169,0.10289 0.69598,0.13564 0.22462,0.0306 0.45013,0.0547 0.67682,0.0627 0.23216,0.009 0.46446,0.0123 0.69681,0.01 0.2132,-0.002 0.42641,-0.006 0.63938,-0.0169 0.20169,-0.01 0.40317,-0.0234 0.60426,-0.042 0.18456,-0.0162 0.36905,-0.0332 0.55338,-0.0518 0.16365,-0.0168 0.3273,-0.0337 0.49053,-0.0544 0.1557,-0.0192 0.3112,-0.04 0.4665,-0.0623 0.13978,-0.0198 0.27956,-0.0395 0.41923,-0.06 0.10782,-0.0161 0.21582,-0.0316 0.32292,-0.0521 0.0762,-0.0155 0.15262,-0.0331 0.22349,-0.066 0.10222,-0.0511 0.23025,-0.15359 -0.17702,0.13306 -0.0476,0.0335 0.11686,-0.0746 0.0656,-0.0532 0.0368,-0.043 0.0649,-0.091 0.0769,-0.14694 0.0125,-0.065 0.0152,-0.1307 0.003,-0.19617 -0.0146,-0.0779 -0.037,-0.1542 -0.0727,-0.22531 -0.0405,-0.077 -0.0869,-0.15084 -0.15056,-0.21106 -0.0664,-0.0599 -0.13953,-0.1105 -0.2245,-0.14072 -0.089,-0.0307 -0.18073,-0.0522 -0.27547,-0.0525 -0.098,0.001 -0.19538,0.0115 -0.28696,0.0492 -0.0412,0.0176 -0.0523,0.0211 -0.0917,0.043 -0.0151,0.008 -0.0584,0.037 -0.0445,0.0267 0.39775,-0.29135 0.20628,-0.14876 0.12341,-0.0791 -0.0826,0.0803 -0.15544,0.16983 -0.19873,0.27799 -0.0388,0.11063 -0.0561,0.22288 -0.0206,0.33754 0.0442,0.12565 0.11448,0.23613 0.21163,0.32832 0.11924,0.11031 0.25093,0.20502 0.3978,0.27571 0.1741,0.0835 0.35372,0.15461 0.53971,0.20732 0.21402,0.0607 0.43076,0.11165 0.65123,0.14284 0.24118,0.0334 0.48377,0.0559 0.72743,0.0583 0.24949,0.002 0.49911,-0.005 0.74741,-0.0312 0.24984,-0.0261 0.49886,-0.0602 0.7455,-0.10853 0.23539,-0.0464 0.46995,-0.0973 0.70121,-0.16152 0.20569,-0.0569 0.41047,-0.11716 0.61274,-0.18539 0.18316,-0.0612 0.36588,-0.12394 0.54645,-0.19252 0.15258,-0.0584 0.30443,-0.11884 0.45485,-0.18271 0.13175,-0.0555 0.263,-0.11223 0.39411,-0.16925 0.11553,-0.0499 0.23147,-0.0988 0.3462,-0.15053 0.091,-0.0417 0.18152,-0.0844 0.26995,-0.13123 0.0684,-0.0363 0.13658,-0.0733 0.20224,-0.11443 0.0277,-0.0174 0.0555,-0.0349 0.0827,-0.053 0.009,-0.006 0.0339,-0.0231 0.0254,-0.0172 -0.069,0.0483 -0.32517,0.22681 -0.2071,0.1443 0.044,-0.032 0.0869,-0.0652 0.12922,-0.0995 0.0395,-0.0317 0.0789,-0.0635 0.11839,-0.0952 0.034,-0.0273 0.0686,-0.0538 0.1038,-0.0794 0.03,-0.0227 0.06,-0.0455 0.0899,-0.0684 0.0305,-0.0236 0.0604,-0.048 0.0892,-0.0737 0.0311,-0.0271 0.0616,-0.055 0.0916,-0.0833 0.0387,-0.0369 0.0765,-0.0748 0.11294,-0.114 0.069,-0.0757 0.13575,-0.15334 0.20055,-0.23263 0,0 0.26901,-0.13927 0.26901,-0.13927 z"
     inkscape:connector-curvature="0" />
  <text
     xml:space="preserve"
     style="font-style:normal;font-variant:normal;font-weight:normal;font-stretch:normal;line-height:0%;font-family:Lavi;-inkscape-font-specification:Lavi;text-align:center;letter-spacing:0px;word-spacing:0px;text-anchor:middle;display:inline;opacity:0.6;fill:#000000;fill-opacity:1;stroke:none;stroke-width:1.27569795;filter:url(#filter4213-88)"
     x="-447.29675"
     y="2872.5061"
     id="text4246-85-2"
     transform="matrix(0.61655851,0.01619223,-0.10823975,0.68344058,1732.2732,-957.47299)"><tspan
       sodipodi:role="line"
       style="font-style:normal;font-variant:normal;font-weight:normal;font-stretch:normal;font-size:68.81560516px;line-height:1.26999998;font-family:Fondamento;-inkscape-font-specification:Fondamento;stroke:#000000;stroke-width:1.4631319;stroke-opacity:1"
       x="-438.89642"
       y="2872.5061"
       id="tspan4172-1">License of </tspan></text>
  <text
     xml:space="preserve"
     style="font-style:normal;font-variant:normal;font-weight:normal;font-stretch:normal;line-height:0%;font-family:Lavi;-inkscape-font-specification:Lavi;text-align:center;letter-spacing:0px;word-spacing:0px;text-anchor:middle;display:inline;opacity:0.6;fill:#000000;fill-opacity:1;stroke:none;stroke-width:1.53380978;filter:url(#filter4213-0-8)"
     x="-447.29675"
     y="2872.5061"
     id="text4246-85-3-0"
     transform="matrix(0.50868854,0.04111458,-0.08930267,0.56819347,1624.7835,-567.30284)"><tspan
       sodipodi:role="line"
       style="font-style:normal;font-variant:normal;font-weight:normal;font-stretch:normal;font-size:68.81560516px;line-height:1.26999998;font-family:Fondamento;-inkscape-font-specification:Fondamento;stroke:#000000;stroke-width:1.75916731;stroke-opacity:1"
       x="-447.29675"
       y="2872.5061"
       id="tspan4172-7-9">Apothecary</tspan></text>
  <text
     xml:space="preserve"
     style="font-style:normal;font-variant:normal;font-weight:normal;font-stretch:normal;line-height:0%;font-family:Lavi;-inkscape-font-specification:Lavi;text-align:center;letter-spacing:0px;word-spacing:0px;text-anchor:middle;display:inline;opacity:0.6;fill:#000000;fill-opacity:1;stroke:none;stroke-width:1.52892983;filter:url(#filter4213-8-5)"
     x="-447.29675"
     y="2872.5061"
     id="text4246-85-9-1"
     transform="matrix(0.55026081,0.01267562,-0.01425468,0.53501165,1402.2179,-390.24206)"><tspan
       sodipodi:role="line"
       style="font-style:normal;font-variant:normal;font-weight:normal;font-stretch:normal;font-size:49.19388962px;line-height:1.26999998;font-family:Fondamento;-inkscape-font-specification:Fondamento;stroke:#000000;stroke-width:1.75357032;stroke-opacity:1"
       x="-447.29675"
       y="2876.0037"
       id="tspan1120-0" /></text>
  <text
     xml:space="preserve"
     style="font-style:normal;font-variant:normal;font-weight:normal;font-stretch:normal;line-height:0%;font-family:Lavi;-inkscape-font-specification:Lavi;text-align:center;letter-spacing:0px;word-spacing:0px;text-anchor:middle;display:inline;opacity:0.6;fill:#000000;fill-opacity:1;stroke:none;stroke-width:1.52892983;filter:url(#filter4213-8-2-0)"
     x="-447.29675"
     y="2872.5061"
     id="text4246-85-9-74-9"
     transform="matrix(0.55026081,0.01267562,-0.01425468,0.53501165,1423.3954,-392.09034)"><tspan
       sodipodi:role="line"
       style="font-style:normal;font-variant:normal;font-weight:normal;font-stretch:normal;font-size:49.19388962px;line-height:1.26999998;font-family:Fondamento;-inkscape-font-specification:Fondamento;stroke:#000000;stroke-width:1.75357032;stroke-opacity:1"
       x="-447.29675"
       y="2872.5061"
       id="tspan1120-8-5">Epans</tspan></text>
  <text
     xml:space="preserve"
     style="font-style:normal;font-variant:normal;font-weight:normal;font-stretch:normal;line-height:0%;font-family:Lavi;-inkscape-font-specification:Lavi;text-align:center;letter-spacing:0px;word-spacing:0px;text-anchor:middle;display:inline;opacity:0.6;fill:#000000;fill-opacity:1;stroke:none;stroke-width:1.52892983;filter:url(#filter4213-8-6)"
     x="-447.29675"
     y="2872.5061"
     id="text4246-85-9-5"
     transform="matrix(0.55026081,0.01267562,-0.01425468,0.53501165,1741.0811,-670.27596)"><tspan
       sodipodi:role="line"
       style="font-style:normal;font-variant:normal;font-weight:normal;font-stretch:normal;font-size:49.19388962px;line-height:1.26999998;font-family:Fondamento;-inkscape-font-specification:Fondamento;stroke:#000000;stroke-width:1.75357032;stroke-opacity:1"
       x="-447.29675"
       y="2872.5061"
       id="tspan1120-5">With honors</tspan></text>
  <use
     x="0"
     y="0"
     xlink:href="#text4246-85-9-5"
     id="use3396"
     transform="matrix(0.13238271,0.04434997,-0.03129121,0.28219923,570.32071,572.56102)"
     width="100%"
     height="100%"
     inkscape:transform-center-x="-1.3382916"
     inkscape:transform-center-y="18.965519" />
  <text
     xml:space="preserve"
     style="font-style:normal;font-variant:normal;font-weight:normal;font-stretch:normal;line-height:0%;font-family:Lavi;-inkscape-font-specification:Lavi;text-align:center;letter-spacing:0px;word-spacing:0px;text-anchor:middle;display:inline;opacity:0.6;fill:#000000;fill-opacity:1;stroke:none;stroke-width:1.27569795;filter:url(#filter4213-88-7)"
     x="-447.29675"
     y="2872.5061"
     id="text4246-85-2-0"
     transform="matrix(0.61655851,0.01619223,-0.10823975,0.68344058,2001.1296,-951.16228)"><tspan
       sodipodi:role="line"
       style="font-style:normal;font-variant:normal;font-weight:normal;font-stretch:normal;font-size:68.81560516px;line-height:1.26999998;font-family:Fondamento;-inkscape-font-specification:Fondamento;stroke:#000000;stroke-width:1.4631319;stroke-opacity:1"
       x="-438.89642"
       y="2872.5061"
       id="tspan4172-1-7">Master of </tspan></text>
  <text
     xml:space="preserve"
     style="font-style:normal;font-variant:normal;font-weight:normal;font-stretch:normal;line-height:0%;font-family:Lavi;-inkscape-font-specification:Lavi;text-align:center;letter-spacing:0px;word-spacing:0px;text-anchor:middle;display:inline;opacity:0.6;fill:#000000;fill-opacity:1;stroke:none;stroke-width:1.53380978;filter:url(#filter4213-0-8-0)"
     x="-447.29675"
     y="2872.5061"
     id="text4246-85-3-0-8"
     transform="matrix(0.50868854,0.04111458,-0.08930267,0.56819347,1893.6399,-560.99218)"><tspan
       sodipodi:role="line"
       style="font-style:normal;font-variant:normal;font-weight:normal;font-stretch:normal;font-size:68.81560516px;line-height:1.26999998;font-family:Fondamento;-inkscape-font-specification:Fondamento;stroke:#000000;stroke-width:1.75916731;stroke-opacity:1"
       x="-447.29675"
       y="2872.5061"
       id="tspan4172-7-9-5">Alchemy</tspan></text>
  <text
     xml:space="preserve"
     style="font-style:normal;font-variant:normal;font-weight:normal;font-stretch:normal;line-height:0%;font-family:Lavi;-inkscape-font-specification:Lavi;text-align:center;letter-spacing:0px;word-spacing:0px;text-anchor:middle;display:inline;opacity:0.6;fill:#000000;fill-opacity:1;stroke:none;stroke-width:1.27569795;filter:url(#filter4213-88-7-7)"
     x="-447.29675"
     y="2872.5061"
     id="text4246-85-2-0-3"
     transform="matrix(0.61655851,0.01619223,-0.10823975,0.68344058,2341.6245,-946.04857)"><tspan
       sodipodi:role="line"
       style="font-style:normal;font-variant:normal;font-weight:normal;font-stretch:normal;font-size:68.81560516px;line-height:1.26999998;font-family:Fondamento;-inkscape-font-specification:Fondamento;stroke:#000000;stroke-width:1.4631319;stroke-opacity:1"
       x="-447.29675"
       y="2872.5061"
       id="tspan4172-1-7-9">Engineering</tspan></text>
  <text
     xml:space="preserve"
     style="font-style:normal;font-variant:normal;font-weight:normal;font-stretch:normal;line-height:0%;font-family:Lavi;-inkscape-font-specification:Lavi;text-align:center;letter-spacing:0px;word-spacing:0px;text-anchor:middle;display:inline;opacity:0.6;fill:#000000;fill-opacity:1;stroke:none;stroke-width:1.53380978;filter:url(#filter4213-0-8-0-2)"
     x="-447.29675"
     y="2872.5061"
     id="text4246-85-3-0-8-5"
     transform="matrix(0.50868854,0.04111458,-0.08930267,0.56819347,2234.1348,-555.87847)"><tspan
       sodipodi:role="line"
       style="font-style:normal;font-variant:normal;font-weight:normal;font-stretch:normal;font-size:68.81560516px;line-height:1.26999998;font-family:Fondamento;-inkscape-font-specification:Fondamento;stroke:#000000;stroke-width:1.75916731;stroke-opacity:1"
       x="-447.29675"
       y="2872.5061"
       id="tspan4172-7-9-5-1">degree</tspan></text>
  <text
     xml:space="preserve"
     style="font-style:normal;font-variant:normal;font-weight:normal;font-stretch:normal;line-height:0%;font-family:Lavi;-inkscape-font-specification:Lavi;text-align:center;letter-spacing:0px;word-spacing:0px;text-anchor:middle;display:inline;opacity:0.6;fill:#000000;fill-opacity:1;stroke:none;stroke-width:1.52892983;filter:url(#filter4213-8-28)"
     x="-447.29675"
     y="2872.5061"
     id="text4246-85-9-8"
     transform="matrix(0.55026081,0.01267562,-0.01425468,0.53501165,2053.9081,-383.94784)"><tspan
       sodipodi:role="line"
       style="font-style:normal;font-variant:normal;font-weight:normal;font-stretch:normal;font-size:49.19388962px;line-height:1.26999998;font-family:Fondamento;-inkscape-font-specification:Fondamento;stroke:#000000;stroke-width:1.75357032;stroke-opacity:1"
       x="-447.29675"
       y="2872.5061"
       id="tspan3514">Major in Alchemy</tspan></text>
  <use
     x="0"
     y="0"
     xlink:href="#text4246-85-2"
     id="use3494"
     transform="matrix(0.09675587,0.04979902,-0.00902037,0.17683018,578.6757,717.4952)"
     width="100%"
     height="100%"
     inkscape:transform-center-x="0.13899196"
     inkscape:transform-center-y="11.762831" />
  <use
     x="0"
     y="0"
     xlink:href="#text4246-85-3-0"
     id="use3496"
     transform="matrix(0.12955856,0.06077785,-0.00582754,0.22826349,538.00722,651.63048)"
     width="100%"
     height="100%" />
  <use
     x="0"
     y="0"
     xlink:href="#text4246-85-2-0"
     id="use3498"
     transform="matrix(0.10503549,0.05780581,-0.00979226,0.20526131,600.71586,705.64014)"
     width="100%"
     height="100%" />
  <use
     x="0"
     y="0"
     xlink:href="#text4246-85-3-0-8"
     id="use3500"
     transform="matrix(0.14583552,0.07016658,-0.00655968,0.26352475,539.3193,626.91941)"
     width="100%"
     height="100%" />
  <use
     x="0"
     y="0"
     xlink:href="#text4246-85-2-0-3"
     id="use3502"
     transform="matrix(0.12901021,0.07782038,-0.01202738,0.27633054,603.39444,626.25099)"
     width="100%"
     height="100%" />
  <use
     x="0"
     y="0"
     xlink:href="#text4246-85-3-0-8-5"
     id="use3504"
     transform="matrix(0.16965587,0.08278872,-0.00763112,0.31092976,527.73106,580.02578)"
     width="100%"
     height="100%" />
  <use
     x="0"
     y="0"
     xlink:href="#text4246-85-9-7"
     id="use3506"
     transform="matrix(0.08892264,0.04965251,-0.01320633,0.16766741,559.25055,761.92144)"
     width="100%"
     height="100%" />
  <use
     x="0"
     y="0"
     xlink:href="#text4246-85-9-7"
     id="use3508"
     transform="matrix(0.08510668,0.05431343,-0.0126396,0.18340648,622.92051,785.92047)"
     width="100%"
     height="100%" />
  <use
     x="0"
     y="0"
     xlink:href="#text4246-85-9-7"
     id="use3510"
     transform="matrix(0.08256206,0.05391392,-0.01226168,0.1820574,706.26615,840.58384)"
     width="100%"
     height="100%" />
  <use
     x="0"
     y="0"
     xlink:href="#text4246-85-9-8"
     id="use3512"
     transform="matrix(0.11515075,0.07684176,-0.0171016,0.25948049,633.77073,637.75192)"
     width="100%"
     height="100%" />
  <rect
     style="opacity:1;fill:#ffffff;fill-opacity:1;fill-rule:nonzero;stroke:#ffffff;stroke-width:0.1;stroke-linecap:round;stroke-linejoin:round;stroke-miterlimit:4;stroke-dasharray:none;stroke-dashoffset:0;stroke-opacity:1;paint-order:markers stroke fill"
     id="rect3540"
     width="57.533875"
     height="965.46606"
     x="826.49152"
     y="231.87289" />
  <use
     x="0"
     y="0"
     xlink:href="#text4246-85-9-74-9"
     id="use3542"
     transform="matrix(0.10139692,0.06439803,-0.01505895,0.21746034,588.94196,655.10384)"
     width="100%"
     height="100%" />
  <text
     xml:space="preserve"
     style="font-style:normal;font-variant:normal;font-weight:normal;font-stretch:normal;line-height:0%;font-family:Lavi;-inkscape-font-specification:Lavi;text-align:center;letter-spacing:0px;word-spacing:0px;text-anchor:middle;display:inline;opacity:0.6;fill:#000000;fill-opacity:1;stroke:none;stroke-width:1.52892983;filter:url(#filter4213-8-2-0-5)"
     x="-447.29675"
     y="2872.5061"
     id="text4246-85-9-74-9-9"
     transform="matrix(0.55026081,0.01267562,-0.01425468,0.53501165,1733.0843,-383.78093)"><tspan
       sodipodi:role="line"
       style="font-style:normal;font-variant:normal;font-weight:normal;font-stretch:normal;font-size:49.19388962px;line-height:1.26999998;font-family:Fondamento;-inkscape-font-specification:Fondamento;stroke:#000000;stroke-width:1.75357032;stroke-opacity:1"
       x="-447.29675"
       y="2872.5061"
       id="tspan1120-8-5-8">Dr. Flamel</tspan></text>
  <use
     x="0"
     y="0"
     xlink:href="#text4246-85-9-74-9-9"
     id="use3568"
     transform="matrix(0.10139692,0.06439803,-0.01505895,0.21746034,613.68929,676.29703)"
     width="100%"
     height="100%" />
  <text
     xml:space="preserve"
     style="font-style:normal;font-variant:normal;font-weight:normal;font-stretch:normal;font-size:26.66666603px;line-height:1.25;font-family:Lavi;-inkscape-font-specification:'Lavi, Normal';font-variant-ligatures:normal;font-variant-caps:normal;font-variant-numeric:normal;font-feature-settings:normal;text-align:center;letter-spacing:0px;word-spacing:0px;writing-mode:lr-tb;text-anchor:middle;fill:#000000;fill-opacity:1;stroke:none"
     x="1255.7083"
     y="548.63049"
     id="text5356"><tspan
       sodipodi:role="line"
       x="1255.7083"
       y="548.63049"
       style="font-style:normal;font-variant:normal;font-weight:bold;font-stretch:normal;font-size:42.66666794px;font-family:Lavi;-inkscape-font-specification:'Lavi Bold';text-align:center;text-anchor:middle"
       id="tspan1027">Degrees translation</tspan><tspan
       sodipodi:role="line"
       x="1255.7083"
       y="601.96381"
       style="font-style:normal;font-variant:normal;font-weight:bold;font-stretch:normal;font-size:42.66666794px;font-family:Lavi;-inkscape-font-specification:'Lavi Bold';text-align:center;text-anchor:middle"
       id="tspan1031">is done here!</tspan></text>
</svg>
