<?xml version="1.0" encoding="UTF-8" standalone="no"?>
<!-- Created with Inkscape (http://www.inkscape.org/) -->

<svg
   xmlns:dc="http://purl.org/dc/elements/1.1/"
   xmlns:cc="http://creativecommons.org/ns#"
   xmlns:rdf="http://www.w3.org/1999/02/22-rdf-syntax-ns#"
   xmlns:svg="http://www.w3.org/2000/svg"
   xmlns="http://www.w3.org/2000/svg"
   xmlns:xlink="http://www.w3.org/1999/xlink"
   xmlns:sodipodi="http://sodipodi.sourceforge.net/DTD/sodipodi-0.dtd"
   xmlns:inkscape="http://www.inkscape.org/namespaces/inkscape"
   version="1.1"
   id="svg2"
   width="1285.12"
   height="5129.6001"
   viewBox="0 0 1285.12 5129.6001"
   sodipodi:docname="PCMINI_E12.svg"
   inkscape:version="0.92.1 r15371"
   inkscape:export-xdpi="300"
   inkscape:export-ydpi="300">
  <metadata
     id="metadata8">
    <rdf:RDF>
      <cc:Work
         rdf:about="">
        <dc:format>image/svg+xml</dc:format>
        <dc:type
           rdf:resource="http://purl.org/dc/dcmitype/StillImage" />
        <dc:title></dc:title>
      </cc:Work>
    </rdf:RDF>
  </metadata>
  <defs
     id="defs6" />
  <sodipodi:namedview
     pagecolor="#ffffff"
     bordercolor="#666666"
     borderopacity="1"
     objecttolerance="10"
     gridtolerance="10"
     guidetolerance="10"
     inkscape:pageopacity="0"
     inkscape:pageshadow="2"
     inkscape:window-width="1920"
     inkscape:window-height="1057"
     id="namedview4"
     showgrid="false"
     inkscape:zoom="0.73611976"
     inkscape:cx="642.56"
     inkscape:cy="437.10602"
     inkscape:window-x="-8"
     inkscape:window-y="-8"
     inkscape:window-maximized="1"
     inkscape:current-layer="svg2" />
  <image
     width="1285.12"
     height="5129.6001"
     preserveAspectRatio="none"
     xlink:href="../../img/12/gfx_Pepper-and-Carrot-MINI_by_Nicolas_Artance_E12.png"
     id="image10"
     x="0"
     y="0"
     sodipodi:absref="../../img/12/gfx_Pepper-and-Carrot-MINI_by_Nicolas_Artance_E12.png" />
  <flowRoot
     xml:space="preserve"
     id="flowRoot3682"
     style="font-style:normal;font-variant:normal;font-weight:normal;font-stretch:normal;font-size:40px;line-height:1.25;font-family:Lavi;-inkscape-font-specification:Lavi;letter-spacing:0px;word-spacing:0px;fill:#000000;fill-opacity:1;stroke:none"
     transform="matrix(1.3961783,0,0,1.5356972,19.72158,38.170746)"
     inkscape:export-xdpi="300"
     inkscape:export-ydpi="300"><flowRegion
       id="flowRegion3684"
       style="font-style:normal;font-variant:normal;font-weight:normal;font-stretch:normal;font-family:Lavi;-inkscape-font-specification:Lavi"><rect
         id="rect3686"
         width="449.13834"
         height="55.157722"
         x="17.29627"
         y="-14.053221"
         style="font-style:normal;font-variant:normal;font-weight:normal;font-stretch:normal;font-family:Lavi;-inkscape-font-specification:Lavi" /></flowRegion><flowPara
       id="flowPara3688"
       style="font-style:normal;font-variant:normal;font-weight:normal;font-stretch:normal;font-family:Lavi;-inkscape-font-specification:Lavi">Pepper et Carrot MINI</flowPara></flowRoot>  <flowRoot
     xml:space="preserve"
     id="flowRoot3690"
     style="font-style:normal;font-variant:normal;font-weight:normal;font-stretch:normal;font-size:18.66666603px;line-height:1.25;font-family:Lavi;-inkscape-font-specification:Lavi;text-align:end;letter-spacing:0px;word-spacing:0px;text-anchor:end;fill:#000000;fill-opacity:1;stroke:none"
     transform="matrix(1.4367555,0,0,1.5023619,-92.48951,16.433626)"><flowRegion
       id="flowRegion3692"
       style="font-style:normal;font-variant:normal;font-weight:normal;font-stretch:normal;font-size:18.66666603px;font-family:Lavi;-inkscape-font-specification:Lavi;text-align:end;text-anchor:end"><rect
         id="rect3694"
         width="378.35593"
         height="104.85864"
         x="562.12878"
         y="6.4861007"
         style="font-style:normal;font-variant:normal;font-weight:normal;font-stretch:normal;font-size:18.66666603px;font-family:Lavi;-inkscape-font-specification:Lavi;text-align:end;text-anchor:end" /></flowRegion><flowPara
       id="flowPara3696"
       style="font-style:normal;font-variant:normal;font-weight:normal;font-stretch:normal;font-size:19.96561623px;font-family:Lavi;-inkscape-font-specification:Lavi">Par Nicolas Artance</flowPara><flowPara
       style="font-style:normal;font-variant:normal;font-weight:normal;font-stretch:normal;font-size:19.96561623px;font-family:Lavi;-inkscape-font-specification:Lavi"
       id="flowPara3700">basé sur le webcomic CC-BY</flowPara><flowPara
       style="font-style:normal;font-variant:normal;font-weight:normal;font-stretch:normal;font-size:19.96561623px;font-family:Lavi;-inkscape-font-specification:Lavi"
       id="flowPara3704">Pepper&amp;Carrot de David Revoy</flowPara></flowRoot>  <flowRoot
     xml:space="preserve"
     id="flowRoot3706"
     style="font-style:normal;font-variant:normal;font-weight:normal;font-stretch:normal;font-size:40px;line-height:1.25;font-family:Lavi;-inkscape-font-specification:Lavi;text-align:center;letter-spacing:0px;word-spacing:0px;text-anchor:middle;fill:#000000;fill-opacity:1;stroke:none"
     transform="matrix(2.3997225,0,0,2.5211475,-48.383808,-101.84137)"><flowRegion
       id="flowRegion3708"
       style="font-style:normal;font-variant:normal;font-weight:normal;font-stretch:normal;font-family:Lavi;-inkscape-font-specification:Lavi;text-align:center;text-anchor:middle"><rect
         id="rect3710"
         width="281.06439"
         height="82.157288"
         x="153.50441"
         y="79.995255"
         style="font-style:normal;font-variant:normal;font-weight:normal;font-stretch:normal;font-family:Lavi;-inkscape-font-specification:Lavi;text-align:center;text-anchor:middle" /></flowRegion><flowPara
       id="flowPara3712"
       style="font-style:normal;font-variant:normal;font-weight:normal;font-stretch:normal;font-size:16.04188156px;font-family:Lavi;-inkscape-font-specification:Lavi;text-align:center;text-anchor:middle">#12 -  Le monde d'Hereva</flowPara></flowRoot>  <path
     style="color:#000000;display:inline;overflow:visible;visibility:visible;fill:#ffffff;fill-opacity:1;fill-rule:nonzero;stroke:none;stroke-width:0.44622445px;marker:none;enable-background:accumulate"
     d="m 240.75998,266.25746 c 13.0353,-13.79023 40.45441,-25.38656 76.41387,-30.08777 35.95945,-4.70122 102.48447,-3.44758 114.17135,-1.88048 11.68677,1.56706 75.96432,7.20849 89.89855,15.04387 13.93436,7.83537 32.81305,17.55122 36.85851,27.58045 4.04551,10.02927 0.4495,34.16219 -12.58581,39.49024 -13.03531,5.32805 -72.36841,16.92438 -106.97943,17.55119 -34.61103,0.62683 -115.07025,-4.3878 -137.99445,-7.83534 -22.92414,-3.44758 -47.19678,-7.83537 -54.38865,-18.80486 -7.19192,-10.96953 -20.67673,-25.3866 -5.39394,-41.0573 z"
     id="path3533"
     inkscape:connector-curvature="0" />
  <text
     xml:space="preserve"
     style="font-style:normal;font-variant:normal;font-weight:normal;font-stretch:normal;font-size:26.66666603px;line-height:1.25;font-family:Lavi;-inkscape-font-specification:'Lavi, Normal';font-variant-ligatures:normal;font-variant-caps:normal;font-variant-numeric:normal;font-feature-settings:normal;text-align:center;letter-spacing:0px;word-spacing:0px;writing-mode:lr-tb;text-anchor:middle;fill:#000000;fill-opacity:1;stroke:none"
     x="393.74908"
     y="274.79541"
     id="text5131"><tspan
       sodipodi:role="line"
       id="tspan5129"
       x="393.74908"
       y="274.79541">Hereva est un monde</tspan><tspan
       sodipodi:role="line"
       x="393.74908"
       y="308.12875"
       id="tspan5133">merveilleux !</tspan></text>
  <path
     style="color:#000000;display:inline;overflow:visible;visibility:visible;fill:#ffffff;fill-opacity:1;fill-rule:nonzero;stroke:none;stroke-width:0.42190635px;marker:none;enable-background:accumulate"
     d="m 346.15971,323.5022 c -8.0752,16.96754 -5.42042,41.94428 34.17823,57.28494 -29.86542,-27.56189 -29.74238,-39.48809 -20.59221,-52.42613 9.1502,-12.93803 11.24247,-19.6891 11.24247,-19.6891 z"
     id="path4440"
     inkscape:connector-curvature="0"
     sodipodi:nodetypes="ccscc" />
  <path
     style="color:#000000;display:inline;overflow:visible;visibility:visible;fill:#ffffff;fill-opacity:1;fill-rule:nonzero;stroke:none;stroke-width:0.4161163px;marker:none;enable-background:accumulate"
     d="m 510.51654,740.50978 c 3.80469,-18.56192 24.25481,-34.09331 47.08291,-37.12381 22.82805,-3.03051 211.15959,2.27284 225.42717,6.81863 14.26751,4.54584 36.14444,7.95508 29.96189,39.77555 -6.18268,31.82047 -33.29098,38.63909 -60.39934,39.39675 -27.10831,0.7576 -188.33153,5.30334 -211.15964,-12.12208 -22.82799,-17.42547 -31.86412,-15.91022 -30.91299,-36.74504 z"
     id="path4010"
     inkscape:connector-curvature="0" />
  <path
     style="color:#000000;display:inline;overflow:visible;visibility:visible;fill:#ffffff;fill-opacity:1;fill-rule:nonzero;stroke:none;stroke-width:0.27837744px;marker:none;enable-background:accumulate"
     d="m 555.20345,715.04876 c -14.27565,-3.42345 -32.5773,-16.54958 -41.37245,-48.80519 0.16595,29.25675 19.8341,48.75227 26.06831,54.18211 6.23419,5.42987 15.30414,-5.37692 15.30414,-5.37692 z"
     id="path4008"
     inkscape:connector-curvature="0" />
  <text
     xml:space="preserve"
     style="font-style:normal;font-variant:normal;font-weight:normal;font-stretch:normal;font-size:26.66666603px;line-height:1.25;font-family:Lavi;-inkscape-font-specification:'Lavi, Normal';font-variant-ligatures:normal;font-variant-caps:normal;font-variant-numeric:normal;font-feature-settings:normal;text-align:center;letter-spacing:0px;word-spacing:0px;writing-mode:lr-tb;text-anchor:middle;fill:#000000;fill-opacity:1;stroke:none"
     x="662.21863"
     y="741.72711"
     id="text5149"><tspan
       sodipodi:role="line"
       id="tspan5147"
       x="662.21863"
       y="741.72711">Tout ce qui le compose</tspan><tspan
       sodipodi:role="line"
       x="662.21863"
       y="775.06042"
       id="tspan5151">est magique !</tspan></text>
  <path
     style="fill:#ffffff;fill-opacity:1;stroke:none;stroke-width:0.34102425"
     d="m 541.67385,847.97991 c 15.12267,2.06929 20.93905,3.99076 18.22468,5.17321 6.2042,0.59121 8.53079,15.96304 2.71437,18.7714 -0.38777,0.29563 -3.1021,1.18245 -1.93882,1.33027 1.16327,0.14776 8.14297,-0.29563 9.30625,0.29557 1.16327,0.59126 -10.46953,9.01622 -8.91853,9.31185 1.5511,0.29557 37.22505,-5.32104 42.26588,-3.99076 5.04087,1.33021 2.3266,4.72978 3.87765,4.87759 1.55095,0.14781 15.89817,-0.73902 17.837,-0.59126 1.93872,0.14782 5.4285,4.58202 7.36733,4.72977 1.93882,0.14788 10.85734,-1.92141 12.40839,-1.77366 1.55105,0.14787 0.77546,3.84301 2.71428,3.99076 1.93882,0.14782 10.46953,-3.10386 11.63285,-2.95612 1.16323,0.14782 5.42865,7.5382 7.36742,7.98153 1.93883,0.44343 14.34713,-8.12927 15.51045,-8.27709 1.16323,-0.14782 8.53066,10.0508 10.08175,10.19861 1.55105,0.14782 9.30621,-6.94693 10.46953,-6.79911 1.16327,0.14781 8.5307,4.28645 10.0817,4.58201 1.55105,0.29558 11.63285,-9.16397 13.18385,-9.16397 1.5511,0 14.7349,3.99076 15.89823,4.72977 1.16327,0.73901 2.3265,-3.84294 3.87755,-3.84294 1.55105,0 19.388,2.66048 19.77582,2.51273 0.38773,-0.14782 -2.71437,-2.95618 -1.5511,-2.95618 1.16328,0 19.388,3.69519 20.1636,2.95618 0.77545,-0.73908 39.5515,3.69513 42.26583,3.10393 2.71432,-0.59127 -17.44923,-12.12015 -15.5105,-13.00697 1.93883,-0.88684 8.91862,0.1478 9.30635,-0.29558 0.38772,-0.44344 -4.26538,-2.36492 -3.1022,-2.95618 1.16337,-0.5912 14.34722,-2.95611 15.51045,-3.69512 1.16332,-0.73901 -5.81637,-2.66055 -4.26537,-3.10399 1.55109,-0.44339 24.42902,-3.25168 24.81674,-3.99077 0.38773,-0.73901 -11.6328,-4.28632 -10.0818,-5.32096 1.55105,-1.03465 5.81643,-1.47809 5.42865,-2.21711 -0.38777,-0.73901 -7.75524,-1.62589 -7.36747,-2.36491 0.38782,-0.73901 4.26538,-4.4342 5.42865,-5.0254 1.16328,-0.59126 -8.14297,-0.29563 -8.14297,-0.88682 0,-0.59127 34.12294,-16.40654 33.34735,-20.84069 -12.02053,2.8083 -53.12313,7.83371 -65.91916,6.6513 -12.79617,-1.18251 -7.7552,-8.57277 -9.69397,-9.01621 -1.93883,-0.44345 -16.286,2.51273 -18.22483,1.47809 -1.93877,-1.03465 -2.71427,-2.95611 -4.26537,-2.95611 -1.55095,0 -10.46953,4.13851 -12.40825,3.99075 -1.93883,-0.14782 -20.16355,-6.65124 -22.87793,-6.79912 -2.71427,-0.14775 -13.1838,2.51273 -15.5104,2.66054 -2.32655,0.14783 -4.26532,-3.54736 -6.20415,-3.25174 -1.93882,0.29557 -14.34712,2.95612 -16.28585,2.66049 -1.93883,-0.29557 -3.48987,-1.47802 -5.04097,-1.18239 -1.55096,0.29556 -8.5307,1.47802 -8.5307,1.47802 0,0 -5.04088,-0.88683 -7.36743,-0.88683 -2.32655,0 -18.22468,4.87758 -20.1635,5.17321 -1.93883,0.29558 -18.6125,-11.23325 -17.44923,-12.12015 1.16333,-0.88682 -17.44922,12.26797 -20.16355,12.71135 -2.71427,0.44339 -10.8573,-0.88683 -11.63275,-0.44338 -0.77555,0.44338 -3.1021,2.80829 -5.4287,2.95611 -2.32655,0.14776 -7.7552,0.73902 -7.7552,0.73902 l 0.7755,0.88683 c 0,0 -16.2859,-2.36492 -18.22472,-3.25174 -1.93878,-0.88684 1.16332,3.84293 2.3266,5.02545 -6.97965,-1.18252 -27.53098,-3.69519 -29.08193,-4.4342 -1.5511,-0.73907 2.71423,2.66049 5.04078,3.69514 -3.10205,-0.44346 -5.81643,-0.59122 -5.81643,-0.59122 l 8.91853,3.54733 -2.71438,0.29563 c 0,0 5.81643,1.62589 5.81643,2.36491 0,0.73901 -15.12258,1.6259 -15.12258,1.6259 0,0 6.20415,1.33022 4.6531,2.06923 -1.5511,0.73901 -5.4287,1.18245 -5.4287,1.18245 l -0.77545,1.92147 z"
     id="path5888"
     inkscape:connector-curvature="0" />
  <text
     xml:space="preserve"
     style="font-style:normal;font-variant:normal;font-weight:normal;font-stretch:normal;font-size:26.66666603px;line-height:1.25;font-family:Lavi;-inkscape-font-specification:'Lavi, Normal';font-variant-ligatures:normal;font-variant-caps:normal;font-variant-numeric:normal;font-feature-settings:normal;text-align:center;letter-spacing:0px;word-spacing:0px;writing-mode:lr-tb;text-anchor:middle;fill:#000000;fill-opacity:1;stroke:none"
     x="703.2746"
     y="863.7254"
     id="text5167"><tspan
       sodipodi:role="line"
       id="tspan5165"
       x="703.2746"
       y="863.7254">Créatures magiques !</tspan></text>
  <path
     style="color:#000000;display:inline;overflow:visible;visibility:visible;fill:#ffffff;fill-opacity:1;fill-rule:nonzero;stroke:none;stroke-width:0.31962484px;marker:none;enable-background:accumulate"
     d="m 665.35548,877.55855 c -5.07214,10.00077 -16.78807,29.27651 -20.61013,32.45786 -6.51315,-5.85128 -20.3476,-12.67999 -21.35564,-11.3658 -1.00802,1.31429 -6.11088,28.22104 -8.50994,28.75425 -2.39902,0.53311 -10.72583,-0.53883 -13.55906,-2.2866 8.78535,4.15007 15.74292,6.64688 18.9694,4.85466 2.24532,-1.08946 6.02253,-22.15945 6.20567,-23.62353 6.9307,3.10854 20.47954,11.0305 23.44474,11.12858 3.07272,-2.34847 14.87318,-11.39146 24.72675,-27.48217 9.85355,-16.09071 -9.31179,-12.43725 -9.31179,-12.43725 z"
     id="path5901"
     inkscape:connector-curvature="0"
     sodipodi:nodetypes="ccccccccsc" />
  <text
     xml:space="preserve"
     style="font-style:normal;font-variant:normal;font-weight:normal;font-stretch:normal;font-size:26.66666603px;line-height:1.25;font-family:Lavi;-inkscape-font-specification:'Lavi, Normal';font-variant-ligatures:normal;font-variant-caps:normal;font-variant-numeric:normal;font-feature-settings:normal;text-align:center;letter-spacing:0px;word-spacing:0px;writing-mode:lr-tb;text-anchor:middle;fill:#000000;fill-opacity:1;stroke:none"
     x="664.29407"
     y="1444.0585"
     id="text5183"><tspan
       sodipodi:role="line"
       id="tspan5181"
       x="664.29407"
       y="1444.0585">Sorts magiques !</tspan></text>
  <path
     style="color:#000000;display:inline;overflow:visible;visibility:visible;fill:#ffffff;fill-opacity:1;fill-rule:nonzero;stroke:none;stroke-width:0.43683389px;marker:none;enable-background:accumulate"
     d="m 776.83582,2128.9779 c -11.1971,6.7284 -22.98387,15.3141 -25.43829,17.4763 5.65519,0.286 10.48214,1.0926 14.27257,1.6835 -5.19086,3.8202 -31.16264,20.8885 -40.17432,23.5175 22.68536,-6.0204 44.03016,-18.2599 51.64505,-24.8428 -4.6795,-1.2709 -7.86272,-1.6859 -10.29142,-2.3894 3.50387,-3.3794 19.16763,-13.0392 19.16763,-13.0392 z"
     id="path5066"
     inkscape:connector-curvature="0" />
  <path
     style="color:#000000;display:inline;overflow:visible;visibility:visible;fill:#ffffff;fill-opacity:1;fill-rule:nonzero;stroke:none;stroke-width:0.53796786px;marker:none;enable-background:accumulate"
     d="m 1051.8821,2153.6472 c -21.6199,-7.2754 -43.6757,-14.4841 -4.1277,-31.1322 -37.1045,3.7451 -14.1473,-5.4435 -4.8514,-11.6902 -66.44399,11.3803 -23.1012,-8.2926 -6.449,-20.4162 -14.8838,4.6635 -38.8297,18.1695 -29.2777,-1.0109 -4.7064,0.7951 -10.3002,3.2327 -12.46997,-0.6682 -6.05368,2.5398 -10.50297,3.133 -13.0274,1.3903 -6.0325,4.7236 -9.86149,5.9216 -9.63493,0.6316 -5.6814,3.8768 -7.33433,2.4689 -8.67468,0.6511 -9.81459,8.3719 -13.27103,5.8833 -16.96138,3.794 -5.56772,5.0332 -11.81615,3.74 -18.63579,-2.8638 -7.54924,8.5994 -15.29183,7.909 -23.14266,2.012 -1.7099,6.8329 -6.42932,13.6145 -11.19078,-0.7882 -3.2442,1.0852 -5.60011,10.079 -15.893,-5.1702 -1.50011,16.5022 -38.93537,10.098 -54.44455,1.3985 4.2233,12.9172 -4.11489,18.5966 -30.46893,5.1745 -1.60135,5.1335 -9.76232,7.0648 -23.77659,6.1389 14.16671,6.5235 14.77545,10.0853 -18.49441,6.2465 23.08127,5.5762 44.33695,11.1152 8.07426,15.4816 8.37327,2.1977 36.16576,-2.004 4.96204,21.6279 21.71608,-4.9134 41.30103,-5.9057 46.50669,15.8512 11.8197,-5.4529 24.77714,-8.0093 34.40596,5.2552 9.44043,-5.9307 22.27587,-4.199 28.87428,-1.0673 2.06482,-6.6639 16.15663,-16.6613 34.03347,2.3497 -3.68035,-10.6733 0.0312,-27.4786 20.63383,0.8346 0.60953,-4.8397 -7.32027,-31.3886 51.84752,1.4711 -6.73789,-21.3743 12.83859,-8.6181 28.39422,-1.0771 -7.3521,-13.4649 4.4957,-14.253 30.0193,-6.0116 -19.441,-13.039 0.9026,-9.1337 13.7693,-8.4128 z"
     id="path3549-3-3-0"
     inkscape:connector-curvature="0"
     sodipodi:nodetypes="ccccccccccccccccccccccccccccc" />
  <path
     style="color:#000000;display:inline;overflow:visible;visibility:visible;fill:#ffffff;fill-opacity:1;fill-rule:nonzero;stroke:none;stroke-width:0.60958177px;marker:none;enable-background:accumulate"
     d="m 638.95061,2640.2579 c -4.72178,8.9079 -12.3718,18.6387 -14.92661,19.9885 -2.55482,1.3497 -22.41721,0.9304 -24.45679,3.7147 -2.03951,2.7842 2.39701,9.75 0.44718,11.2456 -1.9498,1.4956 -16.59838,2.7697 -17.98797,5.0554 -1.38962,2.2858 -0.24044,15.2292 -1.95861,16.3439 -1.71818,1.1146 -10.959,7.1862 -16.0093,14.9229 18.62343,-11.2355 24.34533,-10.9484 26.38484,-13.7326 2.03958,-2.7843 -0.26043,-10.9822 2.75762,-13.0939 3.01797,-2.1117 17.06162,-3.5316 18.91438,-6.5792 1.8528,-3.0477 -0.43996,-8.4048 -0.43996,-8.4048 4.65373,0.9032 29.91664,3.2792 43.41599,-10.9383 13.49941,-14.2176 -16.14077,-18.5222 -16.14077,-18.5222 z"
     id="path5050"
     inkscape:connector-curvature="0" />
  <text
     xml:space="preserve"
     style="font-style:normal;font-variant:normal;font-weight:normal;font-stretch:normal;font-size:26.66666603px;line-height:1.25;font-family:Lavi;-inkscape-font-specification:'Lavi, Normal';font-variant-ligatures:normal;font-variant-caps:normal;font-variant-numeric:normal;font-feature-settings:normal;text-align:center;letter-spacing:0px;word-spacing:0px;writing-mode:lr-tb;text-anchor:middle;fill:#000000;fill-opacity:1;stroke:none"
     x="903.38562"
     y="2134.1636"
     id="text5193"><tspan
       sodipodi:role="line"
       id="tspan5191"
       x="903.38562"
       y="2134.1636">Lieux magiques !</tspan></text>
  <path
     style="display:inline;fill:#ffffff;fill-rule:evenodd;stroke:none;stroke-width:0.55154282px;stroke-linecap:butt;stroke-linejoin:miter;stroke-opacity:1"
     d="m 557.32263,2602.6982 c 28.56953,11.1774 44.84317,6.632 44.35276,-19.3494 13.63034,28.0762 23.08918,34.3554 28.69888,20.5222 18.04567,11.8902 29.31672,8.5549 38.26517,0 3.33533,11.0022 10.48795,6.5624 16.67814,6.0159 2.0388,2.4892 -4.96363,8.6734 23.3263,0.4339 1.83252,3.2946 4.30104,6.1319 20.87188,-1.1728 4.29299,13.3728 18.06688,-0.741 32.17758,-15.8313 -8.79137,18.5521 -5.14593,21.1725 6.08766,14.0723 -5.13594,7.6399 -8.20773,13.5541 11.30554,0.5864 -6.68034,14.1017 10.84558,4.4223 39.13487,-15.8314 -14.15074,14.9714 -51.6753,40.2046 -26.95955,38.1125 -3.44676,4.4136 -15.74118,8.2591 20.87189,15.245 -6.83517,2.995 -27.70273,-1.3816 -10.29541,11.2993 2.33222,1.4823 -5.4755,2.3875 9.42577,6.2911 -8.7964,-0.2656 -14.19097,0.6832 -6.08766,6.4498 -16.05663,-0.3119 -10.04894,5.7519 1.73934,13.4859 -23.25227,-9.9205 -24.53189,-6.315 -25.22027,-2.3453 -29.1419,-13.5252 -30.85254,-9.2668 -34.78642,-6.4499 -14.20451,0.1056 -28.40903,-1.5976 -42.61354,13.486 -3.71999,-9.3817 -11.17806,-16.603 -42.61342,-9.9679 13.80252,-11.935 -5.8334,-4.3311 -20.87189,0.5864 8.23538,-14.9099 -12.66494,-5.1246 -39.13486,9.3815 14.82305,-16.4646 -2.01244,-10.5173 -26.95955,1.1727 9.42576,-16.1749 -5.92503,-23.9972 -42.61348,-24.6265 17.56023,-5.8345 27.80036,-13.1771 9.56634,-26.3856 20.55495,3.8893 26.6862,0.2767 12.17526,-14.0723 22.41996,11.7776 12.22644,-5.3052 3.47867,-21.1085 z"
     id="path4508"
     inkscape:connector-curvature="0"
     sodipodi:nodetypes="cccccccccccccccccccccccccccc" />
  <text
     xml:space="preserve"
     style="font-style:normal;font-variant:normal;font-weight:normal;font-stretch:normal;font-size:26.66666603px;line-height:1.25;font-family:Lavi;-inkscape-font-specification:'Lavi, Normal';font-variant-ligatures:normal;font-variant-caps:normal;font-variant-numeric:normal;font-feature-settings:normal;text-align:center;letter-spacing:0px;word-spacing:0px;writing-mode:lr-tb;text-anchor:middle;fill:#000000;fill-opacity:1;stroke:none"
     x="675.95428"
     y="2648.4592"
     id="text5209"><tspan
       sodipodi:role="line"
       id="tspan5207"
       x="675.95428"
       y="2648.4592">Amies magiques !</tspan></text>
  <path
     style="display:inline;fill:#ffffff;stroke:none;stroke-width:0.64269447"
     d="m 303.18195,3210.9171 14.5799,17.6885 -8.46579,8.6175 4.23286,4.9891 -6.58445,4.9891 13.16898,3.6284 c -8.4968,11.0788 -19.93671,20.455 -31.98174,29.4809 l 17.87209,-2.7215 c -0.8762,6.3654 -4.82258,11.9903 -8.46571,17.6887 l 18.81275,-7.7105 c 0.49161,4.3018 -3.19743,6.991 -6.11411,9.9781 l 13.63924,-2.7213 -1.88126,3.6284 c 5.51357,-1.2351 10.75385,-2.2065 16.93149,-4.0819 l -7.99545,12.2458 16.46117,-7.7104 4.23285,4.9891 4.23293,-5.4426 4.70319,18.5955 8.93605,-19.5026 5.91164,11.4689 4.90574,-10.5618 c 6.05947,5.2228 9.10916,11.1299 11.28765,17.2349 4.79479,-7.2568 9.56866,-14.5137 16.46116,-21.7704 2.95321,2.16 7.12475,7.0614 12.2283,14.06 l 3.29226,-9.5245 c 8.88871,6.3649 16.5593,13.1213 21.16436,20.8633 v -19.5027 l 11.75798,9.9782 3.76252,-15.4207 10.34704,10.8852 0.94068,-12.6995 13.63923,9.071 -0.47033,-7.7103 13.63931,5.8961 c 0,0 -3.40035,-12.4585 -1.14099,-14.902 2.25927,-2.4436 18.54274,3.5634 18.54274,3.5634 0,0 -5.37248,-9.1146 -3.76252,-10.8854 1.60996,-1.7707 17.87216,0.4536 17.87216,0.4536 l -13.6393,-14.9672 c 10.11198,-4.9133 20.23887,-9.8123 32.45207,-12.6994 0,0 -15.23173,-9.5751 -15.65451,-11.8564 -0.4227,-2.2814 7.18872,-4.9251 7.18872,-4.9251 l -14.57882,-6.6731 16.46009,-8.294 -28.21915,0.907 12.69864,-15.8743 -21.16434,13.6068 8.93604,-29.4809 c -10.2654,12.6269 -24.04143,21.8685 -38.56619,30.3878 l 5.17353,-10.4317 -18.81277,12.2459 -1.88133,-24.0381 -7.52512,18.5955 c -6.58359,-9.9999 -10.18983,-20.8202 -11.75797,-32.2021 -1.3141,10.2805 -6.12457,20.561 -13.16891,30.8415 l -5.17352,-22.6775 -11.28764,17.6884 -6.11419,-13.6065 -10.34698,16.7814 -11.28772,-25.8524 -2.35159,24.4919 -6.58444,-9.9782 -3.7626,11.7922 -10.34698,-16.7813 2.35159,18.5955 c -10.55796,-8.8208 -17.68673,-14.3347 -26.33787,-21.3169 l 9.40637,24.0383 -14.5799,-11.3388 5.64387,16.7813 -12.22832,-6.3496 1.88126,10.4316 z"
     id="path3497"
     inkscape:connector-curvature="0"
     sodipodi:nodetypes="ccccccccccccccccccccccccccccccccccczczccczccccccccccccccccccccccccccccccc" />
  <text
     xml:space="preserve"
     style="font-style:normal;font-variant:normal;font-weight:normal;font-stretch:normal;font-size:26.66666603px;line-height:1.25;font-family:Lavi;-inkscape-font-specification:'Lavi, Normal';font-variant-ligatures:normal;font-variant-caps:normal;font-variant-numeric:normal;font-feature-settings:normal;text-align:center;letter-spacing:0px;word-spacing:0px;writing-mode:lr-tb;text-anchor:middle;fill:#000000;fill-opacity:1;stroke:none"
     x="415.69324"
     y="3248.1128"
     id="text5235"><tspan
       sodipodi:role="line"
       id="tspan5233"
       x="415.69324"
       y="3248.1128">POTIONS</tspan><tspan
       sodipodi:role="line"
       x="415.69324"
       y="3281.446"
       id="tspan5237">MAGIQUES !</tspan></text>
  <path
     style="fill:#ffffff;fill-rule:evenodd;stroke:none;stroke-width:0.4168894px;stroke-linecap:butt;stroke-linejoin:miter;stroke-opacity:1"
     d="m 421.09369,3376.246 32.08302,-47.9042 -13.97446,-0.5547 21.0663,-33.4165 -11.86698,-3.0361 -21.87688,42.0485 15.91056,1.1769 z"
     id="path4667"
     inkscape:connector-curvature="0" />
  <path
     style="fill:#ffffff;fill-rule:evenodd;stroke:none;stroke-width:0.73815513px;stroke-linecap:butt;stroke-linejoin:miter;stroke-opacity:1"
     d="m 329.84764,3823.7405 c 27.57307,1.4894 67.9491,-5.5552 45.65742,-27.98 43.26831,15.8884 78.74392,13.1148 149.12646,-11.8333 -5.8488,34.7608 25.60862,31.5131 53.96809,24.8394 -27.21714,11.6973 21.63875,18.4002 47.91887,19.0573 -55.59305,25.3003 -26.40051,33.3466 -4.49497,42.8758 -54.63478,-7.0503 -41.4212,7.2349 -47.94679,15.3128 -46.86841,-18.3026 -80.95276,-13.9587 -107.88035,3.0626 -14.08345,-9.2567 -18.50411,-28.3886 -70.42187,1.0208 19.09146,-25.3888 -5.93314,-22.7239 -46.44846,-10.2085 6.34968,-8.6477 44.0884,-21.7979 -19.4784,-20.4171 39.70505,-8.221 48.03136,-19.3574 0,-35.7298 z"
     id="path4584"
     inkscape:connector-curvature="0"
     sodipodi:nodetypes="cccccccccccc" />
  <text
     xml:space="preserve"
     style="font-style:normal;font-variant:normal;font-weight:normal;font-stretch:normal;font-size:26.66666603px;line-height:1.25;font-family:Lavi;-inkscape-font-specification:'Lavi, Normal';font-variant-ligatures:normal;font-variant-caps:normal;font-variant-numeric:normal;font-feature-settings:normal;text-align:center;letter-spacing:0px;word-spacing:0px;writing-mode:lr-tb;text-anchor:middle;fill:#000000;fill-opacity:1;stroke:none"
     x="482.25848"
     y="3847.8418"
     id="text5253"><tspan
       sodipodi:role="line"
       id="tspan5251"
       x="482.25848"
       y="3847.8418">Bêtise magique !</tspan></text>
  <path
     style="color:#000000;display:inline;overflow:visible;visibility:visible;fill:#ffffff;fill-opacity:1;fill-rule:nonzero;stroke:none;stroke-width:0.38182575px;marker:none;enable-background:accumulate"
     d="m 411.37493,3866.9829 c 17.70401,10.1324 36.45708,27.7935 6.91561,42.2703 0.62715,12.2736 -0.86869,21.6318 -25.74009,32.3047 16.18779,-10.3532 23.38459,-17.3341 20.49499,-35.3819 13.77557,-8.8685 11.48134,-23.5775 -13.17908,-33.15 -24.66046,-9.5724 -19.09216,-5.6704 -19.09216,-5.6704 l 23.49574,-3.3453 z"
     id="path5074"
     inkscape:connector-curvature="0"
     sodipodi:nodetypes="ccccsccc" />
  <path
     style="color:#000000;display:inline;overflow:visible;visibility:visible;fill:#ffffff;fill-opacity:1;fill-rule:nonzero;stroke:none;stroke-width:0.46985909px;marker:none;enable-background:accumulate"
     d="m 516.17699,4402.1965 c -3.28867,10.8811 -21.83727,11.7936 -28.66551,9.5818 13.76417,12.1727 13.28432,19.7356 -5.40355,20.91 31.33987,21.9383 5.72936,18.6186 0.67785,24.1815 24.60761,7.5603 13.59791,16.9695 9.2169,26.3361 28.28401,0.3218 19.02795,15.3362 20.22006,27.2942 2.39779,-5.6113 13.78909,-22.6943 14.4745,-3.6735 18.70822,-18.1469 41.2418,-29.8689 43.03103,1.8882 7.53786,-15.9761 15.0531,-22.7284 14.47449,-3.6733 18.67647,-24.7833 35.45984,-15.8626 52.34269,-8.8578 4.43419,-7.4802 4.95087,-18.972 19.2965,-16.279 -2.01143,-7.4142 2.83227,-12.5107 13.77095,-15.5371 -14.53577,-4.4787 -17.21466,-9.0984 9.77498,-14.0699 -20.53754,-0.4809 -39.68892,-1.466 -15.59392,-18.4203 -7.55928,-0.4103 -25.49443,13.7368 -17.13236,-27.665 -12.99858,13.2542 -26.8669,20.5695 -44.25902,-7.1945 -8.23084,13.8704 -22.50704,20.734 -28.71789,3.4088 -2.23231,7.386 -11.48864,10.1639 -19.34658,10.5007 -3.03867,-2.9339 -6.17272,-6.9188 -9.44323,-12.1397 -5.34539,10.9625 -13.34151,18.3661 -28.71789,3.4088 z"
     id="path3549-3-7"
     inkscape:connector-curvature="0"
     sodipodi:nodetypes="cccccccccccccccccccc" />
  <path
     style="fill:#ffffff;stroke:none;stroke-width:0.52260101"
     d="m 510.77843,4535.6438 c 15.40447,-7.1311 15.40178,-12.0004 14.89084,-17.5547 -0.51082,-5.5544 -1.6602,-10.557 1.0081,-13.238 2.66818,-2.6809 7.61774,-4.523 11.50312,-5.4454 3.88538,-0.9224 1.41423,-5.0542 1.9116,-8.8568 0.49744,-3.8027 11.06752,-22.2229 11.06752,-22.2229 0,0 5.64687,14.7936 5.752,19.7618 0.10524,4.9681 0.17174,6.7844 -0.39214,8.7708 -0.56399,1.9864 -2.75197,6.6882 -6.4485,8.5715 -3.69652,1.8833 -8.19253,2.0218 -11.34493,2.8728 -3.15245,0.851 -3.43201,5.2281 -4.04379,9.5043 -0.61172,4.2763 -1.82678,7.2913 -8.14771,11.7791 -5.41817,3.8468 -15.75611,6.0575 -15.75611,6.0575 z"
     id="path3023-2"
     inkscape:connector-curvature="0"
     sodipodi:nodetypes="csssscssssssc" />
  <text
     xml:space="preserve"
     style="font-style:normal;font-variant:normal;font-weight:normal;font-stretch:normal;font-size:26.66666603px;line-height:1.25;font-family:Lavi;-inkscape-font-specification:'Lavi, Normal';font-variant-ligatures:normal;font-variant-caps:normal;font-variant-numeric:normal;font-feature-settings:normal;text-align:center;letter-spacing:0px;word-spacing:0px;writing-mode:lr-tb;text-anchor:middle;fill:#000000;fill-opacity:1;stroke:none"
     x="569.20087"
     y="4439.4946"
     id="text5275"><tspan
       sodipodi:role="line"
       id="tspan5273"
       x="573.88837"
       y="4439.4946">Punition </tspan><tspan
       sodipodi:role="line"
       x="569.20087"
       y="4472.8281"
       id="tspan5277">magique !</tspan></text>
  <path
     style="color:#000000;display:inline;overflow:visible;visibility:visible;fill:#ffffff;fill-opacity:1;fill-rule:nonzero;stroke:none;stroke-width:0.77872914px;marker:none;enable-background:accumulate"
     d="m 929.06639,4559.4913 c -2.67003,-0.2209 -10.48344,24.0869 -10.48344,24.0869 0,0 -9.00015,4.8552 -10.7162,6.113 -0.66608,4.8447 0.68968,11.2566 0.68968,11.2566 l -27.49812,7.5243 15.5402,-9.2137 -7.00182,-9.6788 13.72827,-10.0637 7.04798,-17.9506 z"
     id="path4448"
     inkscape:connector-curvature="0"
     sodipodi:nodetypes="cccccccccc" />
  <path
     style="color:#000000;display:inline;overflow:visible;visibility:visible;fill:#ffffff;fill-opacity:1;fill-rule:nonzero;stroke:none;stroke-width:0.87802279px;marker:none;enable-background:accumulate"
     d="m 845.8945,4553.2535 9.71961,-16.4592 -13.75258,-3.2523 6.59056,-6.4093 6.62787,-4.6382 8.70042,-2.6012 -8.33877,-10.6291 11.83603,-1.0841 1.2458,-8.6728 10.59005,-7.0468 8.72116,4.8787 4.3814,-9.6527 18.04449,5.8582 3.73768,-6.5044 9.96706,4.8782 23.6717,-8.6725 1.24588,7.0464 7.47535,-7.5886 1.8689,9.2147 11.21295,-8.1304 17.44225,9.7566 14.95059,1.0842 1.869,7.5885 11.8358,-5.4204 -4.3606,14.6353 20.557,9.7567 2.4918,10.841 -3.7377,3.7943 -2.4918,5.9626 11.2131,7.0464 -16.8195,-1.6262 14.9506,8.1308 -12.7134,4.7974 -8.9201,-0.2608 -3.7061,2.7251 -5.4472,9.9295 -14.13757,-6.9481 -7.71411,14.1489 -16.02664,-11.8168 -5.82515,8.3065 -8.93891,-5.3565 -9.37359,3.2281 -11.85149,11.6013 -7.847,-11.5274 -13.51438,5.3508 -9.35832,-9.2555 -16.19708,7.1684 -2.31771,-6.5914 -12.35556,-4.7818 -12.69565,3.8627 2.51964,-14.5448 z"
     id="path4448-1"
     inkscape:connector-curvature="0"
     sodipodi:nodetypes="cccccccccccccccccccccccccccccccccccccccccccccccccccc" />
  <text
     xml:space="preserve"
     style="font-style:normal;font-variant:normal;font-weight:normal;font-stretch:normal;font-size:26.66666603px;line-height:1.25;font-family:Lavi;-inkscape-font-specification:'Lavi, Normal';font-variant-ligatures:normal;font-variant-caps:normal;font-variant-numeric:normal;font-feature-settings:normal;text-align:center;letter-spacing:0px;word-spacing:0px;writing-mode:lr-tb;text-anchor:middle;fill:#000000;fill-opacity:1;stroke:none"
     x="941.42291"
     y="4521.0039"
     id="text5289"><tspan
       sodipodi:role="line"
       id="tspan5287"
       x="946.11041"
       y="4521.0039">&lt;Juron </tspan><tspan
       sodipodi:role="line"
       x="941.42291"
       y="4554.3374"
       id="tspan5291">magique !&gt;</tspan></text>
</svg>
