<?xml version="1.0" encoding="UTF-8" standalone="no"?>
<!-- Created with Inkscape (http://www.inkscape.org/) -->

<svg
   xmlns:dc="http://purl.org/dc/elements/1.1/"
   xmlns:cc="http://creativecommons.org/ns#"
   xmlns:rdf="http://www.w3.org/1999/02/22-rdf-syntax-ns#"
   xmlns:svg="http://www.w3.org/2000/svg"
   xmlns="http://www.w3.org/2000/svg"
   xmlns:xlink="http://www.w3.org/1999/xlink"
   xmlns:sodipodi="http://sodipodi.sourceforge.net/DTD/sodipodi-0.dtd"
   xmlns:inkscape="http://www.inkscape.org/namespaces/inkscape"
   version="1.1"
   id="svg2"
   width="992"
   height="3042"
   viewBox="0 0 991.99998 3042"
   sodipodi:docname="PCMINI_E17.svg"
   inkscape:version="0.92.3 (2405546, 2018-03-11)"
   inkscape:export-xdpi="300"
   inkscape:export-ydpi="300">
  <metadata
     id="metadata8">
    <rdf:RDF>
      <cc:Work
         rdf:about="">
        <dc:format>image/svg+xml</dc:format>
        <dc:type
           rdf:resource="http://purl.org/dc/dcmitype/StillImage" />
        <dc:title />
      </cc:Work>
    </rdf:RDF>
  </metadata>
  <defs
     id="defs6">
    <pattern
       y="0"
       x="0"
       height="6"
       width="6"
       patternUnits="userSpaceOnUse"
       id="EMFhbasepattern" />
    <filter
       style="color-interpolation-filters:sRGB"
       id="filter4375-4-1-1-1-9-5-8-8"
       inkscape:label="Drop Shadow">
      <feFlood
         id="feFlood4377-7-9-0-8-1-7-3-1"
         flood-opacity="1"
         flood-color="rgb(190,113,27)"
         result="flood" />
      <feComposite
         id="feComposite4379-3-8-8-2-77-4-1-0"
         in2="SourceGraphic"
         in="flood"
         operator="in"
         result="composite1"
         baseFrequency="0.053999999999999999 0.053999999999999999" />
      <feMorphology
         id="feMorphology4393-1-0-49-8-9-3-0-1"
         operator="dilate"
         radius="6.2000000000000002"
         result="result3" />
      <feComposite
         id="feComposite4385-9-5-7-0-8-8-7-5"
         in2="result3"
         in="SourceGraphic"
         operator="over"
         result="fbSourceGraphic" />
      <feColorMatrix
         result="fbSourceGraphicAlpha"
         in="fbSourceGraphic"
         values="0 0 0 -1 0 0 0 0 -1 0 0 0 0 -1 0 0 0 0 1 0"
         id="feColorMatrix4544-9" />
      <feTurbulence
         id="feTurbulence4546-3"
         type="fractalNoise"
         numOctaves="5"
         seed="174"
         baseFrequency="0.053999999999999999 0.054054054054054057"
         result="turbulence" />
      <feDisplacementMap
         id="feDisplacementMap4548-8"
         in2="turbulence"
         in="fbSourceGraphic"
         scale="6.6"
         yChannelSelector="G"
         xChannelSelector="R"
         result="fbSourceGraphic" />
      <feColorMatrix
         result="fbSourceGraphicAlpha"
         in="fbSourceGraphic"
         values="0 0 0 -1 0 0 0 0 -1 0 0 0 0 -1 0 0 0 0 1 0"
         id="feColorMatrix4670-7" />
      <feFlood
         id="feFlood4672-4"
         flood-opacity="1"
         flood-color="rgb(141,82,22)"
         result="flood"
         in="fbSourceGraphic" />
      <feComposite
         id="feComposite4674-8"
         in2="fbSourceGraphic"
         in="flood"
         operator="in"
         result="composite1" />
      <feGaussianBlur
         id="feGaussianBlur4676-3"
         in="composite1"
         stdDeviation="0"
         result="blur" />
      <feOffset
         id="feOffset4678-6"
         dx="6"
         dy="6"
         result="offset" />
      <feComposite
         id="feComposite4680-4"
         in2="offset"
         in="fbSourceGraphic"
         operator="over"
         result="composite2" />
    </filter>
    <filter
       style="color-interpolation-filters:sRGB"
       id="filter4375-4-1-1-1-9-5"
       inkscape:label="deevad outline effect">
      <feFlood
         id="feFlood4377-7-9-0-8-1-7"
         flood-opacity="1"
         flood-color="rgb(0,0,0)"
         result="flood" />
      <feComposite
         id="feComposite4379-3-8-8-2-77-4"
         in2="SourceGraphic"
         in="flood"
         operator="in"
         result="composite1" />
      <feMorphology
         id="feMorphology4393-1-0-49-8-9-3"
         operator="dilate"
         radius="1.3999999999999999"
         result="result3" />
      <feComposite
         id="feComposite4385-9-5-7-0-8-8"
         in2="result3"
         in="SourceGraphic"
         operator="over"
         result="composite2" />
    </filter>
    <filter
       style="color-interpolation-filters:sRGB"
       id="filter4375-4-1-1-1-9-5-8"
       inkscape:label="Drop Shadow">
      <feFlood
         id="feFlood4377-7-9-0-8-1-7-3"
         flood-opacity="1"
         flood-color="rgb(108,125,133)"
         result="flood" />
      <feComposite
         id="feComposite4379-3-8-8-2-77-4-1"
         in2="SourceGraphic"
         in="flood"
         operator="in"
         result="composite1" />
      <feMorphology
         id="feMorphology4393-1-0-49-8-9-3-0"
         operator="dilate"
         radius="6.2000000000000002"
         result="result3" />
      <feComposite
         id="feComposite4385-9-5-7-0-8-8-7"
         in2="result3"
         in="SourceGraphic"
         operator="over"
         result="fbSourceGraphic" />
      <feColorMatrix
         result="fbSourceGraphicAlpha"
         in="fbSourceGraphic"
         values="0 0 0 -1 0 0 0 0 -1 0 0 0 0 -1 0 0 0 0 1 0"
         id="feColorMatrix4544" />
      <feTurbulence
         id="feTurbulence4546"
         type="fractalNoise"
         numOctaves="3"
         seed="37"
         baseFrequency="0.129 0.0050000000000000001"
         result="turbulence" />
      <feDisplacementMap
         id="feDisplacementMap4548"
         in2="turbulence"
         in="fbSourceGraphic"
         scale="6.6"
         yChannelSelector="G"
         xChannelSelector="R"
         result="fbSourceGraphic" />
      <feColorMatrix
         result="fbSourceGraphicAlpha"
         in="fbSourceGraphic"
         values="0 0 0 -1 0 0 0 0 -1 0 0 0 0 -1 0 0 0 0 1 0"
         id="feColorMatrix4670" />
      <feFlood
         id="feFlood4672"
         flood-opacity="1"
         flood-color="rgb(17,52,65)"
         result="flood"
         in="fbSourceGraphic" />
      <feComposite
         id="feComposite4674"
         in2="fbSourceGraphic"
         in="flood"
         operator="in"
         result="composite1" />
      <feGaussianBlur
         id="feGaussianBlur4676"
         in="composite1"
         stdDeviation="0"
         result="blur" />
      <feOffset
         id="feOffset4678"
         dx="6"
         dy="6"
         result="offset" />
      <feComposite
         id="feComposite4680"
         in2="offset"
         in="fbSourceGraphic"
         operator="over"
         result="composite2" />
    </filter>
    <filter
       style="color-interpolation-filters:sRGB"
       id="filter4375-4-1-1-1-9-5-2"
       inkscape:label="deevad outline effect">
      <feFlood
         id="feFlood4377-7-9-0-8-1-7-0"
         flood-opacity="1"
         flood-color="rgb(0,0,0)"
         result="flood" />
      <feComposite
         id="feComposite4379-3-8-8-2-77-4-3"
         in2="SourceGraphic"
         in="flood"
         operator="in"
         result="composite1" />
      <feMorphology
         id="feMorphology4393-1-0-49-8-9-3-7"
         operator="dilate"
         radius="1.3999999999999999"
         result="result3" />
      <feComposite
         id="feComposite4385-9-5-7-0-8-8-2"
         in2="result3"
         in="SourceGraphic"
         operator="over"
         result="composite2" />
    </filter>
    <filter
       style="color-interpolation-filters:sRGB"
       id="filter4375-4-1-1-1-9-5-2-0"
       inkscape:label="deevad outline effect">
      <feFlood
         id="feFlood4377-7-9-0-8-1-7-0-2"
         flood-opacity="1"
         flood-color="rgb(0,0,0)"
         result="flood" />
      <feComposite
         id="feComposite4379-3-8-8-2-77-4-3-1"
         in2="SourceGraphic"
         in="flood"
         operator="in"
         result="composite1" />
      <feMorphology
         id="feMorphology4393-1-0-49-8-9-3-7-0"
         operator="dilate"
         radius="1.3999999999999999"
         result="result3" />
      <feComposite
         id="feComposite4385-9-5-7-0-8-8-2-2"
         in2="result3"
         in="SourceGraphic"
         operator="over"
         result="composite2" />
    </filter>
    <filter
       style="color-interpolation-filters:sRGB"
       id="filter4375-4-1-1-1-9-5-2-0-0"
       inkscape:label="deevad outline effect">
      <feFlood
         id="feFlood4377-7-9-0-8-1-7-0-2-5"
         flood-opacity="1"
         flood-color="rgb(0,0,0)"
         result="flood" />
      <feComposite
         id="feComposite4379-3-8-8-2-77-4-3-1-5"
         in2="SourceGraphic"
         in="flood"
         operator="in"
         result="composite1" />
      <feMorphology
         id="feMorphology4393-1-0-49-8-9-3-7-0-5"
         operator="dilate"
         radius="1.3999999999999999"
         result="result3" />
      <feComposite
         id="feComposite4385-9-5-7-0-8-8-2-2-4"
         in2="result3"
         in="SourceGraphic"
         operator="over"
         result="composite2" />
    </filter>
    <filter
       style="color-interpolation-filters:sRGB"
       id="filter4375-4-1-1-1-9-5-2-03"
       inkscape:label="deevad outline effect">
      <feFlood
         id="feFlood4377-7-9-0-8-1-7-0-8"
         flood-opacity="1"
         flood-color="rgb(0,0,0)"
         result="flood" />
      <feComposite
         id="feComposite4379-3-8-8-2-77-4-3-9"
         in2="SourceGraphic"
         in="flood"
         operator="in"
         result="composite1" />
      <feMorphology
         id="feMorphology4393-1-0-49-8-9-3-7-3"
         operator="dilate"
         radius="1.3999999999999999"
         result="result3" />
      <feComposite
         id="feComposite4385-9-5-7-0-8-8-2-20"
         in2="result3"
         in="SourceGraphic"
         operator="over"
         result="composite2" />
    </filter>
    <filter
       style="color-interpolation-filters:sRGB"
       id="filter4375-4-1-1-1-9-5-2-03-2"
       inkscape:label="deevad outline effect">
      <feFlood
         id="feFlood4377-7-9-0-8-1-7-0-8-0"
         flood-opacity="1"
         flood-color="rgb(0,0,0)"
         result="flood" />
      <feComposite
         id="feComposite4379-3-8-8-2-77-4-3-9-3"
         in2="SourceGraphic"
         in="flood"
         operator="in"
         result="composite1" />
      <feMorphology
         id="feMorphology4393-1-0-49-8-9-3-7-3-9"
         operator="dilate"
         radius="1.3999999999999999"
         result="result3" />
      <feComposite
         id="feComposite4385-9-5-7-0-8-8-2-20-6"
         in2="result3"
         in="SourceGraphic"
         operator="over"
         result="composite2" />
    </filter>
  </defs>
  <sodipodi:namedview
     pagecolor="#ffffff"
     bordercolor="#666666"
     borderopacity="1"
     objecttolerance="10"
     gridtolerance="10"
     guidetolerance="10"
     inkscape:pageopacity="0"
     inkscape:pageshadow="2"
     inkscape:window-width="1920"
     inkscape:window-height="1057"
     id="namedview4"
     showgrid="false"
     inkscape:zoom="1.4127768"
     inkscape:cx="446.40866"
     inkscape:cy="386.40704"
     inkscape:window-x="-8"
     inkscape:window-y="-8"
     inkscape:window-maximized="1"
     inkscape:current-layer="svg2"
     fit-margin-top="0"
     fit-margin-left="0"
     fit-margin-right="0"
     fit-margin-bottom="0"
     inkscape:measure-start="0,0"
     inkscape:measure-end="0,0" />
  <image
     sodipodi:absref="../../img/17/gfx_Pepper-and-Carrot-MINI_by_Nicolas_Artance_E17.png"
     xlink:href="../../img/17/gfx_Pepper-and-Carrot-MINI_by_Nicolas_Artance_E17.png"
     y="0"
     x="0"
     id="image10"
     preserveAspectRatio="none"
     width="992"
     height="3042" />
  <flowRoot
     xml:space="preserve"
     id="flowRoot3682"
     style="font-style:normal;font-variant:normal;font-weight:normal;font-stretch:normal;font-size:40px;line-height:1.25;font-family:Lavi;-inkscape-font-specification:Lavi;letter-spacing:0px;word-spacing:0px;fill:#000000;fill-opacity:1;stroke:none"
     transform="matrix(1.1663727,0,0,1.2391611,0.7955986,35.976788)"
     inkscape:export-xdpi="300"
     inkscape:export-ydpi="300"><flowRegion
       id="flowRegion3684"
       style="font-style:normal;font-variant:normal;font-weight:normal;font-stretch:normal;font-family:Lavi;-inkscape-font-specification:Lavi"><rect
         id="rect3686"
         width="449.13834"
         height="55.157722"
         x="17.29627"
         y="-14.053221"
         style="font-style:normal;font-variant:normal;font-weight:normal;font-stretch:normal;font-family:Lavi;-inkscape-font-specification:Lavi" /></flowRegion><flowPara
       id="flowPara3688"
       style="font-style:normal;font-variant:normal;font-weight:normal;font-stretch:normal;font-family:Lavi;-inkscape-font-specification:Lavi">Pepper et Carrot MINI</flowPara></flowRoot>  <flowRoot
     xml:space="preserve"
     id="flowRoot3690"
     style="font-style:normal;font-variant:normal;font-weight:normal;font-stretch:normal;font-size:18.66666603px;line-height:1.25;font-family:Lavi;-inkscape-font-specification:Lavi;text-align:end;letter-spacing:0px;word-spacing:0px;text-anchor:end;fill:#000000;fill-opacity:1;stroke:none"
     transform="matrix(1.2002711,0,0,1.2122625,-156.30426,8.423348)"><flowRegion
       id="flowRegion3692"
       style="font-style:normal;font-variant:normal;font-weight:normal;font-stretch:normal;font-size:18.66666603px;font-family:Lavi;-inkscape-font-specification:Lavi;text-align:end;text-anchor:end"><rect
         id="rect3694"
         width="378.35593"
         height="104.85864"
         x="562.12878"
         y="6.4861007"
         style="font-style:normal;font-variant:normal;font-weight:normal;font-stretch:normal;font-size:18.66666603px;font-family:Lavi;-inkscape-font-specification:Lavi;text-align:end;text-anchor:end" /></flowRegion><flowPara
       id="flowPara3696"
       style="font-style:normal;font-variant:normal;font-weight:normal;font-stretch:normal;font-size:18.66666603px;font-family:Lavi;-inkscape-font-specification:Lavi">Par Nicolas Artance</flowPara><flowPara
       style="font-style:normal;font-variant:normal;font-weight:normal;font-stretch:normal;font-size:18.66666603px;font-family:Lavi;-inkscape-font-specification:Lavi"
       id="flowPara3700">basé sur le webcomic CC-BY</flowPara><flowPara
       style="font-style:normal;font-variant:normal;font-weight:normal;font-stretch:normal;font-size:18.66666603px;font-family:Lavi;-inkscape-font-specification:Lavi"
       id="flowPara3704">Pepper&amp;Carrot de David Revoy</flowPara></flowRoot>  <flowRoot
     xml:space="preserve"
     id="flowRoot3706"
     style="font-style:normal;font-variant:normal;font-weight:normal;font-stretch:normal;font-size:40px;line-height:1.25;font-family:Lavi;-inkscape-font-specification:Lavi;text-align:center;letter-spacing:0px;word-spacing:0px;text-anchor:middle;fill:#000000;fill-opacity:1;stroke:none"
     transform="matrix(1.7946554,0,0,2.0343253,-19.588571,-89.20121)"><flowRegion
       id="flowRegion3708"
       style="font-style:normal;font-variant:normal;font-weight:normal;font-stretch:normal;font-family:Lavi;-inkscape-font-specification:Lavi;text-align:center;text-anchor:middle"><rect
         id="rect3710"
         width="281.06439"
         height="82.157288"
         x="153.50441"
         y="79.995255"
         style="font-style:normal;font-variant:normal;font-weight:normal;font-stretch:normal;font-family:Lavi;-inkscape-font-specification:Lavi;text-align:center;text-anchor:middle" /></flowRegion><flowPara
       id="flowPara3712"
       style="font-style:normal;font-variant:normal;font-weight:normal;font-stretch:normal;font-size:14.66666698px;font-family:Lavi;-inkscape-font-specification:Lavi;text-align:center;text-anchor:middle">#17 - Aquah</flowPara></flowRoot>  <path
     style="color:#000000;display:inline;overflow:visible;visibility:visible;fill:#ffffff;fill-opacity:1;fill-rule:nonzero;stroke:none;stroke-width:0.15533459px;marker:none;enable-background:accumulate"
     d="m 528.9961,232.89048 c 0.56225,-9.44993 6.4659,-13.56914 8.43378,-14.53837 1.96788,-0.96922 3.93575,-9.20763 35.98412,-10.90377 19.39769,-0.96922 28.39372,5.08841 30.3616,5.57304 1.96788,0.4846 17.07448,12.86597 13.56951,23.32048 -2.53014,7.54676 -5.51897,10.29654 -10.68969,11.70167 -5.94934,1.61676 -42.51856,2.05068 -50.67123,0.11223 -8.15266,-1.93843 -23.61458,0.96923 -26.98809,-15.26528 z"
     id="path4472"
     inkscape:connector-curvature="0"
     sodipodi:nodetypes="cscssssc" />
  <path
     style="color:#000000;display:inline;overflow:visible;visibility:visible;fill:#ffffff;fill-opacity:1;fill-rule:nonzero;stroke:none;stroke-width:0.26245689px;marker:none;enable-background:accumulate"
     d="m 558.96224,241.01496 c 4.46416,15.70342 -1.29499,34.35392 -3.88029,40.12125 10.01486,-14.0236 15.93795,-29.55813 12.4454,-40.01405 -3.49255,-10.45595 -8.56511,-0.1072 -8.56511,-0.1072 z"
     id="path4480"
     inkscape:connector-curvature="0" />
  <text
     xml:space="preserve"
     style="font-style:normal;font-variant:normal;font-weight:normal;font-stretch:normal;font-size:21.33333397px;line-height:1.25;font-family:Lavi;-inkscape-font-specification:Lavi;letter-spacing:0px;word-spacing:0px;fill:#000000;fill-opacity:1;stroke:none"
     x="575.83246"
     y="235.34685"
     id="text35"><tspan
       sodipodi:role="line"
       x="575.83246"
       y="235.34685"
       id="tspan37"
       style="font-size:18.66666603px;text-align:center;text-anchor:middle">Bon.</tspan></text>
  <path
     style="fill:#ffffff;stroke:none;stroke-width:0.39051083"
     d="m 188.04459,321.98456 c -0.51323,-18.68667 10.77777,-40.8991 29.25387,-44.4249 18.47614,-3.52577 132.92548,-7.05155 142.67677,-4.58354 9.75133,2.46807 21.55552,7.05157 31.30681,13.75056 9.75128,6.69899 17.44969,17.9815 15.90998,27.14854 -1.53966,9.16706 -8.72485,27.8537 -15.39678,32.78981 -6.67192,4.93609 -24.63482,16.5712 -42.59773,18.68665 -17.96291,2.11548 -39.00517,3.87836 -47.21679,3.52578 -8.21162,-0.35258 -50.29614,-2.46803 -50.29614,-2.46803 0,0 -22.58191,1.41031 -29.7671,-2.11547 -7.18514,-3.5258 -25.66127,-9.51964 -31.30675,-24.32792 -5.6455,-14.80827 -2.56614,-5.28868 -2.56614,-17.98148 z"
     id="path3971"
     inkscape:connector-curvature="0" />
  <path
     style="color:#000000;display:inline;overflow:visible;visibility:visible;fill:#ffffff;fill-opacity:1;fill-rule:nonzero;stroke:none;stroke-width:0.28963736px;marker:none;enable-background:accumulate"
     d="m 398.38151,364.03521 c -21.1815,-14.24929 -30.09157,-20.15216 -28.16406,-37.13318 1.92744,-16.98104 -10.26324,-4.87601 -10.26324,-4.87601 0,0 -12.25526,27.13723 38.4273,42.00919 z"
     id="path3984"
     inkscape:connector-curvature="0" />
  <text
     xml:space="preserve"
     style="font-style:normal;font-variant:normal;font-weight:normal;font-stretch:normal;font-size:21.33333397px;line-height:1.25;font-family:Lavi;-inkscape-font-specification:Lavi;letter-spacing:0px;word-spacing:0px;fill:#000000;fill-opacity:1;stroke:none"
     x="295.55304"
     y="299.17465"
     id="text49"><tspan
       sodipodi:role="line"
       x="298.83429"
       y="299.17465"
       style="font-size:18.66666603px;text-align:center;text-anchor:middle"
       id="tspan132">Parlons un peu d'une </tspan><tspan
       sodipodi:role="line"
       x="295.55304"
       y="325.84131"
       style="font-size:18.66666603px;text-align:center;text-anchor:middle"
       id="tspan136">autre des six écoles</tspan><tspan
       sodipodi:role="line"
       x="295.55304"
       y="352.508"
       style="font-size:18.66666603px;text-align:center;text-anchor:middle"
       id="tspan138">de magie.</tspan></text>
  <path
     id="path58"
     d="m 229.8902,519.36954 c -5.50561,-1.43363 -14.15726,3.53628 -15.44721,3.18584 -1.32138,-0.35044 -9.97298,-1.43363 -11.79772,-3.18584 -1.85618,-1.78407 -7.07865,3.18584 -8.6517,1.75221 -1.57308,-1.40176 1.82474,6.02124 7.33031,6.75398 5.50568,0.70088 11.54614,1.75221 13.37079,3.88672 1.82476,2.13451 1.32138,6.40354 1.32138,6.40354 l -2.10786,1.40177 3.39772,2.83539 c 0,0 -0.50337,3.91859 -2.07634,3.53628 -1.57306,-0.35044 -13.37079,2.8354 -14.44048,3.56814 -1.03817,0.70089 -8.11691,7.42301 -9.68987,7.07257 -1.57307,-0.35045 -6.04047,-1.40177 -6.04047,-1.40177 0,0 4.21572,2.83539 6.04047,3.53628 1.82465,0.70088 14.94375,0.70088 16.51682,0.70088 h 10.47645 c 2.10786,0 5.78872,-3.88672 7.86512,-2.83539 2.10787,1.08318 8.40001,1.08318 8.40001,1.08318 z"
     style="fill:#d6c38d;fill-opacity:1;fill-rule:evenodd;stroke:none;stroke-width:0.39573929"
     inkscape:connector-curvature="0" />
  <path
     id="path60"
     d="m 220.32613,502.67575 9.12362,6.78583 1.35281,10.8 -0.69212,4.61946 -0.91238,2.77168 4.34157,1.9115 0.59775,7.23186 c 0,0 -0.15729,5.03362 0.31462,6.88141 0.44044,1.84778 -0.69215,5.54336 -0.47191,7.70973 0.25168,2.16637 0.69213,5.54336 0,6.78584 -0.66068,1.24247 -6.95281,-17.96814 -9.68989,-21.0584 -1.6045,-3.37699 -3.96407,-34.43891 -3.96407,-34.43891 z"
     style="fill:#6e674b;fill-opacity:1;fill-rule:evenodd;stroke:none;stroke-width:0.39573929"
     inkscape:connector-curvature="0" />
  <path
     id="path62"
     d="m 410.22281,502.61203 c -15.91911,-12.80707 -40.86743,-6.40354 -49.36181,-4.96991 -8.46291,1.43363 -43.51012,4.96991 -48.7955,3.56814 -5.31685,-1.43363 -21.7708,-3.56814 -27.62249,-3.56814 -5.82022,0 -28.62922,3.56814 -32.34157,2.13451 -3.74382,-1.43363 -27.62249,0.70089 -31.86967,2.8354 1.06969,12.10619 3.209,28.51325 3.74382,34.18405 7.95955,-1.40177 21.73934,0.73274 29.69888,2.86725 7.95954,2.13451 27.05619,-5.00177 36.08541,-5.00177 9.0292,0 50.93483,5.00177 62.10337,5.00177 11.13709,0 45.61799,-6.40353 54.64719,-6.40353 2.13933,-12.83893 3.71237,-30.64777 3.71237,-30.64777 z"
     style="fill:#b89f62;fill-opacity:1;fill-rule:evenodd;stroke:none;stroke-width:0.39573929"
     inkscape:connector-curvature="0" />
  <g
     id="g101"
     style="fill:#0088aa">
    <text
       id="text76"
       y="526.26331"
       x="319.22635"
       style="font-style:normal;font-variant:normal;font-weight:normal;font-stretch:normal;font-size:21.33333397px;line-height:1.25;font-family:Lavi;-inkscape-font-specification:Lavi;text-align:center;letter-spacing:0px;word-spacing:0px;text-anchor:middle;fill:#0088aa;fill-opacity:1;stroke:none"
       xml:space="preserve"><tspan
         style="font-style:normal;font-variant:normal;font-weight:bold;font-stretch:normal;font-size:24px;font-family:Lavi;-inkscape-font-specification:'Lavi, Bold';font-variant-ligatures:normal;font-variant-caps:normal;font-variant-numeric:normal;font-feature-settings:normal;text-align:center;writing-mode:lr-tb;text-anchor:middle;fill:#0088aa"
         y="526.26331"
         x="319.22635"
         id="tspan74"
         sodipodi:role="line">AQUAH.</tspan></text>
  </g>
  <path
     id="path58-7"
     d="m 830.93523,703.55697 c 7.99898,-3.83545 20.56876,9.46076 22.44291,8.52321 1.91982,-0.93755 14.48954,-3.83543 17.14064,-8.52321 2.69681,-4.77299 10.28443,8.52321 12.56989,4.68778 2.28549,-3.75021 -2.65114,16.10887 -10.65007,18.0692 -7.99906,1.87509 -16.77513,4.68777 -19.42612,10.39832 -2.65115,5.71054 -1.9198,17.13165 -1.9198,17.13165 l 3.06246,3.75022 -4.93646,7.58564 c 0,0 0.73132,10.48358 3.01667,9.46076 2.28545,-0.93753 19.42612,7.58569 20.98024,9.54601 1.50834,1.87511 11.7929,19.85909 14.07821,18.92156 2.28548,-0.93759 8.77606,-3.75023 8.77606,-3.75023 0,0 -6.12492,7.58565 -8.77606,9.46077 -2.651,1.8751 -21.71146,1.8751 -23.99693,1.8751 h -15.221 c -3.06246,0 -8.4103,-10.39832 -11.42707,-7.58564 -3.06248,2.89787 -12.20418,2.89787 -12.20418,2.89787 z"
     style="fill:#d6c38d;fill-opacity:1;fill-rule:evenodd;stroke:none;stroke-width:0.78021359"
     inkscape:connector-curvature="0" />
  <path
     id="path60-0"
     d="m 844.83067,658.89534 -13.25552,18.15444 -1.96547,28.89371 1.00557,12.35864 1.32558,7.41519 -6.30777,5.11391 -0.86845,19.34771 c 0,0 0.22851,13.46668 -0.45712,18.41013 -0.63991,4.94346 1.00561,14.83041 0.68563,20.62619 -0.36566,5.79578 -1.00558,14.83038 0,18.15445 0.95988,3.32404 10.10158,-48.07095 14.07824,-56.33845 2.33113,-9.03461 5.75931,-92.13592 5.75931,-92.13592 z"
     style="fill:#6e674b;fill-opacity:1;fill-rule:evenodd;stroke:none;stroke-width:0.78021359"
     inkscape:connector-curvature="0" />
  <path
     id="path62-2"
     d="m 537.27756,657.55424 c 25.78098,-34.66366 66.18473,-17.33184 79.94138,-13.45157 13.70565,3.88027 70.46458,13.45157 79.02424,9.65755 8.61062,-3.88027 35.25777,-9.65755 44.73457,-9.65755 9.42584,0 46.36497,9.65755 52.37713,5.77728 6.06311,-3.88028 44.73457,1.89702 51.61287,7.67429 -1.73236,32.76663 -5.19696,77.17402 -6.0631,92.52262 -12.89048,-3.79403 -35.20684,1.98324 -48.09729,7.76051 -12.89048,5.77728 -43.81745,-13.53781 -58.44028,-13.53781 -14.62277,0 -82.48886,13.53781 -100.5763,13.53781 -18.0365,0 -73.87827,-17.33181 -88.50104,-17.33181 -3.46464,-34.74987 -6.01218,-82.95132 -6.01218,-82.95132 z"
     style="fill:#b89f62;fill-opacity:1;fill-rule:evenodd;stroke:none;stroke-width:0.82853651"
     inkscape:connector-curvature="0" />
  <text
     xml:space="preserve"
     style="font-style:italic;font-variant:normal;font-weight:normal;font-stretch:normal;font-size:21.33333397px;line-height:1;font-family:Lavi;-inkscape-font-specification:'Lavi Italic';text-align:center;letter-spacing:0px;word-spacing:0px;text-anchor:middle;fill:#006680;fill-opacity:1;stroke:none"
     x="693.95764"
     y="670.07544"
     id="text105"><tspan
       sodipodi:role="line"
       x="693.95764"
       y="670.07544"
       style="font-size:16px;line-height:1;text-align:center;text-anchor:middle;fill:#006680"
       id="tspan149">Aquah... que dire ? On ne sait pas grand-</tspan><tspan
       sodipodi:role="line"
       x="696.62952"
       y="691.40875"
       style="font-size:16px;line-height:1;text-align:center;text-anchor:middle;fill:#006680"
       id="tspan151">chose sur cette école. Elle aurait été </tspan><tspan
       sodipodi:role="line"
       x="696.62952"
       y="712.74213"
       style="font-size:16px;line-height:1;text-align:center;text-anchor:middle;fill:#006680"
       id="tspan157">fondée par une sirène imposante qui </tspan><tspan
       sodipodi:role="line"
       x="693.95764"
       y="734.07544"
       style="font-size:16px;line-height:1;text-align:center;text-anchor:middle;fill:#006680"
       id="tspan163">en serait toujours le Maître aujourd'hui.</tspan></text>
  <path
     id="path58-7-3"
     d="m 169.55665,1023.1815 c -8.2231,-3.986 -21.14507,9.8322 -23.07173,8.8578 -1.97361,-0.9743 -14.89552,-3.9859 -17.6209,-8.8578 -2.77236,-4.9603 -10.57258,8.8578 -12.92207,4.8719 -2.34953,-3.8975 2.72542,16.7412 10.94847,18.7785 8.22318,1.9486 17.24514,4.8718 19.97041,10.8064 2.72543,5.9348 1.97359,17.8043 1.97359,17.8043 l -3.14827,3.8973 5.07477,7.8836 c 0,0 -0.75181,10.895 -3.10119,9.8321 -2.34948,-0.9743 -19.97041,7.8835 -21.56807,9.9207 -1.55061,1.9487 -12.12333,20.6386 -14.47267,19.6642 -2.34951,-0.9742 -9.02195,-3.8973 -9.02195,-3.8973 0,0 6.29653,7.8834 9.02195,9.8322 2.72528,1.9487 22.31979,1.9487 24.66929,1.9487 h 15.64747 c 3.14827,0 8.64595,-10.8065 11.74724,-7.8836 3.14829,3.0118 12.54613,3.0118 12.54613,3.0118 z"
     style="fill:#d6c38d;fill-opacity:1;fill-rule:evenodd;stroke:none;stroke-width:0.80644619"
     inkscape:connector-curvature="0" />
  <path
     id="path60-0-1"
     d="m 155.27188,945.2109 13.62692,22.30444 2.02054,35.49866 -1.03374,15.1837 -1.36272,9.1103 6.4845,6.2829 0.89278,23.7706 c 0,0 -0.23491,16.545 0.46993,22.6183 0.65784,6.0736 -1.03378,18.2207 -0.70484,25.3414 0.37591,7.1206 1.03376,18.2204 0,22.3045 -0.98677,4.0838 -10.38461,-59.0598 -14.47269,-69.2172 -2.39645,-11.0998 -5.92068,-113.1976 -5.92068,-113.1976 z"
     style="fill:#6e674b;fill-opacity:1;fill-rule:evenodd;stroke:none;stroke-width:0.8768357"
     inkscape:connector-curvature="0" />
  <path
     id="path62-2-6"
     d="m 438.18195,948.83821 c -23.71649,-40.46849 -60.88479,-20.23425 -73.53984,-15.70418 -12.60813,4.53005 -64.82191,15.70418 -72.69615,11.27481 -7.92109,-4.53007 -32.43439,-11.27481 -41.15231,-11.27481 -8.67104,0 -42.65217,11.27481 -48.18287,6.74474 -5.57759,-4.53007 -41.15233,2.21471 -47.47982,8.95944 1.59363,38.25379 4.78079,90.09779 5.57759,108.01669 11.85823,-4.4294 32.38753,2.3153 44.24574,9.0601 11.85823,6.7447 40.30864,-15.805 53.7605,-15.805 13.45182,0 75.88333,15.805 92.52236,15.805 16.59217,0 67.96225,-20.2343 81.41405,-20.2343 3.1872,-40.5691 5.53075,-96.84249 5.53075,-96.84249 z"
     style="fill:#b89f62;fill-opacity:1;fill-rule:evenodd;stroke:none;stroke-width:0.85863483"
     inkscape:connector-curvature="0" />
  <text
     xml:space="preserve"
     style="font-style:italic;font-variant:normal;font-weight:normal;font-stretch:normal;font-size:21.33333397px;line-height:1;font-family:Lavi;-inkscape-font-specification:'Lavi Italic';text-align:center;letter-spacing:0px;word-spacing:0px;text-anchor:middle;fill:#006680;fill-opacity:1;stroke:none"
     x="293.08121"
     y="958.51453"
     id="text105-6"><tspan
       sodipodi:role="line"
       x="295.75308"
       y="958.51453"
       style="font-size:16px;line-height:1;text-align:center;text-anchor:middle;fill:#006680"
       id="tspan178">Cette école sous-marine apprend à </tspan><tspan
       sodipodi:role="line"
       x="295.75308"
       y="979.84784"
       style="font-size:16px;line-height:1;text-align:center;text-anchor:middle;fill:#006680"
       id="tspan196">manier l'usage de l'eau, du vent et </tspan><tspan
       sodipodi:role="line"
       x="295.75308"
       y="1001.1812"
       style="font-size:16px;line-height:1;text-align:center;text-anchor:middle;fill:#006680"
       id="tspan206">des nuages. Elle est cachée dans les </tspan><tspan
       sodipodi:role="line"
       x="295.75308"
       y="1022.5145"
       style="font-size:16px;line-height:1;text-align:center;text-anchor:middle;fill:#006680"
       id="tspan218">profondes abysses de l'océan, parmi </tspan><tspan
       sodipodi:role="line"
       x="293.08121"
       y="1043.8479"
       style="font-size:16px;line-height:1;text-align:center;text-anchor:middle;fill:#006680"
       id="tspan226">les autres créatures des mers.</tspan></text>
  <path
     id="path58-7-3-1"
     d="m 827.96451,1218.571 c 7.5815,-4.6691 19.4952,11.5171 21.2715,10.3759 1.8196,-1.1414 13.7333,-4.6692 16.246,-10.3759 2.556,-5.8105 9.7476,10.3759 11.9138,5.7067 2.1662,-4.5653 -2.5128,19.6103 -10.0942,21.9967 -7.5816,2.2827 -15.8995,5.7068 -18.4122,12.6585 -2.5127,6.952 -1.8196,20.8556 -1.8196,20.8556 l 2.9026,4.5653 -4.6787,9.2346 c 0,0 0.6931,12.7623 2.8592,11.5171 2.1661,-1.1412 18.4121,9.2345 19.8851,11.621 1.4296,2.2827 11.1774,24.1757 13.3434,23.0344 2.1662,-1.1414 8.318,-4.5653 8.318,-4.5653 0,0 -5.8052,9.2344 -8.318,11.5171 -2.5126,2.2827 -20.5782,2.2827 -22.7444,2.2827 h -14.4265 c -2.9026,0 -7.9713,-12.6586 -10.8306,-9.2345 -2.9027,3.5279 -11.5672,3.5279 -11.5672,3.5279 z"
     style="fill:#d6c38d;fill-opacity:1;fill-rule:evenodd;stroke:none;stroke-width:0.83807552"
     inkscape:connector-curvature="0" />
  <path
     id="path60-0-1-8"
     d="m 841.13471,1168.0665 -12.5637,21.3392 -1.8629,33.9624 0.9531,14.5268 1.2564,8.7159 -5.9785,6.0111 -0.8231,22.7417 c 0,0 0.2165,15.829 -0.4333,21.6397 -0.6065,5.8107 0.9531,17.4321 0.6498,24.2447 -0.3465,6.8125 -0.9531,17.4319 0,21.3392 0.9098,3.9071 9.5744,-56.504 13.3435,-66.2217 2.2094,-10.6196 5.4587,-108.299 5.4587,-108.299 z"
     style="fill:#6e674b;fill-opacity:1;fill-rule:evenodd;stroke:none;stroke-width:0.82351321"
     inkscape:connector-curvature="0" />
  <path
     id="path62-2-6-0"
     d="m 560.63582,1169.1187 c 23.51353,-40.708 60.36376,-20.354 72.91052,-15.7972 12.50024,4.557 64.2672,15.7972 72.07405,11.3416 7.85331,-4.5569 32.15685,-11.3416 40.80016,-11.3416 8.59684,0 42.28722,11.3416 47.77054,6.7847 5.52988,-4.5569 40.80016,2.2279 47.07352,9.0125 -1.57995,38.4801 -4.73984,90.6308 -5.52987,108.6557 -11.7568,-4.4556 -32.11039,2.329 -43.86708,9.1137 -11.7568,6.7846 -39.96373,-15.8985 -53.30047,-15.8985 -13.3367,0 -75.23396,15.8985 -91.7306,15.8985 -16.45019,0 -67.38066,-20.354 -80.71735,-20.354 -3.15993,-40.8091 -5.48342,-97.4154 -5.48342,-97.4154 z"
     style="fill:#b89f62;fill-opacity:1;fill-rule:evenodd;stroke:none;stroke-width:0.85747838"
     inkscape:connector-curvature="0" />
  <text
     xml:space="preserve"
     style="font-style:italic;font-variant:normal;font-weight:normal;font-stretch:normal;font-size:21.33333397px;line-height:1;font-family:Lavi;-inkscape-font-specification:'Lavi Italic';text-align:center;letter-spacing:0px;word-spacing:0px;text-anchor:middle;fill:#006680;fill-opacity:1;stroke:none"
     x="702.20459"
     y="1180.7716"
     id="text105-6-7"><tspan
       sodipodi:role="line"
       x="704.87646"
       y="1180.7716"
       style="font-size:16px;line-height:1;text-align:center;text-anchor:middle;fill:#006680"
       id="tspan255">Elle demande à ses élèves de savoir </tspan><tspan
       sodipodi:role="line"
       x="704.87646"
       y="1202.105"
       style="font-size:16px;line-height:1;text-align:center;text-anchor:middle;fill:#006680"
       id="tspan242">respirer sous l'eau, expliquant ainsi </tspan><tspan
       sodipodi:role="line"
       x="704.87646"
       y="1223.4382"
       style="font-size:16px;line-height:1;text-align:center;text-anchor:middle;fill:#006680"
       id="tspan248">le faible nombre de candidatures </tspan><tspan
       sodipodi:role="line"
       x="704.87646"
       y="1244.7716"
       style="font-size:16px;line-height:1;text-align:center;text-anchor:middle;fill:#006680"
       id="tspan250">et la tendance des gens à oublier </tspan><tspan
       sodipodi:role="line"
       x="702.20459"
       y="1266.105"
       style="font-size:16px;line-height:1;text-align:center;text-anchor:middle;fill:#006680"
       id="tspan252">que cette école existe !</tspan></text>
  <path
     id="path58-7-3-1-7"
     d="m 169.40091,1441.2029 c -7.03051,-4.7444 -18.07836,11.7028 -19.72557,10.5432 -1.68735,-1.1598 -12.73521,-4.7445 -15.06529,-10.5432 -2.37024,-5.9042 -9.03918,10.5432 -11.04795,5.7987 -2.00877,-4.6389 2.33018,19.9265 9.36059,22.3514 7.03059,2.3195 14.74398,5.7988 17.07406,12.8626 2.33009,7.064 1.68736,21.1918 1.68736,21.1918 l -2.69165,4.6389 4.33867,9.3835 c 0,0 -0.64273,12.9681 -2.6514,11.7028 -2.00868,-1.1596 -17.07398,9.3834 -18.43992,11.8084 -1.3257,2.3195 -10.36507,24.5655 -12.37365,23.4058 -2.00877,-1.1598 -7.71348,-4.6389 -7.71348,-4.6389 0,0 5.3833,9.3833 7.71348,11.7028 2.32999,2.3195 19.08265,2.3195 21.09142,2.3195 h 13.37803 c 2.69165,0 7.39197,-12.8627 10.04347,-9.3834 2.69174,3.5848 10.72654,3.5848 10.72654,3.5848 z"
     style="fill:#d6c38d;fill-opacity:1;fill-rule:evenodd;stroke:none;stroke-width:0.81352717"
     inkscape:connector-curvature="0" />
  <path
     id="path60-0-1-8-2"
     d="m 157.18787,1399.8795 11.65061,19.5237 1.72752,31.0727 -0.88384,13.2908 -1.16509,7.9743 5.54401,5.4996 0.76328,20.8068 c 0,0 -0.20077,14.4823 0.40181,19.7985 0.56242,5.3163 -0.88383,15.9489 -0.60258,22.1819 0.32132,6.2329 0.88383,15.9488 0,19.5236 -0.84368,3.5747 -8.87856,-51.6964 -12.37374,-60.5874 -2.04883,-9.7159 -5.06198,-99.0845 -5.06198,-99.0845 z"
     style="fill:#6e674b;fill-opacity:1;fill-rule:evenodd;stroke:none;stroke-width:0.75853711"
     inkscape:connector-curvature="0" />
  <path
     id="path62-2-6-0-3"
     d="m 437.12021,1400.9181 c -23.46526,-34.9032 -60.23986,-17.4516 -72.76087,-13.5446 -12.47458,3.9073 -64.13529,13.5446 -71.92612,9.7244 -7.83718,-3.9071 -32.09085,-9.7244 -40.71641,-9.7244 -8.5792,0 -42.20043,9.7244 -47.6725,5.8173 -5.51853,-3.9072 -40.71641,1.9102 -46.9769,7.7273 1.57672,32.993 4.73012,77.7071 5.51853,93.1617 11.73266,-3.8202 32.04448,1.9969 43.77703,7.8141 11.73267,5.8172 39.88171,-13.6314 53.19109,-13.6314 13.30931,0 75.07954,13.6314 91.54231,13.6314 16.41644,0 67.24236,-17.4516 80.55169,-17.4516 3.15343,-34.9898 5.47215,-83.5242 5.47215,-83.5242 z"
     style="fill:#b89f62;fill-opacity:1;fill-rule:evenodd;stroke:none;stroke-width:0.79317594"
     inkscape:connector-curvature="0" />
  <text
     xml:space="preserve"
     style="font-style:italic;font-variant:normal;font-weight:normal;font-stretch:normal;font-size:21.33333397px;line-height:1;font-family:Lavi;-inkscape-font-specification:'Lavi Italic';text-align:center;letter-spacing:0px;word-spacing:0px;text-anchor:middle;fill:#006680;fill-opacity:1;stroke:none"
     x="295.55856"
     y="1415.416"
     id="text105-6-7-0"><tspan
       sodipodi:role="line"
       x="298.23044"
       y="1415.416"
       style="font-size:16px;line-height:1;text-align:center;text-anchor:middle;fill:#006680"
       id="tspan324">Rares sont ceux qui ont déjà vu une </tspan><tspan
       sodipodi:role="line"
       x="298.23044"
       y="1436.7494"
       style="font-size:16px;line-height:1;text-align:center;text-anchor:middle;fill:#006680"
       id="tspan274">sorcière d'Aquah sur la terre ferme, </tspan><tspan
       sodipodi:role="line"
       x="298.23044"
       y="1458.0826"
       style="font-size:16px;line-height:1;text-align:center;text-anchor:middle;fill:#006680"
       id="tspan278">même si elles ont leur responsabilité </tspan><tspan
       sodipodi:role="line"
       x="295.55856"
       y="1479.416"
       style="font-size:16px;line-height:1;text-align:center;text-anchor:middle;fill:#006680"
       id="tspan280">dans la Grande Guerre d'Hereva.</tspan></text>
  <text
     xml:space="preserve"
     style="font-style:italic;font-variant:normal;font-weight:normal;font-stretch:normal;font-size:21.33333397px;line-height:1.25;font-family:Lavi;-inkscape-font-specification:'Lavi Italic';letter-spacing:0px;word-spacing:0px;fill:#000000;fill-opacity:1;stroke:none"
     x="511.05029"
     y="1607.9447"
     id="text354"><tspan
       sodipodi:role="line"
       id="tspan352"
       x="511.05029"
       y="1627.4957" /><tspan
       sodipodi:role="line"
       x="511.05029"
       y="1654.1624"
       id="tspan356" /></text>
  <path
     style="color:#000000;display:inline;overflow:visible;visibility:visible;fill:#ffffff;fill-opacity:1;fill-rule:nonzero;stroke:none;stroke-width:0.33279777px;marker:none;enable-background:accumulate"
     d="m 551.82435,2513.3154 c -3.54775,-16.1959 -16.77123,-25.8566 -24.18924,-29.2663 -7.41802,-3.4098 -93.20913,-7.3876 -111.91548,-7.9558 -18.70631,-0.5684 -72.89016,-0.8525 -96.43434,9.0924 -23.54419,9.9448 -32.25228,23.2993 -32.57484,30.9711 -0.32252,7.6718 8.3856,28.1298 52.8938,34.381 44.50812,6.2511 89.18034,8.7631 106.27403,7.6264 17.09374,-1.1364 75.45949,-3.3347 91.58561,-16.6892 16.12619,-13.3546 14.03793,-18.4988 14.36046,-28.1596 z"
     id="path5909"
     inkscape:connector-curvature="0"
     sodipodi:nodetypes="csssssssc" />
  <path
     style="color:#000000;display:inline;overflow:visible;visibility:visible;fill:#ffffff;fill-opacity:1;fill-rule:nonzero;stroke:none;stroke-width:0.27758256px;marker:none;enable-background:accumulate"
     d="m 356.42467,2592.5578 c 4.46394,-1.7111 9.13609,-3.4296 12.66948,-7.0799 0.98492,-1.0615 1.93796,-2.2367 2.55161,-3.6054 0.35433,-1.5837 -0.42303,-3.1795 -1.54113,-4.1236 -1.52971,-1.4899 -3.68764,-2.3461 -4.61013,-4.4961 -0.63772,-1.583 0.17852,-3.1963 0.75576,-4.6165 1.535,-3.5875 3.51388,-6.9617 4.5286,-10.8069 1.39425,-4.2452 2.58568,-8.8264 1.87894,-13.3897 -0.30666,-1.8005 -0.8524,-3.6369 -2.04022,-4.961 -2.90993,-3.5508 -7.67711,-5.2925 -11.82546,-3.8068 -2.56485,1.2292 -4.07772,4.966 -2.75975,7.8409 0.67537,1.5291 2.16249,2.3049 3.60259,2.5382 2.57731,0.9821 4.49342,3.5824 5.11572,6.5122 0.54877,2.4086 0.41672,4.9822 -0.26553,7.3344 -0.17206,3.476 -2.38117,6.1336 -3.90409,8.9723 -0.67841,1.3086 -1.32067,2.7523 -1.36511,4.2859 0.40156,2.2057 2.28083,3.4421 3.97792,4.2831 1.73044,0.9178 3.82956,1.7639 4.61034,3.9121 0.72098,1.4098 -0.61429,2.5933 -1.21873,3.7034 -2.3638,3.289 -5.61799,5.7058 -9.11793,7.2189 -0.34318,0.1163 -0.69256,0.2007 -1.04292,0.2845 z"
     id="path4496"
     inkscape:connector-curvature="0" />
  <text
     xml:space="preserve"
     style="font-style:italic;font-variant:normal;font-weight:normal;font-stretch:normal;font-size:21.33333397px;line-height:1.25;font-family:Lavi;-inkscape-font-specification:'Lavi Italic';text-align:center;letter-spacing:0px;word-spacing:0px;text-anchor:middle;fill:#000000;fill-opacity:1;stroke:none"
     x="419.22379"
     y="2506.8835"
     id="text412"><tspan
       sodipodi:role="line"
       x="422.50504"
       y="2506.8835"
       style="font-style:normal;font-variant:normal;font-weight:normal;font-stretch:normal;font-size:18.66666603px;font-family:Lavi;-inkscape-font-specification:Lavi;text-align:center;text-anchor:middle"
       id="tspan416">...et peut-être qu'elles n'ont </tspan><tspan
       sodipodi:role="line"
       x="419.22379"
       y="2533.5503"
       style="font-style:normal;font-variant:normal;font-weight:normal;font-stretch:normal;font-size:18.66666603px;font-family:Lavi;-inkscape-font-specification:Lavi;text-align:center;text-anchor:middle"
       id="tspan333">pas d'humour, non plus !</tspan></text>
  <text
     xml:space="preserve"
     style="font-style:normal;font-variant:normal;font-weight:normal;font-stretch:normal;font-size:18.66666603px;line-height:1.25;font-family:Lavi;-inkscape-font-specification:Lavi;letter-spacing:0px;word-spacing:0px;fill:#000000;fill-opacity:1;stroke:none"
     x="38.993668"
     y="2966.2625"
     id="text3929"><tspan
       sodipodi:role="line"
       x="38.993668"
       y="2966.2625"
       id="tspan3931"
       style="font-size:16px;text-align:start;text-anchor:start">Image de fond des panels 1, 3, 4 et 5 : « <tspan
   style="font-style:italic;font-variant:normal;font-weight:normal;font-stretch:normal;font-family:Lavi;-inkscape-font-specification:'Lavi Italic'"
   id="tspan3950">The &quot;Chaos &amp; Evolutions&quot; impossible triangle</tspan> » par David Revoy (licence CC-BY 4.0). </tspan><tspan
       sodipodi:role="line"
       x="38.993668"
       y="2989.5957"
       style="font-size:16px;text-align:start;text-anchor:start"
       id="tspan3935">Référence : https://www.peppercarrot.com/fr/static8/wiki&amp;page=Magic-System</tspan></text>
  <path
     style="color:#000000;display:inline;overflow:visible;visibility:visible;fill:#ffffff;fill-opacity:1;fill-rule:nonzero;stroke:none;stroke-width:0.49808112px;marker:none;enable-background:accumulate"
     d="m 189.85317,1605.4475 c 2.11612,-25.8156 24.33523,-37.0686 31.74161,-39.7164 7.40636,-2.6477 14.81269,-25.154 135.43076,-29.7874 73.00564,-2.6479 106.86335,13.9006 114.2697,15.2245 7.40636,1.3237 64.26197,35.148 51.07056,63.708 -9.52249,20.6168 -20.77133,28.1288 -40.232,31.9675 -22.39108,4.4168 -160.02394,5.6021 -190.70755,0.3065 -30.68356,-5.2955 -88.87644,2.6479 -101.57308,-41.7027 z"
     id="path4472-9"
     inkscape:connector-curvature="0"
     sodipodi:nodetypes="cscssssc" />
  <path
     style="color:#000000;display:inline;overflow:visible;visibility:visible;fill:#ffffff;fill-opacity:1;fill-rule:nonzero;stroke:none;stroke-width:0.26245689px;marker:none;enable-background:accumulate"
     d="m 381.91144,1642.9424 c 4.46416,15.7034 -1.29499,34.3539 -3.88029,40.1213 10.01486,-14.0236 15.93795,-29.5582 12.4454,-40.0141 -3.49255,-10.4559 -8.56511,-0.1072 -8.56511,-0.1072 z"
     id="path4480-1"
     inkscape:connector-curvature="0" />
  <text
     xml:space="preserve"
     style="font-style:normal;font-variant:normal;font-weight:normal;font-stretch:normal;font-size:18.66666603px;line-height:1.25;font-family:Lavi;-inkscape-font-specification:'Lavi, Normal';font-variant-ligatures:normal;font-variant-caps:normal;font-variant-numeric:normal;font-feature-settings:normal;text-align:center;letter-spacing:0px;word-spacing:0px;writing-mode:lr-tb;text-anchor:middle;fill:#000000;fill-opacity:1;stroke:none"
     x="356.03641"
     y="1566.183"
     id="text302"><tspan
       sodipodi:role="line"
       id="tspan300"
       x="359.31766"
       y="1566.183">Une école planquée sous </tspan><tspan
       sodipodi:role="line"
       x="359.31766"
       y="1589.5164"
       id="tspan304">l'eau, dont on n'a jamais vu les </tspan><tspan
       sodipodi:role="line"
       x="359.31766"
       y="1612.8496"
       id="tspan308">élèves... peut-être qu'elles n'existent </tspan><tspan
       sodipodi:role="line"
       x="356.03641"
       y="1636.183"
       id="tspan325">même pas, en vrai !</tspan></text>
  <text
     xml:space="preserve"
     style="font-style:normal;font-variant:normal;font-weight:normal;font-stretch:normal;line-height:0%;font-family:Lavi;-inkscape-font-specification:Lavi;letter-spacing:0px;word-spacing:0px;fill:#ffffff;fill-opacity:1;stroke:#98b9ca;stroke-width:0.99236238;stroke-miterlimit:4;stroke-dasharray:none;stroke-opacity:1;filter:url(#filter4375-4-1-1-1-9-5-8)"
     x="787.65729"
     y="1584.5073"
     id="text4580-6-0"
     transform="matrix(0.3039696,-0.07786907,-0.13079808,0.35783844,357.7489,1592.5474)"><tspan
       sodipodi:role="line"
       id="tspan4582-1-1"
       x="787.65729"
       y="1584.5073"
       style="font-size:70px;fill:#ffffff;fill-opacity:1;stroke:#98b9ca;stroke-opacity:1"><tspan
         style="font-size:93.14950562px;fill:#ffffff;fill-opacity:1;stroke:#98b9ca;stroke-opacity:1"
         id="tspan4315-8">Splash !</tspan><tspan
         style="font-size:114.73223114px;fill:#ffffff;fill-opacity:1;stroke:#98b9ca;stroke-opacity:1"
         id="tspan4313-2">!</tspan></tspan></text>
  <text
     xml:space="preserve"
     style="font-style:normal;font-variant:normal;font-weight:normal;font-stretch:normal;line-height:0%;font-family:Lavi;-inkscape-font-specification:Lavi;letter-spacing:0px;word-spacing:0px;fill:#000000;fill-opacity:1;stroke:#000000;stroke-width:0.99236238;stroke-miterlimit:4;stroke-dasharray:none;stroke-opacity:1;filter:url(#filter4375-4-1-1-1-9-5-2)"
     x="787.65729"
     y="1584.5073"
     id="text4580-6-6"
     transform="matrix(0.34701669,-0.14755694,-0.05330596,0.37401349,574.67911,1156.387)"><tspan
       sodipodi:role="line"
       id="tspan4582-1-9"
       x="787.65729"
       y="1584.5073"
       style="font-size:70px;fill:#000000"><tspan
         style="font-size:114.73223114px"
         id="tspan4313-4">!</tspan></tspan></text>
  <text
     xml:space="preserve"
     style="font-style:normal;font-variant:normal;font-weight:normal;font-stretch:normal;line-height:0%;font-family:Lavi;-inkscape-font-specification:Lavi;letter-spacing:0px;word-spacing:0px;fill:#000000;fill-opacity:1;stroke:#000000;stroke-width:0.99236238;stroke-miterlimit:4;stroke-dasharray:none;stroke-opacity:1;filter:url(#filter4375-4-1-1-1-9-5-2-0)"
     x="787.65729"
     y="1584.5073"
     id="text4580-6-6-9"
     transform="matrix(0.17672113,-0.09075352,-0.0271465,0.23003352,471.78886,1325.1649)"><tspan
       sodipodi:role="line"
       id="tspan4582-1-9-7"
       x="787.65729"
       y="1584.5073"
       style="font-size:70px;fill:#000000">?<tspan
   style="font-size:114.73223114px"
   id="tspan4313-4-0" /></tspan></text>
  <flowRoot
     xml:space="preserve"
     id="flowRoot2987-7-9-9-6"
     style="font-style:normal;font-variant:normal;font-weight:normal;font-stretch:normal;line-height:0.01%;font-family:Lavi;-inkscape-font-specification:Lavi;letter-spacing:0px;word-spacing:0px;fill:#000000;fill-opacity:1;stroke:none"
     transform="matrix(0.33019776,0,0,0.34211269,486.61309,2691.2816)"><flowRegion
       id="flowRegion2989-4-5-8-75"><rect
         id="rect2991-45-1-3-34"
         width="417.15793"
         height="141.89404"
         x="120.55251"
         y="265.53046"
         style="font-style:normal;font-variant:normal;font-weight:normal;font-stretch:normal;font-family:Lavi;-inkscape-font-specification:Lavi" /></flowRegion><flowPara
       id="flowPara2995-4-1-5-4"
       style="font-size:48px">Blbrblr...</flowPara></flowRoot>  <text
     xml:space="preserve"
     style="font-style:normal;font-variant:normal;font-weight:normal;font-stretch:normal;line-height:0%;font-family:Lavi;-inkscape-font-specification:Lavi;letter-spacing:0px;word-spacing:0px;fill:#000000;fill-opacity:1;stroke:#000000;stroke-width:0.99236238;stroke-miterlimit:4;stroke-dasharray:none;stroke-opacity:1;filter:url(#filter4375-4-1-1-1-9-5-2-0-0)"
     x="787.65729"
     y="1584.5073"
     id="text4580-6-6-9-7"
     transform="matrix(0.17672113,-0.09075352,-0.0271465,0.23003352,496.83327,1759.8709)"><tspan
       sodipodi:role="line"
       id="tspan4582-1-9-7-1"
       x="787.65729"
       y="1584.5073"
       style="font-size:70px;fill:#000000">!</tspan><tspan
       sodipodi:role="line"
       x="787.65729"
       y="1601.4117"
       style="font-size:70px;fill:#000000"
       id="tspan483">!!</tspan></text>
  <text
     xml:space="preserve"
     style="font-style:normal;font-variant:normal;font-weight:normal;font-stretch:normal;line-height:0%;font-family:Lavi;-inkscape-font-specification:Lavi;letter-spacing:0px;word-spacing:0px;fill:#000000;fill-opacity:1;stroke:#000000;stroke-width:0.99236238;stroke-miterlimit:4;stroke-dasharray:none;stroke-opacity:1;filter:url(#filter4375-4-1-1-1-9-5-2-03)"
     x="787.65729"
     y="1584.5073"
     id="text4580-6-6-99"
     transform="matrix(0.34701669,-0.14755694,-0.05330596,0.37401349,61.779882,1622.3273)"><tspan
       sodipodi:role="line"
       id="tspan4582-1-9-1"
       x="787.65729"
       y="1584.5073"
       style="font-size:70px;fill:#000000">?!<tspan
   style="font-size:114.73223114px"
   id="tspan4313-4-5" /></tspan></text>
  <text
     xml:space="preserve"
     style="font-style:normal;font-variant:normal;font-weight:normal;font-stretch:normal;line-height:0%;font-family:Lavi;-inkscape-font-specification:Lavi;letter-spacing:0px;word-spacing:0px;fill:#000000;fill-opacity:1;stroke:#000000;stroke-width:0.99236238;stroke-miterlimit:4;stroke-dasharray:none;stroke-opacity:1;filter:url(#filter4375-4-1-1-1-9-5-2-03-2)"
     x="787.65729"
     y="1584.5073"
     id="text4580-6-6-99-7"
     transform="matrix(0.14696573,-0.09391683,-0.02257571,0.23805158,430.59952,1872.2667)"><tspan
       sodipodi:role="line"
       id="tspan4582-1-9-1-5"
       x="787.65729"
       y="1584.5073"
       style="font-size:70px;fill:#000000">?!<tspan
   style="font-size:114.73223114px"
   id="tspan4313-4-5-1" /></tspan></text>
</svg>
