<?xml version="1.0" encoding="UTF-8" standalone="no"?>
<!-- Created with Inkscape (http://www.inkscape.org/) -->

<svg
   xmlns:dc="http://purl.org/dc/elements/1.1/"
   xmlns:cc="http://creativecommons.org/ns#"
   xmlns:rdf="http://www.w3.org/1999/02/22-rdf-syntax-ns#"
   xmlns:svg="http://www.w3.org/2000/svg"
   xmlns="http://www.w3.org/2000/svg"
   xmlns:xlink="http://www.w3.org/1999/xlink"
   xmlns:sodipodi="http://sodipodi.sourceforge.net/DTD/sodipodi-0.dtd"
   xmlns:inkscape="http://www.inkscape.org/namespaces/inkscape"
   version="1.1"
   id="svg2"
   width="1020.48"
   height="2381.1201"
   viewBox="0 0 1020.48 2381.1201"
   sodipodi:docname="PCMINI_E03.svg"
   inkscape:version="0.92.2 2405546, 2018-03-11"
   inkscape:export-xdpi="300"
   inkscape:export-ydpi="300">
  <metadata
     id="metadata8">
    <rdf:RDF>
      <cc:Work
         rdf:about="">
        <dc:format>image/svg+xml</dc:format>
        <dc:type
           rdf:resource="http://purl.org/dc/dcmitype/StillImage" />
        <dc:title />
      </cc:Work>
    </rdf:RDF>
  </metadata>
  <defs
     id="defs6">
    <filter
       style="color-interpolation-filters:sRGB"
       id="filter4375-4-1-1-1-9"
       inkscape:label="deevad outline effect">
      <feFlood
         id="feFlood4377-7-9-0-8-1"
         flood-opacity="1"
         flood-color="rgb(0,0,0)"
         result="flood" />
      <feComposite
         id="feComposite4379-3-8-8-2-77"
         in2="SourceGraphic"
         in="flood"
         operator="in"
         result="composite1" />
      <feMorphology
         id="feMorphology4393-1-0-49-8-9"
         operator="dilate"
         radius="4"
         result="result3" />
      <feComposite
         id="feComposite4385-9-5-7-0-8"
         in2="result3"
         in="SourceGraphic"
         operator="over"
         result="composite2" />
    </filter>
  </defs>
  <sodipodi:namedview
     pagecolor="#ffffff"
     bordercolor="#666666"
     borderopacity="1"
     objecttolerance="10"
     gridtolerance="10"
     guidetolerance="10"
     inkscape:pageopacity="0"
     inkscape:pageshadow="2"
     inkscape:window-width="1920"
     inkscape:window-height="1010"
     id="namedview4"
     showgrid="false"
     inkscape:zoom="2.2426716"
     inkscape:cx="426.11874"
     inkscape:cy="360.61875"
     inkscape:window-x="0"
     inkscape:window-y="41"
     inkscape:window-maximized="1"
     inkscape:current-layer="svg2"
     showguides="false" />
  <image
     sodipodi:absref="../../img/03/gfx_Pepper-and-Carrot-MINI_by_Nicolas_Artance_E03.png"
     xlink:href="../../img/03/gfx_Pepper-and-Carrot-MINI_by_Nicolas_Artance_E03.png"
     y="0.89179361"
     x="0.89179349"
     id="image10"
     preserveAspectRatio="none"
     height="2381.1201"
     width="1020.48" />
  <path
     style="fill:#ffffff;fill-rule:evenodd;stroke:none;stroke-width:0.51272589px;stroke-linecap:butt;stroke-linejoin:miter;stroke-opacity:1"
     d="m 572.83178,160.96224 c 16.46356,6.01632 31.34549,9.75682 26.28594,-15.19683 29.14156,33.87831 24.96123,10.67626 29.57165,2.53279 17.32573,23.93151 32.23311,20.52111 45.17895,-5.06558 7.31845,36.90757 22.63307,19.02561 36.14313,13.5083 -0.0331,10.37898 -3.72173,22.28033 36.14317,16.04112 -11.39842,9.37402 -15.65009,17.88383 9.85721,22.7953 -17.7185,7.53701 -27.44923,15.55696 -8.21435,25.32813 -10.21838,14.23427 -3.38392,22.69366 10.67864,28.70517 -32.92634,0.83249 -24.99691,8.66354 -19.71444,16.04113 -28.03329,-15.1683 -31.95548,-9.09547 -29.57164,2.53279 -13.04787,-6.67055 -22.69195,-22.43703 -46.00037,-1.68849 -6.93218,-6.88612 -13.32214,-15.58333 -28.75023,5.90987 -1.08835,-18.74797 -12.3682,-18.0427 -28.75025,-7.59841 -4.32087,-17.58213 -20.54582,-8.6551 -37.78601,2.53284 14.07193,-17.16053 15.09165,-31.49676 -12.32154,-39.68072 26.56567,-9.81708 21.7283,-17.73558 11.50009,-25.32809 10.10515,-7.13965 16.69381,-14.91703 -9.85722,-28.70522 15.52373,2.14356 32.05289,4.90717 15.60727,-12.6641 z"
     id="path4582"
     inkscape:connector-curvature="0"
     sodipodi:nodetypes="ccccccccccccccccccc" />
  <path
     style="fill:#ffffff;fill-rule:evenodd;stroke:none;stroke-width:0.37755671px;stroke-linecap:butt;stroke-linejoin:miter;stroke-opacity:1"
     d="m 720.61318,222.64633 c 14.79558,-5.49721 27.52513,-5.77367 45.67565,-19.7487 l -5.14746,13.32534 7.98017,-4.4725 -3.23388,14.30081 c 0,0 52.7124,-18.38672 50.44867,-18.38672 -2.26372,0 -58.51639,33.73716 -58.51639,33.73716 l 4.43989,-15.86496 -11.18728,8.79646 5.7602,-13.04888 -42.04055,31.32558 z"
     id="path4230"
     inkscape:connector-curvature="0"
     sodipodi:nodetypes="cccccscccccc" />
  <path
     style="fill:#ffffff;stroke:none;stroke-width:0.47788703"
     d="m 200.16253,470.05919 c -4.42456,-19.29625 34.76912,-22.3831 39.83959,-26.3801 5.07045,-3.99695 16.66019,-18.38609 25.35246,-20.78433 8.69227,-2.39814 40.56394,7.99409 51.42932,13.58972 10.86526,5.5959 26.71473,-5.86801 42.73695,-3.19748 16.02226,2.67044 21.00635,17.58676 28.24988,22.38295 7.24354,4.79644 41.28831,6.39529 42.01267,27.17953 0.72438,20.78433 -49.2562,20.78433 -57.9485,22.3831 -8.69228,1.59881 -32.59606,12.79024 -45.63442,11.19152 -13.03838,-1.59877 -37.66647,-9.59281 -49.98059,-11.19152 -12.31406,-1.59877 -30.42295,7.19452 -38.39082,0.79947 -7.96796,-6.39533 -7.24359,-11.19162 -10.86538,-14.38919 -3.62179,-3.19758 -22.37665,-2.2875 -26.80116,-21.58367 z"
     id="path3250"
     inkscape:connector-curvature="0"
     sodipodi:nodetypes="zssszsssssssz" />
  <path
     style="color:#000000;display:inline;overflow:visible;visibility:visible;fill:#ffffff;fill-opacity:1;fill-rule:nonzero;stroke:none;stroke-width:0.32965133px;marker:none;enable-background:accumulate"
     d="m 319.61672,441.66721 c 1.24433,-18.83124 10.77867,-42.06709 36.74606,-44.63009 -24.78889,17.33447 -28.60484,28.85826 -27.96845,44.14028 0.6364,15.28201 -0.45232,22.42902 -0.45232,22.42902 z"
     id="path4440"
     inkscape:connector-curvature="0"
     sodipodi:nodetypes="ccscc" />
  <path
     style="fill:#ffffff;stroke:none;stroke-width:0.31778196"
     d="m 376.02175,1700.5812 c 0.79586,-35.3656 44.70716,-43.1265 65.07584,-45.2363 20.36866,-2.1096 74.42401,-9.4938 94.79266,18.9878 20.36865,28.4818 13.17606,42.412 2.1515,57.3873 -9.40135,12.7706 -33.0194,19.9466 -53.84509,23.9444 -25.85924,4.9638 -69.74254,-1.1334 -88.83641,-15.2456 -10.18254,-7.5259 -20.13441,-4.4721 -19.3385,-39.8376 z"
     id="path3100"
     inkscape:connector-curvature="0"
     sodipodi:nodetypes="zsssssz" />
  <path
     style="fill:#ffffff;fill-rule:evenodd;stroke:none;stroke-width:0.18624149px;stroke-linecap:butt;stroke-linejoin:miter;stroke-opacity:1"
     d="m 403.52682,1517.732 c 17.22502,20.0089 86.05872,84.5556 110.10492,81.9197 9.43809,12.3387 14.13657,20.4168 27.18912,20.6464 14.61109,18.1361 19.23276,17.8914 23.75144,18.8535 8.63716,6.9207 12.6347,10.0604 24.27708,23.3135 -12.89365,-12.2567 -16.28131,-15.0243 -24.41799,-20.4661 -12.97025,-3.3071 -20.46937,-13.9283 -23.85063,-18.3601 -13.42753,-0.067 -18.3263,-6.6379 -27.87853,-20.2894 -15.01045,3.8805 -49.58163,-18.3513 -113.45432,-83.8247 1.40461,-1.7408 4.27891,-1.7928 4.27891,-1.7928 z"
     id="path4385"
     inkscape:connector-curvature="0"
     sodipodi:nodetypes="cccccccccc" />
  <path
     style="color:#000000;display:inline;overflow:visible;visibility:visible;fill:#ffffff;fill-opacity:1;fill-rule:nonzero;stroke:none;stroke-width:0.35200855px;marker:none;enable-background:accumulate"
     d="m 553.45196,1843.8284 c -10.0676,-15.5075 -20.277,-41.5884 -1.41798,-59.4456 0.42538,-17.1522 -2.28959,-27.846 5.4625,-45.2276 -4.47341,17.6169 -1.71424,23.6591 -1.14707,49.0351 -8.93321,11.2782 -9.84551,32.8467 4.47599,48.1193 14.32153,15.2725 11.202,9.3985 11.202,9.3985 l -14.46332,2.8195 z"
     id="path5074"
     inkscape:connector-curvature="0"
     sodipodi:nodetypes="ccccsccc" />
  <path
     style="fill:#ffffff;stroke:none;stroke-width:0.4165116"
     d="m 352.49003,1848.3237 c 5.13757,-37.8539 49.04016,-45.0415 55.11179,-48.3956 6.07162,-3.3542 40.82951,-5.7049 45.03296,-5.2256 4.20344,0.4791 49.23645,4.0587 54.37397,3.5795 5.13752,-0.4792 43.82813,4.8201 54.10317,10.0908 10.27505,5.2708 41.24926,35.6384 41.24926,49.5343 0,13.8956 -11.67626,42.1664 -39.69916,55.1038 -28.02292,12.9374 -81.73356,23.9582 -114.89402,21.5625 -33.16046,-2.396 -57.91404,-8.6251 -67.72202,-18.6875 -9.80803,-10.0625 -32.22639,-48.8748 -27.55595,-67.5622 z"
     id="path3061-5"
     inkscape:connector-curvature="0"
     sodipodi:nodetypes="cssssssssc" />
  <path
     style="fill:#ffffff;stroke:none;stroke-width:0.31807053"
     d="m 591.81983,1687.7505 c -8.39503,10.8086 -12.71965,9.4051 -17.58484,7.3802 -4.86514,-2.0249 -9.15465,-4.424 -11.89297,-2.9679 -2.73826,1.4562 -5.03669,5.0583 -6.3758,8.0366 -1.33909,2.9784 -4.40175,2.0674 -7.84583,1.3885 -3.44412,-0.679 -21.49625,0.5037 -21.49625,0.5037 0,0 12.38435,8.9714 16.78305,10.4888 4.39876,1.5176 6.00302,2.0957 7.84284,2.1965 1.83984,0.1008 6.30884,-0.3728 8.47616,-2.917 2.16744,-2.544 2.89196,-6.2577 4.06967,-8.6447 1.17762,-2.387 5.07162,-3.5246 8.95177,-2.8047 3.8801,0.7198 12.70781,0.9464 15.74325,-3.6212 3.03542,-4.5677 3.32895,-9.0388 3.32895,-9.0388 z"
     id="path3023"
     inkscape:connector-curvature="0"
     sodipodi:nodetypes="csssscssssssc" />
  <path
     style="fill:#ffffff;fill-opacity:1;stroke:none;stroke-width:0.34112856"
     d="m 356.75014,1561.124 c -2.59578,-40.8596 24.91951,-54.3246 97.08229,-52.4674 72.16274,1.8572 89.29491,25.5373 94.48648,39.9309 5.19156,14.3938 -6.22988,50.1458 -50.87733,65.9325 -44.64746,15.7867 -119.40604,-6.5004 -128.75085,-18.1083 -9.3448,-11.6078 -11.42143,-24.6085 -11.94059,-35.2877 z"
     id="path3238-8-0"
     inkscape:connector-curvature="0" />
  <flowRoot
     transform="matrix(1.4478102,0,0,1.5229467,125.37516,30.537614)"
     style="font-style:normal;font-variant:normal;font-weight:normal;font-stretch:normal;font-size:40px;line-height:1.25;font-family:'Nanum Pen Script OTF';-inkscape-font-specification:'Nanum Pen Script OTF';letter-spacing:0px;word-spacing:0px;fill:#000000;fill-opacity:1;stroke:none"
     id="flowRoot57"
     xml:space="preserve"><flowRegion
       style="font-style:normal;font-variant:normal;font-weight:normal;font-stretch:normal;font-family:'Nanum Pen Script OTF';-inkscape-font-specification:'Nanum Pen Script OTF'"
       id="flowRegion53"><rect
         style="font-style:normal;font-variant:normal;font-weight:normal;font-stretch:normal;font-family:'Nanum Pen Script OTF';-inkscape-font-specification:'Nanum Pen Script OTF'"
         y="-14.053221"
         x="17.29627"
         height="55.157722"
         width="462.51071"
         id="rect51" /></flowRegion><flowPara
       style="font-style:normal;font-variant:normal;font-weight:normal;font-stretch:normal;font-family:'Nanum Pen Script OTF';-inkscape-font-specification:'Nanum Pen Script OTF'"
       id="flowPara55">후추와 당근 미니</flowPara></flowRoot>  <flowRoot
     transform="matrix(1.4072459,0,0,1.4072459,-329.09591,8.4406239)"
     style="font-style:normal;font-variant:normal;font-weight:normal;font-stretch:normal;font-size:18.66666603px;line-height:1;font-family:'Nanum Pen Script OTF';-inkscape-font-specification:'Nanum Pen Script OTF';text-align:end;letter-spacing:0px;word-spacing:0px;text-anchor:end;fill:#000000;fill-opacity:1;stroke:none"
     id="flowRoot69"
     xml:space="preserve"><flowRegion
       style="font-style:normal;font-variant:normal;font-weight:normal;font-stretch:normal;font-size:18.66666603px;line-height:1;font-family:'Nanum Pen Script OTF';-inkscape-font-specification:'Nanum Pen Script OTF';text-align:end;text-anchor:end"
       id="flowRegion61"><rect
         style="font-style:normal;font-variant:normal;font-weight:normal;font-stretch:normal;font-size:18.66666603px;line-height:1;font-family:'Nanum Pen Script OTF';-inkscape-font-specification:'Nanum Pen Script OTF';text-align:end;text-anchor:end"
         y="6.4861007"
         x="562.12878"
         height="104.85864"
         width="378.35593"
         id="rect59" /></flowRegion><flowPara
       style="font-style:normal;font-variant:normal;font-weight:normal;font-stretch:normal;font-size:18.66666603px;line-height:1;font-family:'Nanum Pen Script OTF';-inkscape-font-specification:'Nanum Pen Script OTF'"
       id="flowPara63">지은이: Nicolas Artance</flowPara><flowPara
       id="flowPara65"
       style="font-style:normal;font-variant:normal;font-weight:normal;font-stretch:normal;font-size:18.66666603px;line-height:1;font-family:'Nanum Pen Script OTF';-inkscape-font-specification:'Nanum Pen Script OTF'">David Revoy의 CC-BY 웹툰인</flowPara><flowPara
       id="flowPara67"
       style="font-style:normal;font-variant:normal;font-weight:normal;font-stretch:normal;font-size:18.66666603px;line-height:1;font-family:'Nanum Pen Script OTF';-inkscape-font-specification:'Nanum Pen Script OTF'">후추와 당근을 바탕으로 함</flowPara><flowPara
       style="font-style:normal;font-variant:normal;font-weight:normal;font-stretch:normal;font-size:18.66666603px;line-height:1;font-family:'Nanum Pen Script OTF';-inkscape-font-specification:'Nanum Pen Script OTF'"
       id="flowPara56">한글 번역: Jihoon Kim</flowPara></flowRoot>  <flowRoot
     transform="matrix(2.2927878,0,0,2.5989815,-179.68863,-183.01085)"
     style="font-style:normal;font-variant:normal;font-weight:normal;font-stretch:normal;font-size:40px;line-height:1.25;font-family:'Nanum Pen Script OTF';-inkscape-font-specification:'Nanum Pen Script OTF';text-align:center;letter-spacing:0px;word-spacing:0px;text-anchor:middle;fill:#000000;fill-opacity:1;stroke:none"
     id="flowRoot3809"
     xml:space="preserve"><flowRegion
       style="font-style:normal;font-variant:normal;font-weight:normal;font-stretch:normal;font-family:'Nanum Pen Script OTF';-inkscape-font-specification:'Nanum Pen Script OTF';text-align:center;text-anchor:middle"
       id="flowRegion3805"><rect
         style="font-style:normal;font-variant:normal;font-weight:normal;font-stretch:normal;font-family:'Nanum Pen Script OTF';-inkscape-font-specification:'Nanum Pen Script OTF';text-align:center;text-anchor:middle"
         y="79.995255"
         x="153.50441"
         height="82.157288"
         width="281.06439"
         id="rect3803" /></flowRegion><flowPara
       style="font-style:normal;font-variant:normal;font-weight:normal;font-stretch:normal;font-size:14.66666698px;font-family:'Nanum Pen Script OTF';-inkscape-font-specification:'Nanum Pen Script OTF';text-align:center;text-anchor:middle"
       id="flowPara3807">#3 - 그런 날 아침</flowPara></flowRoot>  <text
     id="text3815"
     y="463.23355"
     x="307.56384"
     style="font-style:normal;font-variant:normal;font-weight:normal;font-stretch:normal;font-size:28.23174095px;line-height:1.25;font-family:'Nanum Pen Script OTF';-inkscape-font-specification:'Nanum Pen Script OTF';font-variant-ligatures:normal;font-variant-caps:normal;font-variant-numeric:normal;font-feature-settings:normal;text-align:center;letter-spacing:0px;word-spacing:0px;writing-mode:lr-tb;text-anchor:middle;fill:#000000;fill-opacity:1;stroke:none;stroke-width:1.32336283"
     xml:space="preserve"><tspan
       id="tspan3813"
       y="463.23355"
       x="307.56384"
       sodipodi:role="line"
       style="stroke-width:1.32336283">음냐... 5분만 더</tspan><tspan
       y="498.52322"
       x="307.56384"
       sodipodi:role="line"
       style="stroke-width:1.32336283"
       id="tspan3885">잘게요...</tspan></text>
  <text
     id="text3823"
     y="192.7991"
     x="652.71863"
     style="font-style:normal;font-variant:normal;font-weight:normal;font-stretch:normal;font-size:29.66007042px;line-height:1;font-family:'Nanum Pen Script OTF';-inkscape-font-specification:'Nanum Pen Script OTF';font-variant-ligatures:normal;font-variant-caps:normal;font-variant-numeric:normal;font-feature-settings:normal;text-align:center;letter-spacing:0px;word-spacing:0px;writing-mode:lr-tb;text-anchor:middle;fill:#000000;fill-opacity:1;stroke:none;stroke-width:1.39031577"
     xml:space="preserve"><tspan
       id="tspan3819"
       y="192.7991"
       x="652.71863"
       sodipodi:role="line"
       style="line-height:1;stroke-width:1.39031577">후추야! 수업 할</tspan><tspan
       y="222.45917"
       x="652.71863"
       sodipodi:role="line"
       style="line-height:1;stroke-width:1.39031577"
       id="tspan3881">시간이다!</tspan><tspan
       id="tspan3821"
       y="252.11925"
       x="652.71863"
       sodipodi:role="line"
       style="line-height:1;stroke-width:1.39031577">일어나!</tspan></text>
  <flowRoot
     xml:space="preserve"
     id="flowRoot3831"
     style="font-style:normal;font-variant:normal;font-weight:normal;font-stretch:normal;line-height:0.01%;font-family:'Nanum Pen Script OTF';-inkscape-font-specification:'Nanum Pen Script OTF';text-align:center;letter-spacing:0px;word-spacing:0px;text-anchor:middle;fill:#000000;fill-opacity:1;stroke:#000000;stroke-width:1.24973834;stroke-miterlimit:4;stroke-dasharray:none;stroke-opacity:1"
     transform="matrix(1.5163537,0,-0.36944298,1.3970585,-339.35676,216.95501)"><flowRegion
       id="flowRegion3827"
       style="font-style:normal;font-variant:normal;font-weight:normal;font-stretch:normal;font-family:'Nanum Pen Script OTF';-inkscape-font-specification:'Nanum Pen Script OTF';stroke-width:1.24973834"><rect
         id="rect3825"
         width="798.1947"
         height="355.03918"
         x="120.55251"
         y="265.53046"
         style="font-style:normal;font-variant:normal;font-weight:normal;font-stretch:normal;font-family:'Nanum Pen Script OTF';-inkscape-font-specification:'Nanum Pen Script OTF';text-align:center;text-anchor:middle;stroke:#000000;stroke-width:1.24973834;stroke-miterlimit:4;stroke-dasharray:none;stroke-opacity:1" /></flowRegion><flowPara
       id="flowPara3829"
       style="font-style:normal;font-variant:normal;font-weight:normal;font-stretch:normal;font-size:48px;line-height:1.25;font-family:'Nanum Pen Script OTF';-inkscape-font-specification:'Nanum Pen Script OTF';text-align:center;letter-spacing:5.20896292px;text-anchor:middle;stroke:#000000;stroke-width:1.24973834;stroke-miterlimit:4;stroke-dasharray:none;stroke-opacity:1">좀비 포션</flowPara></flowRoot>  <flowRoot
     xml:space="preserve"
     id="flowRoot3841"
     style="font-style:normal;font-variant:normal;font-weight:normal;font-stretch:normal;line-height:0.01%;font-family:'Nanum Pen Script OTF';-inkscape-font-specification:'Nanum Pen Script OTF';text-align:center;letter-spacing:0px;word-spacing:0px;text-anchor:middle;fill:#000000;fill-opacity:1;stroke:#000000;stroke-width:1.82087612;stroke-miterlimit:4;stroke-dasharray:none;stroke-opacity:1"
     transform="matrix(1.5856671,0,-0.38633044,1.4131583,25.690906,214.31723)"><flowRegion
       id="flowRegion3835"
       style="font-style:normal;font-variant:normal;font-weight:normal;font-stretch:normal;font-family:'Nanum Pen Script OTF';-inkscape-font-specification:'Nanum Pen Script OTF';stroke-width:1.82087612"><rect
         id="rect3833"
         width="798.1947"
         height="355.03918"
         x="120.55251"
         y="265.53046"
         style="font-style:normal;font-variant:normal;font-weight:normal;font-stretch:normal;font-family:'Nanum Pen Script OTF';-inkscape-font-specification:'Nanum Pen Script OTF';text-align:center;text-anchor:middle;stroke:#000000;stroke-width:1.82087612;stroke-miterlimit:4;stroke-dasharray:none;stroke-opacity:1" /></flowRegion><flowPara
       id="flowPara3837"
       style="font-style:normal;font-variant:normal;font-weight:normal;font-stretch:normal;font-size:48px;line-height:1.25;font-family:'Nanum Pen Script OTF';-inkscape-font-specification:'Nanum Pen Script OTF';text-align:center;letter-spacing:5.20896292px;text-anchor:middle;stroke:#000000;stroke-width:1.82087612;stroke-miterlimit:4;stroke-dasharray:none;stroke-opacity:1" /><flowPara
       id="flowPara3839"
       style="font-style:normal;font-variant:normal;font-weight:normal;font-stretch:normal;font-size:48px;line-height:1.25;font-family:'Nanum Pen Script OTF';-inkscape-font-specification:'Nanum Pen Script OTF';text-align:center;letter-spacing:5.20896292px;text-anchor:middle;stroke:#000000;stroke-width:1.82087612;stroke-miterlimit:4;stroke-dasharray:none;stroke-opacity:1">빠워!</flowPara></flowRoot>  <text
     transform="matrix(0.56238247,-0.31736847,-0.1038241,0.84096745,-12.374541,66.796177)"
     id="text3847"
     y="1584.5073"
     x="787.65729"
     style="font-style:normal;font-variant:normal;font-weight:normal;font-stretch:normal;line-height:0%;font-family:'Nanum Pen Script OTF';-inkscape-font-specification:'Nanum Pen Script OTF';letter-spacing:0px;word-spacing:0px;fill:#000000;fill-opacity:1;stroke:#000000;stroke-width:0.65744466;stroke-miterlimit:4;stroke-dasharray:none;stroke-opacity:1;filter:url(#filter4375-4-1-1-1-9);"
     xml:space="preserve"><tspan
       style="font-style:normal;font-variant:normal;font-weight:normal;font-stretch:normal;font-size:70px;line-height:1.25;font-family:'Nanum Pen Script OTF';-inkscape-font-specification:'Nanum Pen Script OTF';fill:#ffffff;stroke-width:0.65744466;"
       y="1584.5073"
       x="787.65729"
       id="tspan3845"
       sodipodi:role="line"><tspan
         id="tspan3843"
         style="font-style:normal;font-variant:normal;font-weight:normal;font-stretch:normal;font-size:80.40014648px;font-family:'Nanum Pen Script OTF';-inkscape-font-specification:'Nanum Pen Script OTF';stroke-width:0.65744466;">쿵!</tspan></tspan></text>
  <text
     id="text3853"
     y="1696.4808"
     x="461.16818"
     style="font-style:normal;font-variant:normal;font-weight:normal;font-stretch:normal;font-size:26.17163849px;line-height:1.25;font-family:'Nanum Pen Script OTF';-inkscape-font-specification:'Nanum Pen Script OTF';font-variant-ligatures:normal;font-variant-caps:normal;font-variant-numeric:normal;font-feature-settings:normal;text-align:center;letter-spacing:0px;word-spacing:0px;writing-mode:lr-tb;text-anchor:middle;fill:#000000;fill-opacity:1;stroke:none;stroke-width:1.22679555"
     xml:space="preserve"><tspan
       id="tspan3849"
       y="1696.4808"
       x="461.16818"
       sodipodi:role="line"
       style="stroke-width:1.22679555">이게 뭐야,</tspan><tspan
       id="tspan3851"
       y="1729.1954"
       x="461.16818"
       sodipodi:role="line"
       style="stroke-width:1.22679555">그냥 좀비네!</tspan></text>
  <text
     id="text3863"
     y="1830.6698"
     x="471.73642"
     style="font-style:normal;font-variant:normal;font-weight:normal;font-stretch:normal;font-size:26.91611099px;line-height:1;font-family:'Nanum Pen Script OTF';-inkscape-font-specification:'Nanum Pen Script OTF';font-variant-ligatures:normal;font-variant-caps:normal;font-variant-numeric:normal;font-feature-settings:normal;text-align:center;letter-spacing:0px;word-spacing:0px;writing-mode:lr-tb;text-anchor:middle;fill:#000000;fill-opacity:1;stroke:none;stroke-width:1.26169264"
     xml:space="preserve"><tspan
       id="tspan3857"
       y="1830.6698"
       x="471.73642"
       sodipodi:role="line"
       style="stroke-width:1.26169264">진정한 카오사의</tspan><tspan
       id="tspan3859"
       y="1857.5859"
       x="475.49521"
       sodipodi:role="line"
       style="stroke-width:1.26169264">마녀라면 항상 </tspan><tspan
       y="1884.5021"
       x="471.73642"
       sodipodi:role="line"
       style="stroke-width:1.26169264"
       id="tspan3893">자기 앞가림은 할 줄</tspan><tspan
       id="tspan3861"
       y="1911.4181"
       x="471.73642"
       sodipodi:role="line"
       style="stroke-width:1.26169264">알아야지!</tspan></text>
  <text
     id="text3869"
     y="1984.5403"
     x="178.92223"
     style="font-style:normal;font-variant:normal;font-weight:normal;font-stretch:normal;font-size:26.60237122px;line-height:1.25;font-family:'Nanum Pen Script OTF';-inkscape-font-specification:'Nanum Pen Script OTF';font-variant-ligatures:normal;font-variant-caps:normal;font-variant-numeric:normal;font-feature-settings:normal;text-align:start;letter-spacing:0px;word-spacing:0px;writing-mode:lr-tb;text-anchor:start;fill:#000000;fill-opacity:1;stroke:none;stroke-width:1.24698603"
     xml:space="preserve"><tspan
       id="tspan3865"
       y="1984.5403"
       x="178.92223"
       sodipodi:role="line"
       style="stroke-width:1.24698603">그래요! 좀비의 포션은</tspan><tspan
       id="tspan3867"
       y="2017.7932"
       x="178.92223"
       sodipodi:role="line"
       style="stroke-width:1.24698603">게으름뱅이한테도 먹힌답니다!</tspan></text>
  <text
     id="text3877"
     y="1543.895"
     x="454.34818"
     style="font-style:normal;font-variant:normal;font-weight:normal;font-stretch:normal;font-size:27.52433395px;line-height:1;font-family:'Nanum Pen Script OTF';-inkscape-font-specification:'Nanum Pen Script OTF';font-variant-ligatures:normal;font-variant-caps:normal;font-variant-numeric:normal;font-feature-settings:normal;text-align:center;letter-spacing:0px;word-spacing:0px;writing-mode:lr-tb;text-anchor:middle;fill:#000000;fill-opacity:1;stroke:none;stroke-width:1.29020309"
     xml:space="preserve"><tspan
       id="tspan3871"
       y="1543.895"
       x="454.34818"
       sodipodi:role="line"
       style="line-height:1;stroke-width:1.29020309">여기 어젯밤에</tspan><tspan
       id="tspan3873"
       y="1571.4193"
       x="454.34818"
       sodipodi:role="line"
       style="line-height:1;stroke-width:1.29020309">늦게 잔 애가</tspan><tspan
       id="tspan3875"
       y="1598.9437"
       x="454.34818"
       sodipodi:role="line"
       style="line-height:1;stroke-width:1.29020309">이제 왔네!</tspan></text>
</svg>
