<?xml version="1.0" encoding="UTF-8" standalone="no"?>
<!-- Created with Inkscape (http://www.inkscape.org/) -->

<svg
   xmlns:dc="http://purl.org/dc/elements/1.1/"
   xmlns:cc="http://creativecommons.org/ns#"
   xmlns:rdf="http://www.w3.org/1999/02/22-rdf-syntax-ns#"
   xmlns:svg="http://www.w3.org/2000/svg"
   xmlns="http://www.w3.org/2000/svg"
   xmlns:xlink="http://www.w3.org/1999/xlink"
   xmlns:sodipodi="http://sodipodi.sourceforge.net/DTD/sodipodi-0.dtd"
   xmlns:inkscape="http://www.inkscape.org/namespaces/inkscape"
   version="1.1"
   id="svg2"
   width="1020.48"
   height="1436.16"
   viewBox="0 0 1020.48 1436.16"
   sodipodi:docname="PCMINI_E02.svg"
   inkscape:version="0.92.2 2405546, 2018-03-11"
   inkscape:export-xdpi="300"
   inkscape:export-ydpi="300">
  <metadata
     id="metadata8">
    <rdf:RDF>
      <cc:Work
         rdf:about="">
        <dc:format>image/svg+xml</dc:format>
        <dc:type
           rdf:resource="http://purl.org/dc/dcmitype/StillImage" />
        <dc:title />
      </cc:Work>
    </rdf:RDF>
  </metadata>
  <defs
     id="defs6">
    <filter
       style="color-interpolation-filters:sRGB"
       id="filter4375-4-1-1-1-9"
       inkscape:label="deevad outline effect">
      <feFlood
         id="feFlood4377-7-9-0-8-1"
         flood-opacity="1"
         flood-color="rgb(0,0,0)"
         result="flood" />
      <feComposite
         id="feComposite4379-3-8-8-2-77"
         in2="SourceGraphic"
         in="flood"
         operator="in"
         result="composite1" />
      <feMorphology
         id="feMorphology4393-1-0-49-8-9"
         operator="dilate"
         radius="4"
         result="result3" />
      <feComposite
         id="feComposite4385-9-5-7-0-8"
         in2="result3"
         in="SourceGraphic"
         operator="over"
         result="composite2" />
    </filter>
    <filter
       style="color-interpolation-filters:sRGB"
       id="filter4375-4-1-1-1-9-5"
       inkscape:label="deevad outline effect">
      <feFlood
         id="feFlood4377-7-9-0-8-1-7"
         flood-opacity="1"
         flood-color="rgb(0,0,0)"
         result="flood" />
      <feComposite
         id="feComposite4379-3-8-8-2-77-4"
         in2="SourceGraphic"
         in="flood"
         operator="in"
         result="composite1" />
      <feMorphology
         id="feMorphology4393-1-0-49-8-9-3"
         operator="dilate"
         radius="1.3999999999999999"
         result="result3" />
      <feComposite
         id="feComposite4385-9-5-7-0-8-8"
         in2="result3"
         in="SourceGraphic"
         operator="over"
         result="composite2" />
    </filter>
  </defs>
  <sodipodi:namedview
     pagecolor="#ffffff"
     bordercolor="#666666"
     borderopacity="1"
     objecttolerance="10"
     gridtolerance="10"
     guidetolerance="10"
     inkscape:pageopacity="0"
     inkscape:pageshadow="2"
     inkscape:window-width="954"
     inkscape:window-height="1007"
     id="namedview4"
     showgrid="false"
     inkscape:zoom="1.3146167"
     inkscape:cx="436.30746"
     inkscape:cy="845.49849"
     inkscape:window-x="0"
     inkscape:window-y="41"
     inkscape:window-maximized="0"
     inkscape:current-layer="svg2" />
  <image
     sodipodi:absref="../../img/02/gfx_Pepper-and-Carrot-MINI_by_Nicolas_Artance_E02.png"
     xlink:href="../../img/02/gfx_Pepper-and-Carrot-MINI_by_Nicolas_Artance_E02.png"
     y="0"
     x="0"
     id="image10"
     preserveAspectRatio="none"
     height="1436.16"
     width="1020.48" />
  <rect
     style="fill:#ffffff;stroke:#feffff;stroke-width:1.72776461;stroke-opacity:1"
     id="rect4571"
     width="398.85538"
     height="48.27895"
     x="37.821495"
     y="134.21996" />
  <path
     style="color:#000000;display:inline;overflow:visible;visibility:visible;fill:#ffffff;fill-opacity:1;fill-rule:nonzero;stroke:none;stroke-width:0.6888718px;marker:none;enable-background:accumulate"
     d="m 266.24371,249.89741 c -0.55262,-13.66944 3.86827,-12.2305 6.07875,-14.38884 -2.21048,-11.51117 2.76303,-24.46114 21.55162,-28.77782 4.97351,-8.63329 20.44652,-14.38891 30.39354,-6.47502 7.73647,-6.47495 19.34121,-5.75555 23.7621,0 5.52613,-5.75555 12.15736,1.43894 12.70998,2.87781 6.6313,-2.87781 15.47301,0 18.78866,3.59721 8.84178,-4.31668 26.5252,4.31668 25.42003,14.38891 9.39432,7.91389 9.39432,16.54725 6.07868,21.58333 7.18391,6.47502 9.39432,34.53337 -12.15736,35.97224 -6.63137,10.07223 -23.20962,13.66944 -30.3934,7.19442 -10.49964,2.15834 -17.13094,4.31668 -19.34142,-1.43887 -5.52606,5.75555 -18.78859,5.03608 -14.3677,-5.03615 -6.82613,6.43315 -14.34294,4.26184 -20.03011,-0.26296 -10.42651,7.40419 -23.06467,3.70206 -22.43287,-4.11346 -14.21801,2.46806 -15.79779,-9.87232 -14.84981,-14.39704 -2.21179,-0.82274 -7.58306,-1.6454 -11.21069,-10.72376 z"
     id="path4043"
     inkscape:connector-curvature="0" />
  <path
     style="color:#000000;display:inline;overflow:visible;visibility:visible;fill:#ffffff;fill-opacity:1;fill-rule:nonzero;stroke:none;stroke-width:0.6888718px;marker:none;enable-background:accumulate"
     d="m 276.67992,301.15648 c 8.61483,-9.04959 22.56261,-8.63826 21.3319,3.70206 6.15345,5.34753 3.28187,20.56725 -20.92168,11.51766 -9.43526,-4.5248 -12.71707,-13.57439 -0.41022,-15.21972 z"
     id="path4051"
     inkscape:connector-curvature="0" />
  <path
     style="color:#000000;display:inline;overflow:visible;visibility:visible;fill:#ffffff;fill-opacity:1;fill-rule:nonzero;stroke:none;stroke-width:0.6888718px;marker:none;enable-background:accumulate"
     d="m 252.09484,326.04758 c 3.15261,-0.70443 5.77695,0.80004 7.8281,2.85677 5.33296,-2.8794 20.51147,7.81559 -0.41021,13.57438 -7.79433,2.05673 -15.58872,-6.58152 -9.84548,-10.28358 -2.2142,-2.22022 -0.72502,-5.44321 2.42759,-6.14757 z"
     id="path4059"
     inkscape:connector-curvature="0"
     sodipodi:nodetypes="zcccz" />
  <path
     style="color:#000000;display:inline;overflow:visible;visibility:visible;fill:#ffffff;fill-opacity:1;fill-rule:nonzero;stroke:none;stroke-width:0.6888718px;marker:none;enable-background:accumulate"
     d="m 247.00907,356.4182 c 3.15261,-0.70443 5.77695,0.80004 7.8281,2.85677 5.33296,-2.8794 20.51147,7.81559 -0.41021,13.57438 -7.79433,2.05673 -15.58872,-6.58152 -9.84548,-10.28358 -2.2142,-2.22022 -0.72502,-5.44321 2.42759,-6.14757 z"
     id="path4059-2"
     inkscape:connector-curvature="0"
     sodipodi:nodetypes="zcccz" />
  <path
     style="color:#000000;display:inline;overflow:visible;visibility:visible;fill:#ffffff;fill-opacity:1;fill-rule:nonzero;stroke:none;stroke-width:0.6888718px;marker:none;enable-background:accumulate"
     d="m 271.10862,388.92953 c 8.61483,-9.04959 22.56261,-8.63826 21.3319,3.70206 6.15345,5.34753 3.28187,20.56725 -20.92168,11.51766 -9.43526,-4.5248 -12.71707,-13.57439 -0.41022,-15.21972 z"
     id="path4051-2"
     inkscape:connector-curvature="0" />
  <path
     style="color:#000000;display:inline;overflow:visible;visibility:visible;fill:#ffffff;fill-opacity:1;fill-rule:nonzero;stroke:none;stroke-width:0.35464525px;marker:none;enable-background:accumulate"
     d="m 338.14532,404.02657 c -2.488,0.33861 -4.68808,1.56132 -6.06099,3.56914 -3.79225,-5.32929 -8.81319,0.80574 -9.2596,2.06277 -4.68509,-2.81513 -11.15638,-0.60171 -13.66698,2.46571 -6.23077,-4.17961 -19.26824,2.80444 -18.80752,11.79745 -7.03725,6.66672 -7.32543,14.33786 -5.10296,18.94179 -5.39554,5.47414 -7.92528,30.31993 7.56523,32.43675 4.44506,9.20795 16.27781,13.04985 21.67329,7.57566 7.49811,2.32629 12.20717,4.5015 13.99294,-0.52684 3.07703,4.32428 9.96807,5.05773 10.93468,0.30751 5.42816,4.44783 12.84371,5.44771 16.8005,1.43322 7.49812,2.32629 12.20724,4.50228 13.99302,-0.52607 3.79214,5.32926 10.07124,6.4578 13.3123,-0.5777 6.44754,3.26962 7.41413,1.0062 11.6655,-2.79322 7.27033,6.98476 13.72072,3.56094 16.31104,-2.78239 10.16868,2.74613 11.71908,-8.1578 11.1866,-12.21523 8.86297,-4.20951 11.24183,-14.02741 4.53815,-22.11516 1.97784,-10.14268 -1.17622,-21.84263 -14.57858,-26.40916 -3.29773,-7.86485 -14.26159,-13.58139 -21.69731,-6.93614 -5.36192,-6.05447 -13.75266,-5.86662 -17.13214,-0.92428 -2.72253,-3.82602 -6.06948,-1.74341 -7.91126,0.2012 -4.80871,-3.78828 -11.57843,-5.05509 -16.68476,-0.49159 -3.18364,-3.59485 -7.43485,-4.98846 -11.07115,-4.49342 z"
     id="path4043-4"
     inkscape:connector-curvature="0"
     sodipodi:nodetypes="ccccccccccccccccccccccc" />
  <text
     xml:space="preserve"
     style="font-style:normal;font-variant:normal;font-weight:normal;font-stretch:normal;font-size:16px;line-height:1.25;font-family:Lavi;-inkscape-font-specification:'Lavi, Normal';font-variant-ligatures:normal;font-variant-caps:normal;font-variant-numeric:normal;font-feature-settings:normal;text-align:center;letter-spacing:0px;word-spacing:0px;writing-mode:lr-tb;text-anchor:middle;fill:#000000;fill-opacity:1;stroke:none"
     x="343.25092"
     y="227.15607"
     id="text110"><tspan
       sodipodi:role="line"
       x="343.25092"
       y="241.80647"
       id="tspan114" /></text>
  <path
     style="display:inline;fill:#ffffff;stroke:none;stroke-width:0.41939884"
     d="m 60.263741,573.99068 8.708801,12.61052 -5.056744,6.14357 2.52835,3.55679 -3.932993,3.55684 7.866031,2.58677 c -5.075268,7.89841 -11.908501,14.58278 -19.103183,21.01749 L 61.94928,621.5226 c -0.523373,4.5379 -2.880603,8.54811 -5.056701,12.61051 l 11.237151,-5.49689 c 0.293643,3.06685 -1.909878,4.98401 -3.652057,7.11362 l 8.146925,-1.9401 -1.123706,2.58677 c 3.293345,-0.8805 6.423441,-1.5731 10.113445,-2.91011 l -4.775806,8.73035 9.832507,-5.4969 2.52835,3.55683 2.528394,-3.88017 2.809288,13.2572 5.337638,-13.90387 3.531122,8.17643 2.93027,-7.52976 c 3.61942,3.72343 5.44104,7.93471 6.74229,12.28718 2.864,-5.17355 5.71551,-10.34712 9.83251,-15.52063 1.76399,1.53988 4.25572,5.03426 7.30415,10.02374 l 1.96652,-6.79029 c 5.30936,4.5377 9.89111,9.35454 12.64179,14.87392 v -13.90386 l 7.02322,7.11362 2.24741,-10.99379 6.18046,7.7603 0.56187,-9.0537 8.14692,6.46695 -0.28094,-5.49689 8.14698,4.20351 c 0,0 -2.03107,-8.88199 -0.68153,-10.62404 1.3495,-1.74204 11.07587,2.54036 11.07587,2.54036 0,0 -3.20906,-6.4979 -2.24741,-7.76029 0.96165,-1.26243 10.67531,0.32333 10.67531,0.32333 l -8.14696,-10.67041 c 6.04004,-3.50285 12.08898,-6.99545 19.38412,-9.05373 0,0 -9.09815,-6.82621 -9.35068,-8.45265 -0.25248,-1.62643 4.29393,-3.51114 4.29393,-3.51114 l -8.70815,-4.75738 9.83186,-5.91304 -16.85573,0.64667 7.58509,-11.31712 -12.64179,9.7004 5.33764,-21.01749 c -6.13169,9.002 -14.36031,15.5905 -23.03618,21.66421 l 3.09023,-7.437 -11.23716,8.73034 -1.12375,-17.13731 -4.49486,13.25719 c -3.93248,-7.12921 -6.08656,-14.84321 -7.02322,-22.95759 -0.78493,7.32919 -3.65831,14.65834 -7.86599,21.98754 l -3.09023,-16.16732 -6.74228,12.61052 -3.6521,-9.70039 -6.18041,11.96379 -6.74233,-18.4307 -1.40464,17.46069 -3.933,-7.11362 -2.24745,8.40697 -6.18041,-11.9638 1.404643,13.2572 c -6.306438,-6.28859 -10.564561,-10.21963 -15.73202,-15.19727 l 5.618576,17.13737 -8.708801,-8.08368 3.371162,11.9638 -7.304156,-4.52684 1.123706,7.43696 z"
     id="path3497"
     inkscape:connector-curvature="0"
     sodipodi:nodetypes="ccccccccccccccccccccccccccccccccccczczccczccccccccccccccccccccccccccccccc" />
  <path
     style="fill:#ffffff;fill-opacity:1;stroke:none;stroke-width:0.38263446"
     d="m 377.91515,593.00694 c 12.73874,3.09258 17.63822,5.96422 15.35174,7.73144 5.22617,0.88358 7.186,23.85702 2.28648,28.05408 -0.32665,0.44188 -2.61308,1.76722 -1.63319,1.98811 0.9799,0.22089 6.85931,-0.44176 7.83921,0.44178 0.9799,0.88364 -8.8191,13.47484 -7.51261,13.91664 1.30659,0.44177 31.35689,-7.95236 35.60309,-5.96425 4.24623,1.98807 1.95982,7.06871 3.26638,7.28967 1.30645,0.22089 13.39198,-1.10449 15.02516,-0.88365 1.63311,0.22092 4.57276,6.84787 6.20595,7.06875 1.63318,0.22092 9.14579,-2.87164 10.45233,-2.65077 1.30655,0.22093 0.65322,5.74338 2.2864,5.96422 1.63319,0.22093 8.8191,-4.6388 9.79905,-4.41795 0.97986,0.22093 4.57287,11.2659 6.20602,11.92851 1.63319,0.66273 12.08544,-12.14936 13.06538,-12.37027 0.97985,-0.22093 7.18587,15.02111 8.49246,15.24199 1.30655,0.22092 7.83917,-10.38228 8.81911,-10.16135 0.9799,0.22088 7.18592,6.40613 8.49243,6.84786 1.30654,0.44177 9.79904,-13.6957 11.10554,-13.6957 1.30659,0 12.41208,5.96426 13.39202,7.06872 0.9799,1.1045 1.95976,-5.74334 3.26629,-5.74334 1.30656,0 16.33168,3.97619 16.65837,3.75531 0.3266,-0.22093 -2.28648,-4.418 -1.30658,-4.418 0.97989,0 16.33167,5.52249 16.98501,4.418 0.6532,-1.10451 33.31659,5.52244 35.60303,4.63886 2.28644,-0.88364 -14.69852,-18.11368 -13.06542,-19.43906 1.6332,-1.32541 7.51269,0.22089 7.83929,-0.4418 0.32661,-0.66269 -3.59297,-3.53437 -2.61316,-4.41799 0.97998,-0.88358 12.08553,-4.41794 13.06538,-5.52241 0.97994,-1.1045 -4.89948,-3.97625 -3.59299,-4.63894 1.30659,-0.66269 20.57803,-4.85976 20.90464,-5.96425 0.3266,-1.1045 -9.799,-6.40599 -8.49251,-7.95229 1.30655,-1.54631 4.89953,-2.209 4.57288,-3.3135 -0.32664,-1.10449 -6.53271,-2.42991 -6.20606,-3.5344 0.32669,-1.10451 3.59298,-6.62695 4.57288,-7.51053 0.97989,-0.8836 -6.85932,-0.4418 -6.85932,-1.32542 0,-0.88356 28.7438,-24.51973 28.09047,-31.14668 -10.12561,4.19707 -44.74879,11.70762 -55.52764,9.94048 -10.779,-1.76726 -6.53268,-12.81212 -8.16582,-13.47485 -1.63319,-0.66269 -13.71867,3.7553 -15.35186,2.20899 -1.63316,-1.54626 -2.28641,-4.41795 -3.59298,-4.41795 -1.30647,0 -8.81912,6.18511 -10.45222,5.96426 -1.63319,-0.22093 -16.98496,-9.9404 -19.27144,-10.16135 -2.2864,-0.22085 -11.10551,3.75529 -13.06534,3.97617 -1.95979,0.22092 -3.59294,-5.30152 -5.22613,-4.85972 -1.63319,0.44173 -12.08545,4.41795 -13.71855,3.97615 -1.6332,-0.44182 -2.93973,-2.20896 -4.24631,-1.76716 -1.30646,0.44174 -7.18592,2.20896 -7.18592,2.20896 0,0 -4.24624,-1.32542 -6.20603,-1.32542 -1.95979,0 -15.35173,7.28968 -16.98492,7.73144 -1.63319,0.44178 -16.16372,-7.64429 -15.18382,-8.96971 0.97993,-1.32538 -14.21324,9.19064 -16.49968,9.85333 -2.28639,0.66265 -9.14575,-1.32538 -9.79896,-0.66269 -0.65329,0.66269 -2.61309,4.19703 -4.57292,4.41795 -1.95979,0.22088 -6.53267,1.10446 -6.53267,1.10446 l 0.65326,1.32541 c 0,0 -13.7186,-3.53437 -15.35178,-4.85975 -1.63316,-1.32538 0.97993,5.74333 1.95983,7.51055 -5.87938,-1.76722 -23.19099,-5.52248 -24.49745,-6.62697 -1.30658,-1.10451 2.28636,3.97617 4.24615,5.52248 -2.61305,-0.66273 -4.89953,-0.88362 -4.89953,-0.88362 l 7.51261,5.30156 -2.28647,0.44184 c 0,0 4.89952,2.42989 4.89952,3.53439 0,1.10445 -12.73866,2.42987 -12.73866,2.42987 0,0 5.22613,1.98803 3.91959,3.09254 -1.30659,1.10449 -4.57293,1.76718 -4.57293,1.76718 l -0.65319,2.87172 z"
     id="path5888"
     inkscape:connector-curvature="0"
     sodipodi:nodetypes="cccsccccccccccccccscscsccccccccccccsccccscccccccsccccccccccccccsccccc" />
  <path
     style="color:#000000;display:inline;overflow:visible;visibility:visible;fill:#ffffff;fill-opacity:1;fill-rule:nonzero;stroke:none;stroke-width:0.42790252px;marker:none;enable-background:accumulate"
     d="m 442.54413,902.04507 c 11.1306,-1.59881 15.11507,-14.30189 -0.90883,-21.71826 1.44803,0.68974 5.82363,12.51312 4.23627,-16.35808 3.33924,2.98474 6.06885,1.73942 4.99118,-25.92436 2.72398,-0.85355 9.84367,14.34634 4.43657,-16.20286 5.85549,10.32485 9.68127,9.97496 12.7552,5.67107 10.44582,21.60836 10.66869,9.08151 13.86431,6.48112 3.46479,6.09466 7.34203,6.1643 11.9233,-4.05073 1.05093,8.1415 5.0418,6.46623 9.98228,1.62027 3.63458,19.17754 14.00071,8.85401 21.62835,10.53179 9.61807,18.86877 24.56451,4.00724 37.15641,4.05073 10.31083,-3.09097 23.34184,1.76572 29.11511,-14.58252 -1.30704,14.52765 2.77459,7.01394 6.93214,-0.81013 0.81573,2.83671 -4.48579,16.39701 9.15044,-3.24053 -0.36817,6.71451 -1.86216,15.48492 6.37758,6.48112 0.936,4.1538 -5.73809,20.5005 11.09149,-0.8102 0.0898,5.87191 -3.09808,17.40248 8.59586,3.24061 -9.48636,34.88701 -4.22866,31.15312 2.21828,24.3041 -5.01969,20.58012 -11.49392,46.10618 1.26304,45.16786 -9.98883,4.75435 -9.81419,11.82384 -8.47247,22.88357 -12.51924,-22.27098 -13.99018,-5.34577 -19.41006,-2.43047 -5.72173,-3.70494 -10.9929,-17.28207 -17.7463,1.62035 -10.34589,-7.77861 -12.39708,-0.64389 -15.80537,4.05073 -18.07505,-14.92764 -17.64808,-2.82701 -25.78765,-3.24061 -4.81242,-18.46531 -15.67234,-4.53777 -23.56937,-6.48105 -9.98229,-15.14171 -22.27094,-5.71051 -29.9469,1.62026 -3.13806,-6.25722 -5.36502,-15.76803 -13.30975,-4.86078 -5.17956,-11.99654 -10.62128,-12.50438 -16.35991,0 -1.50248,-7.5389 -5.66827,-8.75549 -16.08258,4.86078 4.69624,-12.48702 -1.49669,-17.39917 -8.31862,-21.87378 z"
     id="path3557"
     inkscape:connector-curvature="0"
     sodipodi:nodetypes="cccccccccccccccccccccccccccccc" />
  <path
     style="fill:#ffffff;fill-opacity:1;stroke:none;stroke-width:0.20311686"
     d="m 545.7025,1039.1911 c -1.76133,-21.349 16.90871,-28.3845 65.87354,-27.4141 48.96482,0.9704 60.58956,13.3432 64.11222,20.8638 3.52265,7.5207 -4.22717,26.2011 -34.52196,34.4496 -30.29478,8.2484 -81.02096,-3.3965 -87.36171,-9.4615 -6.34076,-6.0651 -7.74984,-12.858 -8.10209,-18.4378 z"
     id="path3238"
     inkscape:connector-curvature="0" />
  <path
     style="color:#000000;display:inline;overflow:visible;visibility:visible;fill:#ffffff;fill-opacity:1;fill-rule:nonzero;stroke:none;stroke-width:0.19187529px;marker:none;enable-background:accumulate"
     d="m 619.12499,1083.8569 c -14.7274,-5.8547 -20.897,-8.2497 -24.67835,-21.2896 -3.78137,-13.0399 -6.56763,-1.3307 -6.56763,-1.3307 0,0 1.39312,22.8864 31.24598,22.6203 z"
     id="path3984"
     inkscape:connector-curvature="0" />
  <flowRoot
     transform="matrix(1.4478102,0,0,1.5229467,161.76367,35.165423)"
     style="font-style:normal;font-variant:normal;font-weight:normal;font-stretch:normal;font-size:40px;line-height:1.25;font-family:'Nanum Pen Script OTF';-inkscape-font-specification:'Nanum Pen Script OTF';letter-spacing:0px;word-spacing:0px;fill:#000000;fill-opacity:1;stroke:none"
     id="flowRoot57"
     xml:space="preserve"><flowRegion
       style="font-style:normal;font-variant:normal;font-weight:normal;font-stretch:normal;font-family:'Nanum Pen Script OTF';-inkscape-font-specification:'Nanum Pen Script OTF'"
       id="flowRegion53"><rect
         style="font-style:normal;font-variant:normal;font-weight:normal;font-stretch:normal;font-family:'Nanum Pen Script OTF';-inkscape-font-specification:'Nanum Pen Script OTF'"
         y="-14.053221"
         x="17.29627"
         height="55.157722"
         width="462.51071"
         id="rect51" /></flowRegion><flowPara
       style="font-style:normal;font-variant:normal;font-weight:normal;font-stretch:normal;font-family:'Nanum Pen Script OTF';-inkscape-font-specification:'Nanum Pen Script OTF'"
       id="flowPara55">후추와 당근 미니</flowPara></flowRoot>  <flowRoot
     transform="matrix(1.4072459,0,0,1.4072459,-340.46277,4.4957829)"
     style="font-style:normal;font-variant:normal;font-weight:normal;font-stretch:normal;font-size:18.66666603px;line-height:1;font-family:'Nanum Pen Script OTF';-inkscape-font-specification:'Nanum Pen Script OTF';text-align:end;letter-spacing:0px;word-spacing:0px;text-anchor:end;fill:#000000;fill-opacity:1;stroke:none"
     id="flowRoot69"
     xml:space="preserve"><flowRegion
       style="font-style:normal;font-variant:normal;font-weight:normal;font-stretch:normal;font-size:18.66666603px;line-height:1;font-family:'Nanum Pen Script OTF';-inkscape-font-specification:'Nanum Pen Script OTF';text-align:end;text-anchor:end"
       id="flowRegion61"><rect
         style="font-style:normal;font-variant:normal;font-weight:normal;font-stretch:normal;font-size:18.66666603px;line-height:1;font-family:'Nanum Pen Script OTF';-inkscape-font-specification:'Nanum Pen Script OTF';text-align:end;text-anchor:end"
         y="6.4861007"
         x="562.12878"
         height="104.85864"
         width="378.35593"
         id="rect59" /></flowRegion><flowPara
       style="font-style:normal;font-variant:normal;font-weight:normal;font-stretch:normal;font-size:18.66666603px;line-height:1;font-family:'Nanum Pen Script OTF';-inkscape-font-specification:'Nanum Pen Script OTF'"
       id="flowPara63">지은이: Nicolas Artance</flowPara><flowPara
       id="flowPara65"
       style="font-style:normal;font-variant:normal;font-weight:normal;font-stretch:normal;font-size:18.66666603px;line-height:1;font-family:'Nanum Pen Script OTF';-inkscape-font-specification:'Nanum Pen Script OTF'">David Revoy의 CC-BY 웹툰인</flowPara><flowPara
       id="flowPara67"
       style="font-style:normal;font-variant:normal;font-weight:normal;font-stretch:normal;font-size:18.66666603px;line-height:1;font-family:'Nanum Pen Script OTF';-inkscape-font-specification:'Nanum Pen Script OTF'">후추와 당근을 바탕으로 함</flowPara><flowPara
       style="font-style:normal;font-variant:normal;font-weight:normal;font-stretch:normal;font-size:18.66666603px;line-height:1;font-family:'Nanum Pen Script OTF';-inkscape-font-specification:'Nanum Pen Script OTF'"
       id="flowPara56">한글 번역: Jihoon Kim</flowPara></flowRoot>  <flowRoot
     transform="matrix(2.2605882,0,0,2.5624817,-169.26544,-164.82359)"
     style="font-style:normal;font-variant:normal;font-weight:normal;font-stretch:normal;font-size:40px;line-height:0.97222221em;font-family:'Nanum Pen Script OTF';-inkscape-font-specification:'Nanum Pen Script OTF';text-align:center;letter-spacing:0px;word-spacing:0px;text-anchor:middle;fill:#000000;fill-opacity:1;stroke:none"
     id="flowRoot81"
     xml:space="preserve"><flowRegion
       style="font-style:normal;font-variant:normal;font-weight:normal;font-stretch:normal;line-height:0.97222221em;font-family:'Nanum Pen Script OTF';-inkscape-font-specification:'Nanum Pen Script OTF';text-align:center;text-anchor:middle"
       id="flowRegion77"><rect
         style="font-style:normal;font-variant:normal;font-weight:normal;font-stretch:normal;line-height:0.97222221em;font-family:'Nanum Pen Script OTF';-inkscape-font-specification:'Nanum Pen Script OTF';text-align:center;text-anchor:middle"
         y="79.995255"
         x="153.50441"
         height="82.157288"
         width="281.06439"
         id="rect75" /></flowRegion><flowPara
       style="font-style:normal;font-variant:normal;font-weight:normal;font-stretch:normal;font-size:14.66666698px;line-height:0.97222221em;font-family:'Nanum Pen Script OTF';-inkscape-font-specification:'Nanum Pen Script OTF';text-align:center;text-anchor:middle"
       id="flowPara79">#2 - 벌</flowPara></flowRoot>  <text
     id="text85"
     y="168.28853"
     x="234.4043"
     style="font-style:normal;font-variant:normal;font-weight:normal;font-stretch:normal;font-size:54.83267975px;line-height:1.25;font-family:'Nanum Pen Script OTF';-inkscape-font-specification:'Nanum Pen Script OTF';text-align:center;letter-spacing:0px;word-spacing:0px;text-anchor:middle;fill:#000000;fill-opacity:1;stroke:none;stroke-width:1.37081707"
     xml:space="preserve"><tspan
       style="font-style:normal;font-variant:normal;font-weight:normal;font-stretch:normal;font-size:32.89960861px;font-family:'Nanum Pen Script OTF';-inkscape-font-specification:'Nanum Pen Script OTF';font-variant-ligatures:normal;font-variant-caps:normal;font-variant-numeric:normal;font-feature-settings:normal;text-align:center;writing-mode:lr-tb;text-anchor:middle;stroke-width:1.37081707"
       y="168.28853"
       x="234.4043"
       id="tspan83"
       sodipodi:role="line">마법경연대회* 이후...</tspan></text>
  <text
     id="text94"
     y="229.84518"
     x="344.06918"
     style="font-style:normal;font-variant:normal;font-weight:normal;font-stretch:normal;font-size:20.22135162px;line-height:0.97222221em;font-family:'Nanum Pen Script OTF';-inkscape-font-specification:'Nanum Pen Script OTF';font-variant-ligatures:normal;font-variant-caps:normal;font-variant-numeric:normal;font-feature-settings:normal;text-align:center;letter-spacing:0px;word-spacing:0px;writing-mode:lr-tb;text-anchor:middle;fill:#000000;fill-opacity:1;stroke:none;stroke-width:1.26383448"
     xml:space="preserve"><tspan
       id="tspan92"
       y="229.84518"
       x="344.06918"
       sodipodi:role="line"
       style="stroke-width:1.26383448">내가</tspan><tspan
       y="249.50484"
       x="344.06918"
       sodipodi:role="line"
       style="stroke-width:1.26383448"
       id="tspan130">꼴지라니... 너무</tspan><tspan
       y="269.16449"
       x="344.06918"
       sodipodi:role="line"
       style="stroke-width:1.26383448"
       id="tspan132">쪽팔려!</tspan></text>
  <text
     id="text103"
     y="433.68118"
     x="357.38995"
     style="font-style:normal;font-variant:normal;font-weight:normal;font-stretch:normal;font-size:19.68417358px;line-height:0.97222221em;font-family:'Nanum Pen Script OTF';-inkscape-font-specification:'Nanum Pen Script OTF';font-variant-ligatures:normal;font-variant-caps:normal;font-variant-numeric:normal;font-feature-settings:normal;text-align:center;letter-spacing:0px;word-spacing:0px;writing-mode:lr-tb;text-anchor:middle;fill:#000000;fill-opacity:1;stroke:none;stroke-width:1.23026085"
     xml:space="preserve"><tspan
       id="tspan101"
       y="433.68118"
       x="357.38995"
       sodipodi:role="line"
       style="stroke-width:1.23026085">스승님이</tspan><tspan
       y="452.81857"
       x="357.38995"
       sodipodi:role="line"
       style="stroke-width:1.23026085"
       id="tspan140">보시면 큰일 날</tspan><tspan
       y="471.95596"
       x="357.38995"
       sodipodi:role="line"
       style="stroke-width:1.23026085"
       id="tspan142">텐데...</tspan></text>
  <text
     transform="matrix(0.31292805,-0.16109368,-0.05777113,0.4268683,317.61476,-349.37132)"
     id="text109"
     y="1584.5073"
     x="787.65729"
     style="font-style:normal;font-variant:normal;font-weight:normal;font-stretch:normal;line-height:0.97222221em;font-family:'Nanum Pen Script OTF';-inkscape-font-specification:'Nanum Pen Script OTF';letter-spacing:0px;word-spacing:0px;fill:#000000;fill-opacity:1;stroke:#000000;stroke-width:0.99236238;stroke-miterlimit:4;stroke-dasharray:none;stroke-opacity:1;filter:url(#filter4375-4-1-1-1-9)"
     xml:space="preserve"><tspan
       style="font-style:normal;font-variant:normal;font-weight:normal;font-stretch:normal;font-size:70px;line-height:0.97222221em;font-family:'Nanum Pen Script OTF';-inkscape-font-specification:'Nanum Pen Script OTF';fill:#ffffff"
       y="1584.5073"
       x="787.65729"
       id="tspan107"
       sodipodi:role="line"><tspan
         id="tspan105"
         style="font-style:normal;font-variant:normal;font-weight:normal;font-stretch:normal;font-size:80.40014648px;line-height:0.97222221em;font-family:'Nanum Pen Script OTF';-inkscape-font-specification:'Nanum Pen Script OTF'">쿵!</tspan></tspan></text>
  <text
     transform="matrix(0.49194084,-0.19096023,-0.07556807,0.48402808,543.73299,-388.20418)"
     id="text114"
     y="1584.5073"
     x="787.65729"
     style="font-style:normal;font-variant:normal;font-weight:normal;font-stretch:normal;line-height:0.97222221em;font-family:'Nanum Pen Script OTF';-inkscape-font-specification:'Nanum Pen Script OTF';letter-spacing:0px;word-spacing:0px;fill:#000000;fill-opacity:1;stroke:#000000;stroke-width:0.58598002;stroke-miterlimit:4;stroke-dasharray:none;stroke-opacity:1;filter:url(#filter4375-4-1-1-1-9-5);"
     xml:space="preserve"><tspan
       style="font-style:normal;font-variant:normal;font-weight:normal;font-stretch:normal;font-size:70px;line-height:0.97222221em;font-family:'Nanum Pen Script OTF';-inkscape-font-specification:'Nanum Pen Script OTF';fill:#000000;stroke-width:0.58598002;"
       y="1584.5073"
       x="787.65729"
       id="tspan112"
       sodipodi:role="line">??</tspan></text>
  <text
     id="text119"
     y="614.35474"
     x="129.75046"
     style="font-style:normal;font-variant:normal;font-weight:normal;font-stretch:normal;font-size:22.94814873px;line-height:0.97222221em;font-family:'Nanum Pen Script OTF';-inkscape-font-specification:'Nanum Pen Script OTF';font-variant-ligatures:normal;font-variant-caps:normal;font-variant-numeric:normal;font-feature-settings:normal;text-align:center;letter-spacing:0px;word-spacing:0px;writing-mode:lr-tb;text-anchor:middle;fill:#000000;fill-opacity:1;stroke:none;stroke-width:1.4342593"
     xml:space="preserve"><tspan
       style="font-style:normal;font-variant:normal;font-weight:normal;font-stretch:normal;font-size:30.59753227px;line-height:0.97222221em;font-family:'Nanum Pen Script OTF';-inkscape-font-specification:'Nanum Pen Script OTF';stroke-width:1.4342593"
       y="614.35474"
       x="129.75046"
       id="tspan116"
       sodipodi:role="line">스승님!!</tspan></text>
  <text
     id="text127"
     y="592.008"
     x="511.14163"
     style="font-style:normal;font-variant:normal;font-weight:normal;font-stretch:normal;font-size:19.86485291px;line-height:0.97222221em;font-family:'Nanum Pen Script OTF';-inkscape-font-specification:'Nanum Pen Script OTF';font-variant-ligatures:normal;font-variant-caps:normal;font-variant-numeric:normal;font-feature-settings:normal;text-align:center;letter-spacing:0px;word-spacing:0px;writing-mode:lr-tb;text-anchor:middle;fill:#000000;fill-opacity:1;stroke:none;stroke-width:1.24155331"
     xml:space="preserve"><tspan
       y="592.008"
       x="511.14163"
       id="tspan121"
       sodipodi:role="line"
       style="stroke-width:1.24155331">정말 죄송합니다!</tspan><tspan
       id="tspan123"
       y="611.32104"
       x="511.14163"
       sodipodi:role="line"
       style="stroke-width:1.24155331">제 부족한 실력 때문에 아를 웃음거리로</tspan><tspan
       id="tspan125"
       y="630.63409"
       x="511.14163"
       sodipodi:role="line"
       style="stroke-width:1.24155331">만들어서 정말 죄송합니다!</tspan></text>
  <text
     id="text135"
     y="867.7207"
     x="539.47699"
     style="font-style:normal;font-variant:normal;font-weight:normal;font-stretch:normal;font-size:20.19022179px;line-height:0.97222221em;font-family:'Nanum Pen Script OTF';-inkscape-font-specification:'Nanum Pen Script OTF';font-variant-ligatures:normal;font-variant-caps:normal;font-variant-numeric:normal;font-feature-settings:normal;text-align:center;letter-spacing:0px;word-spacing:0px;writing-mode:lr-tb;text-anchor:middle;fill:#000000;fill-opacity:1;stroke:none;stroke-width:1.26188886"
     xml:space="preserve"><tspan
       id="tspan133"
       y="867.7207"
       x="539.47699"
       sodipodi:role="line"
       style="stroke-width:1.26188886">제가 이번 일은 꼭</tspan><tspan
       y="887.3501"
       x="539.47699"
       sodipodi:role="line"
       style="stroke-width:1.26188886"
       id="tspan154">해결할게요, 그리고 정말</tspan><tspan
       y="906.97949"
       x="539.47699"
       sodipodi:role="line"
       style="stroke-width:1.26188886"
       id="tspan150">열심히 해서...</tspan></text>
  <text
     id="text141"
     y="1037.0815"
     x="612.07153"
     style="font-style:normal;font-variant:normal;font-weight:normal;font-stretch:normal;font-size:20.30459785px;line-height:0.97222221em;font-family:'Nanum Pen Script OTF';-inkscape-font-specification:'Nanum Pen Script OTF';font-variant-ligatures:normal;font-variant-caps:normal;font-variant-numeric:normal;font-feature-settings:normal;text-align:center;letter-spacing:0px;word-spacing:0px;writing-mode:lr-tb;text-anchor:middle;fill:#000000;fill-opacity:1;stroke:none;stroke-width:1.26903737"
     xml:space="preserve"><tspan
       y="1037.0815"
       x="614.90704"
       id="tspan137"
       sodipodi:role="line"
       style="stroke-width:1.26903737">감사합니다, </tspan><tspan
       id="tspan139"
       y="1056.8221"
       x="612.07153"
       sodipodi:role="line"
       style="stroke-width:1.26903737">스승님...</tspan></text>
  <text
     id="text147"
     y="1395.2637"
     x="34.721382"
     style="font-style:normal;font-variant:normal;font-weight:normal;font-stretch:normal;font-size:20.79770851px;line-height:1;font-family:'Nanum Pen Script OTF';-inkscape-font-specification:'Nanum Pen Script OTF';font-variant-ligatures:normal;font-variant-caps:normal;font-variant-numeric:normal;font-feature-settings:normal;text-align:center;letter-spacing:0px;word-spacing:0px;writing-mode:lr-tb;text-anchor:middle;fill:#000000;fill-opacity:1;stroke:none;stroke-width:1.29985678"
     xml:space="preserve"><tspan
       style="font-style:normal;font-variant:normal;font-weight:normal;font-stretch:normal;line-height:1;font-family:'Nanum Pen Script OTF';-inkscape-font-specification:'Nanum Pen Script OTF';text-align:start;text-anchor:start;stroke-width:1.29985678"
       y="1395.2637"
       x="34.721382"
       id="tspan143"
       sodipodi:role="line">* 후추와 당근 제 22화 &quot;투표 시스템&quot;을 참고하세요.</tspan><tspan
       id="tspan145"
       style="font-style:normal;font-variant:normal;font-weight:normal;font-stretch:normal;line-height:1;font-family:'Nanum Pen Script OTF';-inkscape-font-specification:'Nanum Pen Script OTF';text-align:start;text-anchor:start;stroke-width:1.29985678"
       y="1416.0614"
       x="34.721382"
       sodipodi:role="line">(https://www.peppercarrot.com/kr/article412/episode-22-the-voting-system)</tspan></text>
</svg>
